LEAF NUMBER (NON-VERNALIZED)				FLOWERING TIME (NON-VERNALIZED)				LEAF NUMBER (VERNALIZED)				FLOWERING TIME (VERNALIZED)		
GENOTYPE	BLOCK	VARIABLE		GENOTYPE	BLOCK	VARIABLE		GENOTYPE	BLOCK	VARIABLE		GENOTYPE	BLOCK	VARIABLE
Agu-0	1	40		Agu-0	1	51		Agu-0	1	21		Agu-0	1	33
Agu-0	1	42		Agu-0	1	51		Agu-0	1	22		Agu-0	1	33
Agu-0	1	37		Agu-0	1	48		Agu-0	1	21		Agu-0	1	33
Agu-0	1	40		Agu-0	1	55		Agu-0	1	20		Agu-0	1	31
Agu-0	1	36		Agu-0	1	49		Agu-0	1	20		Agu-0	1	35
Agu-0	1	43		Agu-0	1	49		Agu-0	1	18		Agu-0	1	29
Agu-0	2	51		Agu-0	2	50		Agu-0	2	20		Agu-0	2	32
Agu-0	2	41		Agu-0	2	56		Agu-0	2	21		Agu-0	2	36
Agu-0	2	41		Agu-0	2	49		Agu-0	2	22		Agu-0	2	38
Agu-0	2	43		Agu-0	2	61		Agu-0	2	20		Agu-0	2	32
Agu-0	2	40		Agu-0	2	52		Agu-0	2	22		Agu-0	2	40
Agu-0	2	41		Agu-0	2	53		Agu-0	2	20		Agu-0	2	33
Agu-0	3	40		Agu-0	3	49		Agu-0	3	19		Agu-0	3	38
Agu-0	3	40		Agu-0	3	45		Agu-0	3	18		Agu-0	3	36
Agu-0	3	43		Agu-0	3	45		Agu-0	3	21		Agu-0	3	36
Agu-0	3	40		Agu-0	3	45		Agu-0	3	20		Agu-0	3	35
Agu-0	3	38		Agu-0	3	44		Agu-0	3	21		Agu-0	3	33
Agu-0	3	37		Agu-0	3	46		Agu-0	3	21		Agu-0	3	35
Agu-1	1	135		Agu-1	1	200		Agu-1	1	45		Agu-1	1	79
Agu-1	1	135		Agu-1	1	200		Agu-1	1	23		Agu-1	1	58
Agu-1	1	111		Agu-1	1	139		Agu-1	1	42		Agu-1	1	65
Agu-1	2	118		Agu-1	2	151		Agu-1	1	31		Agu-1	1	78
Agu-1	2	96		Agu-1	2	171		Agu-1	1	21		Agu-1	1	47
Agu-1	2	100		Agu-1	2	155		Agu-1	2	21		Agu-1	2	51
Agu-1	2	135		Agu-1	2	200		Agu-1	2	24		Agu-1	2	54
Agu-1	2	135		Agu-1	2	200		Agu-1	2	28		Agu-1	2	56
Agu-1	3	120		Agu-1	3	174		Agu-1	2	27		Agu-1	2	47
Agu-1	3	124		Agu-1	3	131		Agu-1	3	30		Agu-1	3	44
Agu-1	3	116		Agu-1	3	160		Agu-1	3	30		Agu-1	3	65
Agu-1	3	135		Agu-1	3	200		Agu-1	3	24		Agu-1	3	46
Agu-1	3	116		Agu-1	3	155		Agu-1	3	28		Agu-1	3	70
Agu-2	1	41		Agu-2	1	54		Agu-1	3	28		Agu-1	3	68
Agu-2	1	52		Agu-2	1	56		Agu-2	1	21		Agu-2	1	33
Agu-2	1	46		Agu-2	1	55		Agu-2	1	22		Agu-2	1	38
Agu-2	1	45		Agu-2	1	55		Agu-2	1	19		Agu-2	1	32
Agu-2	1	45		Agu-2	1	53		Agu-2	1	21		Agu-2	1	30
Agu-2	1	38		Agu-2	1	55		Agu-2	1	19		Agu-2	1	32
Agu-2	2	43		Agu-2	2	60		Agu-2	1	18		Agu-2	1	30
Agu-2	2	39		Agu-2	2	66		Agu-2	2	22		Agu-2	2	29
Agu-2	2	32		Agu-2	2	65		Agu-2	2	18		Agu-2	2	28
Agu-2	2	44		Agu-2	2	55		Agu-2	2	19		Agu-2	2	29
Agu-2	2	42		Agu-2	2	56		Agu-2	2	17		Agu-2	2	31
Agu-2	2	39		Agu-2	2	54		Agu-2	2	17		Agu-2	2	28
Agu-2	3	33		Agu-2	3	50		Agu-2	2	17		Agu-2	2	33
Agu-2	3	37		Agu-2	3	52		Agu-2	3	20		Agu-2	3	35
Agu-2	3	26		Agu-2	3	54		Agu-2	3	21		Agu-2	3	38
Agu-2	3	40		Agu-2	3	52		Agu-2	3	20		Agu-2	3	33
Agu-2	3	33		Agu-2	3	45		Agu-2	3	20		Agu-2	3	35
Agu-2	3	35		Agu-2	3	48		Agu-2	3	20		Agu-2	3	31
Agu-4	1	78		Agu-4	1	97		Agu-2	3	22		Agu-2	3	35
Agu-4	1	63		Agu-4	1	100		Agu-4	1	20		Agu-4	1	35
Agu-4	1	61		Agu-4	1	97		Agu-4	1	23		Agu-4	1	36
Agu-4	1	71		Agu-4	1	101		Agu-4	1	19		Agu-4	1	35
Agu-4	1	77		Agu-4	1	92		Agu-4	1	21		Agu-4	1	35
Agu-4	1	72		Agu-4	1	99		Agu-4	1	19		Agu-4	1	34
Agu-4	2	63		Agu-4	2	104		Agu-4	1	22		Agu-4	1	33
Agu-4	2	59		Agu-4	2	99		Agu-4	2	21		Agu-4	2	39
Agu-4	2	69		Agu-4	2	94		Agu-4	2	17		Agu-4	2	42
Agu-4	2	59		Agu-4	2	101		Agu-4	2	20		Agu-4	2	37
Agu-4	2	71		Agu-4	2	87		Agu-4	2	22		Agu-4	2	38
Agu-4	2	65		Agu-4	2	93		Agu-4	2	19		Agu-4	2	40
Agu-4	3	78		Agu-4	3	91		Agu-4	3	15		Agu-4	3	36
Agu-4	3	72		Agu-4	3	105		Agu-4	3	20		Agu-4	3	39
Agu-4	3	69		Agu-4	3	99		Agu-4	3	19		Agu-4	3	36
Agu-4	3	61		Agu-4	3	108		Agu-4	3	20		Agu-4	3	37
Agu-4	3	67		Agu-4	3	99		Agu-4	3	18		Agu-4	3	38
Agu-4	3	76		Agu-4	3	96		Agu-4	3	20		Agu-4	3	36
Agu-6	1	121		Agu-6	1	160		Agu-6	1	32		Agu-6	1	67
Agu-6	1	104		Agu-6	1	165		Agu-6	1	19		Agu-6	1	43
Agu-6	1	116		Agu-6	1	164		Agu-6	1	35		Agu-6	1	68
Agu-6	1	na		Agu-6	1	158		Agu-6	1	23		Agu-6	1	51
Agu-6	1	128		Agu-6	1	144		Agu-6	1	48		Agu-6	1	75
Agu-6	2	105		Agu-6	2	140		Agu-6	1	40		Agu-6	1	68
Agu-6	2	103		Agu-6	2	134		Agu-6	2	26		Agu-6	2	49
Agu-6	3	106		Agu-6	3	149		Agu-6	2	30		Agu-6	2	47
Agu-6	3	89		Agu-6	3	158		Agu-6	2	25		Agu-6	2	44
Agu-6	3	na		Agu-6	3	162		Agu-6	3	24		Agu-6	3	41
Agu-7	1	78		Agu-7	1	138		Agu-6	3	25		Agu-6	3	37
Agu-7	1	93		Agu-7	1	118		Agu-6	3	24		Agu-6	3	45
Agu-7	1	84		Agu-7	1	120		Agu-6	3	23		Agu-6	3	39
Agu-7	1	79		Agu-7	1	180		Agu-6	3	29		Agu-6	3	46
Agu-7	1	95		Agu-7	1	113		Agu-6	3	20		Agu-6	3	48
Agu-7	1	84		Agu-7	1	153		Agu-7	1	20		Agu-7	1	46
Agu-7	2	77		Agu-7	2	120		Agu-7	1	17		Agu-7	1	43
Agu-7	2	71		Agu-7	2	128		Agu-7	1	18		Agu-7	1	39
Agu-7	2	79		Agu-7	2	123		Agu-7	1	18		Agu-7	1	41
Agu-7	2	78		Agu-7	2	115		Agu-7	1	18		Agu-7	1	45
Agu-7	2	78		Agu-7	2	106		Agu-7	1	18		Agu-7	1	47
Agu-7	3	79		Agu-7	3	117		Agu-7	2	22		Agu-7	2	42
Agu-7	3	86		Agu-7	3	114		Agu-7	2	18		Agu-7	2	42
Agu-7	3	87		Agu-7	3	110		Agu-7	2	18		Agu-7	2	41
Agu-7	3	97		Agu-7	3	103		Agu-7	2	16		Agu-7	2	46
Agu-7	3	86		Agu-7	3	105		Agu-7	2	17		Agu-7	2	39
Agu-8	1	135		Agu-8	1	200		Agu-7	3	24		Agu-7	3	38
Agu-8	1	135		Agu-8	1	200		Agu-7	3	21		Agu-7	3	39
Agu-8	2	na		Agu-8	2	196		Agu-7	3	21		Agu-7	3	43
Agu-8	2	116		Agu-8	2	142		Agu-7	3	20		Agu-7	3	41
Agu-8	3	102		Agu-8	3	151		Agu-7	3	20		Agu-7	3	45
Agu-8	3	135		Agu-8	3	200		Agu-7	3	22		Agu-7	3	47
Agu-8	3	105		Agu-8	3	173		Agu-8	1	27		Agu-8	1	53
Agu-11	1	135		Agu-11	1	200		Agu-8	1	28		Agu-8	1	68
Agu-11	1	105		Agu-11	1	193		Agu-8	1	35		Agu-8	1	71
Agu-11	1	135		Agu-11	1	200		Agu-8	1	23		Agu-8	1	55
Agu-11	1	127		Agu-11	1	169		Agu-8	1	24		Agu-8	1	45
Agu-11	1	107		Agu-11	1	127		Agu-8	1	31		Agu-8	1	52
Agu-11	2	102		Agu-11	2	145		Agu-8	2	33		Agu-8	2	64
Agu-11	2	102		Agu-11	2	147		Agu-8	2	41		Agu-8	2	69
Agu-11	2	86		Agu-11	2	145		Agu-8	2	21		Agu-8	2	56
Agu-11	2	85		Agu-11	2	127		Agu-8	2	41		Agu-8	2	72
Agu-11	3	118		Agu-11	3	158		Agu-8	2	21		Agu-8	2	55
Agu-11	3	112		Agu-11	3	136		Agu-8	3	27		Agu-8	3	67
Agu-11	3	100		Agu-11	3	132		Agu-11	1	26		Agu-11	1	38
Agu-11	3	120		Agu-11	3	133		Agu-11	1	20		Agu-11	1	47
Agu-12	1	101		Agu-12	1	164		Agu-11	1	23		Agu-11	1	39
Agu-12	2	112		Agu-12	2	159		Agu-11	1	22		Agu-11	1	36
Agu-12	2	129		Agu-12	2	109		Agu-11	1	22		Agu-11	1	41
Agu-12	3	na		Agu-12	3	159		Agu-11	1	20		Agu-11	1	40
Agu-12	3	73		Agu-12	3	109		Agu-11	2	31		Agu-11	2	49
Agu-12	3	na		Agu-12	3	176		Agu-11	2	22		Agu-11	2	47
Agu-18	1	38		Agu-18	1	48		Agu-11	2	23		Agu-11	2	44
Agu-18	1	37		Agu-18	1	47		Agu-11	2	27		Agu-11	2	47
Agu-18	1	44		Agu-18	1	53		Agu-11	2	28		Agu-11	2	46
Agu-18	1	34		Agu-18	1	45		Agu-11	2	26		Agu-11	2	44
Agu-18	1	39		Agu-18	1	59		Agu-11	3	26		Agu-11	3	43
Agu-18	1	36		Agu-18	1	52		Agu-11	3	29		Agu-11	3	45
Agu-18	2	55		Agu-18	2	59		Agu-11	3	26		Agu-11	3	44
Agu-18	2	41		Agu-18	2	59		Agu-11	3	25		Agu-11	3	45
Agu-18	2	43		Agu-18	2	57		Agu-11	3	23		Agu-11	3	38
Agu-18	2	39		Agu-18	2	54		Agu-11	3	24		Agu-11	3	41
Agu-18	2	36		Agu-18	2	50		Agu-12	1	20		Agu-12	1	43
Agu-18	3	34		Agu-18	3	51		Agu-12	1	31		Agu-12	1	52
Agu-18	3	46		Agu-18	3	55		Agu-12	1	25		Agu-12	1	40
Agu-18	3	39		Agu-18	3	47		Agu-12	1	22		Agu-12	1	40
Agu-18	3	42		Agu-18	3	54		Agu-12	1	29		Agu-12	1	39
Agu-18	3	36		Agu-18	3	50		Agu-12	1	26		Agu-12	1	41
Cdc-0	1	84		Cdc-0	1	112		Agu-12	2	23		Agu-12	2	52
Cdc-0	1	97		Cdc-0	1	122		Agu-12	2	22		Agu-12	2	47
Cdc-0	1	98		Cdc-0	1	124		Agu-12	2	31		Agu-12	2	39
Cdc-0	2	80		Cdc-0	2	119		Agu-12	2	26		Agu-12	2	38
Cdc-0	2	75		Cdc-0	2	121		Agu-12	2	36		Agu-12	2	60
Cdc-0	2	85		Cdc-0	2	115		Agu-12	3	23		Agu-12	3	39
Cdc-0	2	73		Cdc-0	2	122		Agu-12	3	27		Agu-12	3	37
Cdc-0	2	92		Cdc-0	2	121		Agu-12	3	23		Agu-12	3	37
Cdc-0	3	92		Cdc-0	3	133		Agu-12	3	25		Agu-12	3	34
Cdc-0	3	85		Cdc-0	3	116		Agu-18	1	22		Agu-18	1	34
Cdc-0	3	89		Cdc-0	3	139		Agu-18	1	20		Agu-18	1	34
Cdc-0	3	91		Cdc-0	3	117		Agu-18	1	22		Agu-18	1	38
Cdc-0	3	106		Cdc-0	3	116		Agu-18	1	20		Agu-18	1	36
Cdc-0	3	136		Cdc-0	3	173		Agu-18	1	21		Agu-18	1	35
Cdc-1	1	101		Cdc-1	1	145		Agu-18	1	22		Agu-18	1	37
Cdc-1	1	109		Cdc-1	1	130		Agu-18	2	18		Agu-18	2	30
Cdc-1	1	130		Cdc-1	1	129		Agu-18	2	20		Agu-18	2	35
Cdc-1	1	126		Cdc-1	1	123		Agu-18	2	18		Agu-18	2	30
Cdc-1	1	121		Cdc-1	1	130		Agu-18	2	20		Agu-18	2	35
Cdc-1	2	123		Cdc-1	2	141		Agu-18	2	21		Agu-18	2	36
Cdc-1	2	131		Cdc-1	2	130		Agu-18	2	19		Agu-18	2	31
Cdc-1	2	114		Cdc-1	2	133		Agu-18	3	19		Agu-18	3	28
Cdc-1	3	112		Cdc-1	3	135		Agu-18	3	18		Agu-18	3	29
Cdc-1	3	94		Cdc-1	3	118		Agu-18	3	21		Agu-18	3	26
Cdc-1	3	106		Cdc-1	3	116		Agu-18	3	21		Agu-18	3	25
Cdc-1	3	109		Cdc-1	3	130		Agu-18	3	20		Agu-18	3	25
Cdc-1	3	128		Cdc-1	3	115		Agu-18	3	21		Agu-18	3	26
Cdc-1	3	116		Cdc-1	3	124		Cdc-0	1	23		Cdc-0	1	41
Cdc-3	1	95		Cdc-3	1	164		Cdc-0	1	24		Cdc-0	1	42
Cdc-3	1	95		Cdc-3	1	113		Cdc-0	1	20		Cdc-0	1	40
Cdc-3	1	135		Cdc-3	1	200		Cdc-0	1	19		Cdc-0	1	37
Cdc-3	1	84		Cdc-3	1	126		Cdc-0	1	26		Cdc-0	1	47
Cdc-3	1	86		Cdc-3	1	116		Cdc-0	1	20		Cdc-0	1	39
Cdc-3	1	88		Cdc-3	1	124		Cdc-0	2	20		Cdc-0	2	44
Cdc-3	2	95		Cdc-3	2	133		Cdc-0	2	23		Cdc-0	2	44
Cdc-3	2	98		Cdc-3	2	113		Cdc-0	2	20		Cdc-0	2	40
Cdc-3	2	81		Cdc-3	2	118		Cdc-0	2	21		Cdc-0	2	40
Cdc-3	2	91		Cdc-3	2	134		Cdc-0	2	23		Cdc-0	2	44
Cdc-3	2	85		Cdc-3	2	126		Cdc-0	2	22		Cdc-0	2	41
Cdc-3	2	92		Cdc-3	2	138		Cdc-0	3	26		Cdc-0	3	38
Cdc-3	3	80		Cdc-3	3	115		Cdc-0	3	21		Cdc-0	3	39
Cdc-3	3	82		Cdc-3	3	110		Cdc-0	3	22		Cdc-0	3	42
Cdc-3	3	75		Cdc-3	3	127		Cdc-0	3	24		Cdc-0	3	42
Cdc-3	3	81		Cdc-3	3	108		Cdc-0	3	23		Cdc-0	3	44
Cdc-3	3	84		Cdc-3	3	113		Cdc-0	3	20		Cdc-0	3	41
Cdc-3	3	83		Cdc-3	3	115		Cdc-1	1	20		Cdc-1	1	40
Cdc-4	1	135		Cdc-4	1	200		Cdc-1	1	16		Cdc-1	1	39
Cdc-4	1	119		Cdc-4	1	175		Cdc-1	1	25		Cdc-1	1	47
Cdc-4	1	135		Cdc-4	1	200		Cdc-1	1	19		Cdc-1	1	46
Cdc-4	1	135		Cdc-4	1	200		Cdc-1	1	26		Cdc-1	1	41
Cdc-4	1	135		Cdc-4	1	200		Cdc-1	1	21		Cdc-1	1	38
Cdc-4	1	135		Cdc-4	1	200		Cdc-1	2	25		Cdc-1	2	54
Cdc-4	2	135		Cdc-4	2	200		Cdc-1	2	32		Cdc-1	2	47
Cdc-4	2	na		Cdc-4	2	169		Cdc-1	2	31		Cdc-1	2	52
Cdc-4	2	96		Cdc-4	2	167		Cdc-1	2	27		Cdc-1	2	44
Cdc-4	2	na		Cdc-4	2	205		Cdc-1	2	29		Cdc-1	2	49
Cdc-4	3	135		Cdc-4	3	200		Cdc-1	2	26		Cdc-1	2	50
Cdc-4	3	135		Cdc-4	3	200		Cdc-1	3	17		Cdc-1	3	46
Cdc-4	3	112		Cdc-4	3	156		Cdc-1	3	15		Cdc-1	3	48
Cdc-4	3	120		Cdc-4	3	136		Cdc-1	3	22		Cdc-1	3	44
Cdc-4	3	109		Cdc-4	3	173		Cdc-1	3	27		Cdc-1	3	45
Cdc-4	3	107		Cdc-4	3	194		Cdc-1	3	26		Cdc-1	3	45
Cdc-5	1	135		Cdc-5	1	200		Cdc-3	1	21		Cdc-3	1	43
Cdc-5	1	135		Cdc-5	1	200		Cdc-3	1	21		Cdc-3	1	40
Cdc-5	1	135		Cdc-5	1	200		Cdc-3	1	33		Cdc-3	1	64
Cdc-5	1	135		Cdc-5	1	200		Cdc-3	1	24		Cdc-3	1	45
Cdc-5	1	135		Cdc-5	1	200		Cdc-3	1	30		Cdc-3	1	49
Cdc-5	1	135		Cdc-5	1	200		Cdc-3	1	26		Cdc-3	1	39
Cdc-5	2	135		Cdc-5	2	200		Cdc-3	2	23		Cdc-3	2	43
Cdc-5	2	135		Cdc-5	2	200		Cdc-3	2	21		Cdc-3	2	46
Cdc-5	2	135		Cdc-5	2	200		Cdc-3	2	25		Cdc-3	2	50
Cdc-5	2	135		Cdc-5	2	200		Cdc-3	2	22		Cdc-3	2	47
Cdc-5	2	135		Cdc-5	2	200		Cdc-3	2	25		Cdc-3	2	52
Cdc-5	2	na		Cdc-5	2	194		Cdc-3	2	31		Cdc-3	2	44
Cdc-5	3	135		Cdc-5	3	200		Cdc-3	3	26		Cdc-3	3	41
Cdc-5	3	na		Cdc-5	3	189		Cdc-3	3	24		Cdc-3	3	47
Cdc-5	3	135		Cdc-5	3	200		Cdc-3	3	26		Cdc-3	3	50
Cdc-5	3	135		Cdc-5	3	200		Cdc-3	3	24		Cdc-3	3	45
Cdc-5	3	135		Cdc-5	3	200		Cdc-3	3	31		Cdc-3	3	68
Cdc-5	3	na		Cdc-5	3	185		Cdc-3	3	26		Cdc-3	3	45
Cdc-6	1	85		Cdc-6	1	156		Cdc-4	1	31		Cdc-4	1	42
Cdc-6	1	91		Cdc-6	1	131		Cdc-4	1	27		Cdc-4	1	51
Cdc-6	1	90		Cdc-6	1	126		Cdc-4	1	31		Cdc-4	1	54
Cdc-6	1	98		Cdc-6	1	149		Cdc-4	1	34		Cdc-4	1	51
Cdc-6	1	97		Cdc-6	1	145		Cdc-4	1	28		Cdc-4	1	50
Cdc-6	1	135		Cdc-6	1	200		Cdc-4	1	28		Cdc-4	1	50
Cdc-6	2	104		Cdc-6	2	143		Cdc-4	2	39		Cdc-4	2	59
Cdc-6	2	97		Cdc-6	2	160		Cdc-4	2	35		Cdc-4	2	49
Cdc-6	2	135		Cdc-6	2	200		Cdc-4	2	30		Cdc-4	2	49
Cdc-6	2	98		Cdc-6	2	146		Cdc-4	2	43		Cdc-4	2	60
Cdc-6	2	100		Cdc-6	2	130		Cdc-4	3	27		Cdc-4	3	48
Cdc-6	2	93		Cdc-6	2	155		Cdc-4	3	32		Cdc-4	3	47
Cdc-6	3	89		Cdc-6	3	154		Cdc-4	3	27		Cdc-4	3	44
Cdc-6	3	135		Cdc-6	3	200		Cdc-4	3	26		Cdc-4	3	45
Cdc-6	3	98		Cdc-6	3	132		Cdc-4	3	31		Cdc-4	3	47
Cdc-6	3	83		Cdc-6	3	140		Cdc-4	3	25		Cdc-4	3	49
Cdc-6	3	104		Cdc-6	3	129		Cdc-5	1	21		Cdc-5	1	51
Cdc-6	3	104		Cdc-6	3	140		Cdc-5	1	30		Cdc-5	1	47
Cdc-7	1	135		Cdc-7	1	200		Cdc-5	1	31		Cdc-5	1	43
Cdc-7	1	135		Cdc-7	1	200		Cdc-5	1	27		Cdc-5	1	47
Cdc-7	1	135		Cdc-7	1	200		Cdc-5	1	33		Cdc-5	1	46
Cdc-7	1	135		Cdc-7	1	200		Cdc-5	1	30		Cdc-5	1	46
Cdc-7	1	135		Cdc-7	1	200		Cdc-5	2	27		Cdc-5	2	64
Cdc-7	1	135		Cdc-7	1	200		Cdc-5	2	36		Cdc-5	2	64
Cdc-7	2	135		Cdc-7	2	200		Cdc-5	2	32		Cdc-5	2	52
Cdc-7	2	135		Cdc-7	2	200		Cdc-5	2	31		Cdc-5	2	55
Cdc-7	2	135		Cdc-7	2	200		Cdc-5	2	31		Cdc-5	2	45
Cdc-7	2	135		Cdc-7	2	200		Cdc-5	2	27		Cdc-5	2	51
Cdc-7	2	135		Cdc-7	2	200		Cdc-5	3	37		Cdc-5	3	71
Cdc-7	2	135		Cdc-7	2	200		Cdc-5	3	37		Cdc-5	3	52
Cdc-7	3	135		Cdc-7	3	200		Cdc-5	3	29		Cdc-5	3	50
Cdc-7	3	135		Cdc-7	3	200		Cdc-5	3	35		Cdc-5	3	42
Cdc-7	3	135		Cdc-7	3	200		Cdc-5	3	28		Cdc-5	3	46
Cdc-7	3	135		Cdc-7	3	200		Cdc-6	1	27		Cdc-6	1	52
Cdc-7	3	135		Cdc-7	3	200		Cdc-6	1	34		Cdc-6	1	60
Cdc-7	3	135		Cdc-7	3	200		Cdc-6	1	27		Cdc-6	1	59
Cdc-8	1	89		Cdc-8	1	192		Cdc-6	1	27		Cdc-6	1	57
Cdc-8	1	135		Cdc-8	1	200		Cdc-6	1	36		Cdc-6	1	59
Cdc-8	1	na		Cdc-8	1	199		Cdc-6	1	32		Cdc-6	1	56
Cdc-8	1	109		Cdc-8	1	143		Cdc-6	2	28		Cdc-6	2	46
Cdc-8	1	116		Cdc-8	1	165		Cdc-6	2	30		Cdc-6	2	51
Cdc-8	1	110		Cdc-8	1	168		Cdc-6	2	24		Cdc-6	2	45
Cdc-8	2	135		Cdc-8	2	200		Cdc-6	2	33		Cdc-6	2	51
Cdc-8	2	84		Cdc-8	2	173		Cdc-6	2	28		Cdc-6	2	47
Cdc-8	2	135		Cdc-8	2	200		Cdc-6	2	31		Cdc-6	2	49
Cdc-8	2	135		Cdc-8	2	200		Cdc-6	3	28		Cdc-6	3	43
Cdc-8	2	102		Cdc-8	2	137		Cdc-6	3	28		Cdc-6	3	44
Cdc-8	2	99		Cdc-8	2	134		Cdc-6	3	27		Cdc-6	3	43
Cdc-8	3	104		Cdc-8	3	157		Cdc-6	3	33		Cdc-6	3	44
Cdc-8	3	108		Cdc-8	3	130		Cdc-6	3	28		Cdc-6	3	44
Cdc-8	3	109		Cdc-8	3	155		Cdc-6	3	27		Cdc-6	3	48
Cdc-8	3	135		Cdc-8	3	200		Cdc-7	1	40		Cdc-7	1	65
Cdc-8	3	119		Cdc-8	3	155		Cdc-7	1	37		Cdc-7	1	58
Cdc-8	3	103		Cdc-8	3	183		Cdc-7	1	53		Cdc-7	1	88
Cdc-9	1	135		Cdc-9	1	200		Cdc-7	1	28		Cdc-7	1	55
Cdc-9	1	135		Cdc-9	1	200		Cdc-7	1	34		Cdc-7	1	56
Cdc-9	1	97		Cdc-9	1	153		Cdc-7	2	31		Cdc-7	2	55
Cdc-9	1	135		Cdc-9	1	200		Cdc-7	2	32		Cdc-7	2	57
Cdc-9	1	107		Cdc-9	1	158		Cdc-7	2	36		Cdc-7	2	52
Cdc-9	1	na		Cdc-9	1	185		Cdc-7	2	34		Cdc-7	2	49
Cdc-9	2	98		Cdc-9	2	140		Cdc-7	2	39		Cdc-7	2	55
Cdc-9	2	91		Cdc-9	2	121		Cdc-7	2	38		Cdc-7	2	54
Cdc-9	2	80		Cdc-9	2	127		Cdc-7	3	51		Cdc-7	3	77
Cdc-9	2	na		Cdc-9	2	160		Cdc-7	3	46		Cdc-7	3	66
Cdc-9	3	91		Cdc-9	3	127		Cdc-7	3	45		Cdc-7	3	73
Cdc-9	3	135		Cdc-9	3	200		Cdc-7	3	38		Cdc-7	3	64
Cdc-9	3	135		Cdc-9	3	200		Cdc-7	3	41		Cdc-7	3	68
Cdc-9	3	100		Cdc-9	3	136		Cdc-7	3	30		Cdc-7	3	71
Cdc-9	3	96		Cdc-9	3	145		Cdc-8	1	26		Cdc-8	1	40
Cdc-10	1	135		Cdc-10	1	200		Cdc-8	1	22		Cdc-8	1	41
Cdc-10	1	135		Cdc-10	1	200		Cdc-8	1	22		Cdc-8	1	38
Cdc-10	1	135		Cdc-10	1	200		Cdc-8	1	25		Cdc-8	1	42
Cdc-10	1	135		Cdc-10	1	200		Cdc-8	1	21		Cdc-8	1	40
Cdc-10	1	135		Cdc-10	1	200		Cdc-8	1	27		Cdc-8	1	43
Cdc-10	2	119		Cdc-10	2	196		Cdc-8	2	25		Cdc-8	2	42
Cdc-10	2	na		Cdc-10	2	201		Cdc-8	2	23		Cdc-8	2	44
Cdc-10	2	135		Cdc-10	2	200		Cdc-8	2	25		Cdc-8	2	41
Cdc-10	2	135		Cdc-10	2	200		Cdc-8	2	24		Cdc-8	2	40
Cdc-10	2	135		Cdc-10	2	200		Cdc-8	2	27		Cdc-8	2	44
Cdc-10	3	135		Cdc-10	3	200		Cdc-8	2	20		Cdc-8	2	40
Cdc-10	3	135		Cdc-10	3	200		Cdc-8	3	24		Cdc-8	3	41
Cdc-10	3	135		Cdc-10	3	200		Cdc-8	3	24		Cdc-8	3	38
Cdc-10	3	na		Cdc-10	3	201		Cdc-8	3	23		Cdc-8	3	38
Cdc-10	3	135		Cdc-10	3	200		Cdc-8	3	24		Cdc-8	3	39
Cdc-10	3	106		Cdc-10	3	127		Cdc-8	3	24		Cdc-8	3	43
Gra-0	1	46		Gra-0	1	103		Cdc-8	3	25		Cdc-8	3	38
Gra-0	1	51		Gra-0	1	90		Cdc-9	1	21		Cdc-9	1	52
Gra-0	1	51		Gra-0	1	98		Cdc-9	1	24		Cdc-9	1	58
Gra-0	1	46		Gra-0	1	97		Cdc-9	1	25		Cdc-9	1	52
Gra-0	2	57		Gra-0	2	92		Cdc-9	1	28		Cdc-9	1	60
Gra-0	2	na		Gra-0	2	120		Cdc-9	1	31		Cdc-9	1	66
Gra-0	2	na		Gra-0	2	116		Cdc-9	1	24		Cdc-9	1	51
Gra-0	2	57		Gra-0	2	100		Cdc-9	2	26		Cdc-9	2	51
Gra-0	3	55		Gra-0	3	101		Cdc-9	2	28		Cdc-9	2	52
Gra-0	3	na		Gra-0	3	105		Cdc-9	2	27		Cdc-9	2	52
Gra-0	3	56		Gra-0	3	110		Cdc-9	2	27		Cdc-9	2	47
Gra-0	3	54		Gra-0	3	100		Cdc-9	2	27		Cdc-9	2	47
Gra-0	3	na		Gra-0	3	116		Cdc-9	2	37		Cdc-9	2	61
Gra-1	1	58		Gra-1	1	95		Cdc-9	3	28		Cdc-9	3	46
Gra-1	1	50		Gra-1	1	92		Cdc-9	3	30		Cdc-9	3	44
Gra-1	1	52		Gra-1	1	90		Cdc-9	3	28		Cdc-9	3	45
Gra-1	1	na		Gra-1	1	134		Cdc-9	3	30		Cdc-9	3	42
Gra-1	1	na		Gra-1	1	130		Cdc-9	3	31		Cdc-9	3	44
Gra-1	1	46		Gra-1	1	103		Cdc-9	3	28		Cdc-9	3	44
Gra-1	2	na		Gra-1	2	117		Cdc-10	1	23		Cdc-10	1	44
Gra-1	2	na		Gra-1	2	113		Cdc-10	1	20		Cdc-10	1	40
Gra-1	2	48		Gra-1	2	115		Cdc-10	1	22		Cdc-10	1	41
Gra-1	2	51		Gra-1	2	89		Cdc-10	1	25		Cdc-10	1	43
Gra-1	3	na		Gra-1	3	118		Cdc-10	1	24		Cdc-10	1	47
Gra-1	3	56		Gra-1	3	105		Cdc-10	1	24		Cdc-10	1	47
Gra-1	3	na		Gra-1	3	115		Cdc-10	2	24		Cdc-10	2	40
Gra-1	3	na		Gra-1	3	116		Cdc-10	2	21		Cdc-10	2	42
Gra-2	1	47		Gra-2	1	88		Cdc-10	2	27		Cdc-10	2	38
Gra-2	1	65		Gra-2	1	103		Cdc-10	2	27		Cdc-10	2	38
Gra-2	1	60		Gra-2	1	94		Cdc-10	2	27		Cdc-10	2	42
Gra-2	1	64		Gra-2	1	96		Cdc-10	2	27		Cdc-10	2	38
Gra-2	1	69		Gra-2	1	104		Cdc-10	3	23		Cdc-10	3	54
Gra-2	1	55		Gra-2	1	115		Cdc-10	3	24		Cdc-10	3	45
Gra-2	2	63		Gra-2	2	108		Cdc-10	3	19		Cdc-10	3	43
Gra-2	2	64		Gra-2	2	105		Cdc-10	3	21		Cdc-10	3	40
Gra-2	2	60		Gra-2	2	88		Cdc-10	3	23		Cdc-10	3	43
Gra-2	2	63		Gra-2	2	113		Cdc-10	3	23		Cdc-10	3	40
Gra-2	2	na		Gra-2	2	97		Gra-0	1	22		Gra-0	1	45
Gra-2	2	67		Gra-2	2	104		Gra-0	1	23		Gra-0	1	41
Gra-2	3	62		Gra-2	3	106		Gra-0	1	25		Gra-0	1	46
Gra-2	3	na		Gra-2	3	148		Gra-0	1	20		Gra-0	1	45
Gra-2	3	56		Gra-2	3	105		Gra-0	1	24		Gra-0	1	43
Gra-2	3	na		Gra-2	3	100		Gra-0	1	25		Gra-0	1	43
Gra-2	3	61		Gra-2	3	96		Gra-0	2	21		Gra-0	2	40
Gra-2	3	60		Gra-2	3	102		Gra-0	2	23		Gra-0	2	37
Gra-3	1	64		Gra-3	1	97		Gra-0	2	23		Gra-0	2	37
Gra-3	1	54		Gra-3	1	134		Gra-0	2	20		Gra-0	2	40
Gra-3	1	63		Gra-3	1	95		Gra-0	2	21		Gra-0	2	38
Gra-3	1	51		Gra-3	1	102		Gra-0	2	22		Gra-0	2	38
Gra-3	1	na		Gra-3	1	130		Gra-0	3	21		Gra-0	3	39
Gra-3	1	57		Gra-3	1	113		Gra-0	3	22		Gra-0	3	41
Gra-3	2	58		Gra-3	2	95		Gra-0	3	24		Gra-0	3	37
Gra-3	2	na		Gra-3	2	147		Gra-0	3	19		Gra-0	3	44
Gra-3	2	52		Gra-3	2	104		Gra-0	3	21		Gra-0	3	42
Gra-3	2	47		Gra-3	2	113		Gra-1	1	19		Gra-1	1	48
Gra-3	2	57		Gra-3	2	105		Gra-1	1	22		Gra-1	1	43
Gra-3	2	57		Gra-3	2	101		Gra-1	1	27		Gra-1	1	48
Gra-3	3	57		Gra-3	3	104		Gra-1	1	20		Gra-1	1	57
Gra-3	3	57		Gra-3	3	117		Gra-1	2	22		Gra-1	2	44
Gra-3	3	na		Gra-3	3	139		Gra-1	2	22		Gra-1	2	47
Gra-3	3	57		Gra-3	3	104		Gra-1	2	24		Gra-1	2	44
Gra-3	3	na		Gra-3	3	114		Gra-1	2	21		Gra-1	2	45
Gra-4	1	60		Gra-4	1	101		Gra-1	2	19		Gra-1	2	46
Gra-4	1	59		Gra-4	1	100		Gra-1	3	21		Gra-1	3	38
Gra-4	1	54		Gra-4	1	113		Gra-1	3	19		Gra-1	3	39
Gra-4	1	52		Gra-4	1	118		Gra-1	3	20		Gra-1	3	40
Gra-4	1	57		Gra-4	1	104		Gra-1	3	20		Gra-1	3	41
Gra-4	1	na		Gra-4	1	124		Gra-1	3	20		Gra-1	3	39
Gra-4	2	na		Gra-4	2	115		Gra-1	3	21		Gra-1	3	39
Gra-4	2	na		Gra-4	2	112		Gra-2	1	17		Gra-2	1	47
Gra-4	2	57		Gra-4	2	97		Gra-2	1	26		Gra-2	1	47
Gra-4	3	na		Gra-4	3	132		Gra-2	1	22		Gra-2	1	40
Gra-4	3	na		Gra-4	3	117		Gra-2	1	25		Gra-2	1	49
Gra-4	3	na		Gra-4	3	130		Gra-2	1	18		Gra-2	1	52
Gra-4	3	na		Gra-4	3	135		Gra-2	1	22		Gra-2	1	50
Gra-4	3	na		Gra-4	3	113		Gra-2	2	22		Gra-2	2	40
Gra-4	3	56		Gra-4	3	96		Gra-2	2	25		Gra-2	2	36
Gra-5	1	52		Gra-5	1	103		Gra-2	2	23		Gra-2	2	39
Gra-5	1	52		Gra-5	1	102		Gra-2	2	23		Gra-2	2	36
Gra-5	1	63		Gra-5	1	133		Gra-2	2	22		Gra-2	2	40
Gra-5	1	53		Gra-5	1	98		Gra-2	2	24		Gra-2	2	38
Gra-5	1	na		Gra-5	1	137		Gra-2	3	21		Gra-2	3	46
Gra-5	1	52		Gra-5	1	95		Gra-2	3	21		Gra-2	3	47
Gra-5	2	56		Gra-5	2	124		Gra-2	3	24		Gra-2	3	45
Gra-5	2	na		Gra-5	2	118		Gra-2	3	25		Gra-2	3	45
Gra-5	2	47		Gra-5	2	116		Gra-2	3	26		Gra-2	3	45
Gra-5	2	na		Gra-5	2	117		Gra-2	3	24		Gra-2	3	45
Gra-5	2	58		Gra-5	2	98		Gra-3	1	20		Gra-3	1	41
Gra-5	2	na		Gra-5	2	125		Gra-3	1	21		Gra-3	1	44
Gra-5	3	54		Gra-5	3	95		Gra-3	1	20		Gra-3	1	41
Gra-5	3	na		Gra-5	3	115		Gra-3	1	20		Gra-3	1	42
Gra-5	3	na		Gra-5	3	98		Gra-3	2	24		Gra-3	2	40
Gra-5	3	na		Gra-5	3	102		Gra-3	2	23		Gra-3	2	46
Gra-6	1	71		Gra-6	1	94		Gra-3	2	23		Gra-3	2	40
Gra-6	1	79		Gra-6	1	132		Gra-3	2	24		Gra-3	2	44
Gra-6	1	90		Gra-6	1	131		Gra-3	2	23		Gra-3	2	43
Gra-6	2	na		Gra-6	2	120		Gra-3	3	23		Gra-3	3	38
Gra-6	2	66		Gra-6	2	103		Gra-3	3	23		Gra-3	3	38
Gra-6	2	53		Gra-6	2	88		Gra-3	3	19		Gra-3	3	39
Gra-6	2	64		Gra-6	2	108		Gra-3	3	19		Gra-3	3	39
Gra-6	2	na		Gra-6	2	148		Gra-3	3	20		Gra-3	3	38
Gra-6	3	70		Gra-6	3	126		Gra-3	3	20		Gra-3	3	38
Gra-6	3	70		Gra-6	3	138		Gra-4	1	23		Gra-4	1	47
Gra-7	1	54		Gra-7	1	103		Gra-4	1	21		Gra-4	1	47
Gra-7	1	59		Gra-7	1	91		Gra-4	1	23		Gra-4	1	43
Gra-7	1	na		Gra-7	1	131		Gra-4	1	21		Gra-4	1	43
Gra-7	1	65		Gra-7	1	97		Gra-4	1	24		Gra-4	1	43
Gra-7	1	57		Gra-7	1	103		Gra-4	2	21		Gra-4	2	40
Gra-7	1	72		Gra-7	1	98		Gra-4	2	23		Gra-4	2	39
Gra-7	2	na		Gra-7	2	113		Gra-4	2	24		Gra-4	2	37
Gra-7	2	62		Gra-7	2	116		Gra-4	2	21		Gra-4	2	39
Gra-7	2	62		Gra-7	2	118		Gra-4	3	23		Gra-4	3	45
Gra-7	3	68		Gra-7	3	95		Gra-4	3	25		Gra-4	3	42
Gra-7	3	na		Gra-7	3	127		Gra-4	3	21		Gra-4	3	49
Gra-7	3	56		Gra-7	3	113		Gra-4	3	23		Gra-4	3	43
Gra-7	3	68		Gra-7	3	96		Gra-4	3	25		Gra-4	3	41
Gra-7	3	57		Gra-7	3	99		Gra-4	3	24		Gra-4	3	45
Gra-7	3	58		Gra-7	3	85		Gra-5	1	17		Gra-5	1	43
Gra-8	1	47		Gra-8	1	102		Gra-5	1	27		Gra-5	1	44
Gra-8	1	43		Gra-8	1	92		Gra-5	1	26		Gra-5	1	46
Gra-8	1	53		Gra-8	1	88		Gra-5	1	25		Gra-5	1	43
Gra-8	1	48		Gra-8	1	95		Gra-5	1	24		Gra-5	1	44
Gra-8	1	50		Gra-8	1	93		Gra-5	1	24		Gra-5	1	48
Gra-8	1	46		Gra-8	1	100		Gra-5	2	25		Gra-5	2	45
Gra-8	2	54		Gra-8	2	102		Gra-5	2	24		Gra-5	2	42
Gra-8	2	50		Gra-8	2	103		Gra-5	2	25		Gra-5	2	47
Gra-8	2	48		Gra-8	2	101		Gra-5	2	25		Gra-5	2	49
Gra-8	2	55		Gra-8	2	100		Gra-5	2	28		Gra-5	2	49
Gra-8	2	54		Gra-8	2	99		Gra-5	2	27		Gra-5	2	47
Gra-8	3	53		Gra-8	3	105		Gra-5	3	24		Gra-5	3	40
Gra-8	3	51		Gra-8	3	102		Gra-5	3	21		Gra-5	3	40
Gra-8	3	na		Gra-8	3	124		Gra-5	3	25		Gra-5	3	39
Gra-8	3	na		Gra-8	3	102		Gra-5	3	24		Gra-5	3	38
Gra-8	3	53		Gra-8	3	112		Gra-5	3	21		Gra-5	3	38
Gra-9	1	55		Gra-9	1	101		Gra-5	3	26		Gra-5	3	43
Gra-9	1	45		Gra-9	1	90		Gra-6	1	21		Gra-6	1	41
Gra-9	1	55		Gra-9	1	95		Gra-6	1	22		Gra-6	1	40
Gra-9	1	43		Gra-9	1	103		Gra-6	1	22		Gra-6	1	39
Gra-9	1	50		Gra-9	1	89		Gra-6	1	22		Gra-6	1	39
Gra-9	2	na		Gra-9	2	120		Gra-6	1	21		Gra-6	1	39
Gra-9	2	57		Gra-9	2	136		Gra-6	1	21		Gra-6	1	42
Gra-9	2	na		Gra-9	2	119		Gra-6	2	26		Gra-6	2	47
Gra-9	2	na		Gra-9	2	147		Gra-6	2	28		Gra-6	2	43
Gra-9	2	53		Gra-9	2	110		Gra-6	2	26		Gra-6	2	44
Gra-9	2	na		Gra-9	2	113		Gra-6	2	26		Gra-6	2	47
Gra-9	3	51		Gra-9	3	119		Gra-6	2	23		Gra-6	2	44
Gra-9	3	51		Gra-9	3	115		Gra-6	2	30		Gra-6	2	45
Gra-9	3	51		Gra-9	3	116		Gra-6	3	23		Gra-6	3	39
Gra-9	3	na		Gra-9	3	116		Gra-6	3	23		Gra-6	3	38
Gra-9	3	na		Gra-9	3	102		Gra-6	3	23		Gra-6	3	41
Gra-9	3	na		Gra-9	3	105		Gra-6	3	22		Gra-6	3	43
Leo-1	1	135		Leo-1	1	200		Gra-6	3	24		Gra-6	3	42
Leo-1	1	135		Leo-1	1	200		Gra-6	3	25		Gra-6	3	44
Leo-1	1	135		Leo-1	1	200		Gra-7	1	18		Gra-7	1	40
Leo-1	1	135		Leo-1	1	200		Gra-7	1	18		Gra-7	1	41
Leo-1	1	135		Leo-1	1	200		Gra-7	1	22		Gra-7	1	40
Leo-1	2	135		Leo-1	2	200		Gra-7	1	22		Gra-7	1	42
Leo-1	2	135		Leo-1	2	200		Gra-7	1	22		Gra-7	1	40
Leo-1	2	135		Leo-1	2	200		Gra-7	1	18		Gra-7	1	40
Leo-1	2	135		Leo-1	2	200		Gra-7	2	24		Gra-7	2	38
Leo-1	2	127		Leo-1	2	174		Gra-7	2	24		Gra-7	2	36
Leo-1	3	135		Leo-1	3	200		Gra-7	2	21		Gra-7	2	39
Leo-1	3	134		Leo-1	3	183		Gra-7	2	22		Gra-7	2	36
Leo-1	3	114		Leo-1	3	182		Gra-7	2	22		Gra-7	2	36
Leo-1	3	na		Leo-1	3	199		Gra-7	3	24		Gra-7	3	45
Leo-1	3	107		Leo-1	3	197		Gra-7	3	24		Gra-7	3	44
Leo-2	1	135		Leo-2	1	200		Gra-7	3	26		Gra-7	3	45
Leo-2	1	135		Leo-2	1	200		Gra-7	3	25		Gra-7	3	45
Leo-2	1	135		Leo-2	1	200		Gra-7	3	24		Gra-7	3	45
Leo-2	1	135		Leo-2	1	200		Gra-8	1	18		Gra-8	1	41
Leo-2	2	135		Leo-2	2	200		Gra-8	1	20		Gra-8	1	43
Leo-2	2	135		Leo-2	2	200		Gra-8	1	18		Gra-8	1	42
Leo-2	2	135		Leo-2	2	200		Gra-8	1	18		Gra-8	1	40
Leo-2	2	135		Leo-2	2	200		Gra-8	1	20		Gra-8	1	38
Leo-2	2	135		Leo-2	2	200		Gra-8	2	23		Gra-8	2	44
Leo-2	3	135		Leo-2	3	200		Gra-8	2	21		Gra-8	2	46
Leo-2	3	135		Leo-2	3	200		Gra-8	2	20		Gra-8	2	41
Leo-2	3	135		Leo-2	3	200		Gra-8	2	22		Gra-8	2	47
Leo-2	3	135		Leo-2	3	200		Gra-8	2	23		Gra-8	2	44
Leo-2	3	135		Leo-2	3	200		Gra-8	3	20		Gra-8	3	49
Leo-2	3	135		Leo-2	3	200		Gra-8	3	21		Gra-8	3	49
Leo-3	1	na		Leo-3	1	182		Gra-8	3	23		Gra-8	3	52
Leo-3	1	135		Leo-3	1	200		Gra-8	3	22		Gra-8	3	52
Leo-3	1	135		Leo-3	1	200		Gra-9	1	19		Gra-9	1	43
Leo-3	1	135		Leo-3	1	200		Gra-9	1	22		Gra-9	1	41
Leo-3	1	129		Leo-3	1	180		Gra-9	1	18		Gra-9	1	42
Leo-3	2	101		Leo-3	2	197		Gra-9	1	21		Gra-9	1	40
Leo-3	2	na		Leo-3	2	200		Gra-9	1	22		Gra-9	1	40
Leo-3	2	135		Leo-3	2	200		Gra-9	1	21		Gra-9	1	41
Leo-3	2	na		Leo-3	2	185		Gra-9	2	21		Gra-9	2	47
Leo-3	2	na		Leo-3	2	161		Gra-9	2	21		Gra-9	2	45
Leo-3	2	103		Leo-3	2	159		Gra-9	2	23		Gra-9	2	48
Leo-3	3	105		Leo-3	3	174		Gra-9	2	21		Gra-9	2	44
Leo-3	3	109		Leo-3	3	180		Gra-9	2	23		Gra-9	2	52
Leo-3	3	112		Leo-3	3	172		Gra-9	2	23		Gra-9	2	53
Leo-3	3	112		Leo-3	3	157		Gra-9	3	22		Gra-9	3	41
Leo-3	3	110		Leo-3	3	152		Gra-9	3	21		Gra-9	3	42
Leo-4	1	135		Leo-4	1	200		Gra-9	3	23		Gra-9	3	42
Leo-4	1	135		Leo-4	1	200		Gra-9	3	22		Gra-9	3	41
Leo-4	1	135		Leo-4	1	200		Gra-9	3	23		Gra-9	3	42
Leo-4	1	na		Leo-4	1	202		Gra-9	3	21		Gra-9	3	43
Leo-4	2	na		Leo-4	2	208		Leo-1	1	36		Leo-1	1	59
Leo-4	2	135		Leo-4	2	200		Leo-1	1	34		Leo-1	1	55
Leo-4	2	135		Leo-4	2	200		Leo-1	1	32		Leo-1	1	47
Leo-4	2	135		Leo-4	2	200		Leo-1	1	36		Leo-1	1	51
Leo-4	2	na		Leo-4	2	206		Leo-1	1	46		Leo-1	1	63
Leo-4	3	135		Leo-4	3	200		Leo-1	1	35		Leo-1	1	57
Leo-4	3	135		Leo-4	3	200		Leo-1	2	40		Leo-1	2	48
Leo-4	3	na		Leo-4	3	194		Leo-1	2	35		Leo-1	2	46
Leo-4	3	147		Leo-4	3	175		Leo-1	2	39		Leo-1	2	42
Leo-4	3	na		Leo-4	3	179		Leo-1	2	41		Leo-1	2	44
Leo-6	1	135		Leo-6	1	200		Leo-1	2	39		Leo-1	2	44
Leo-6	1	135		Leo-6	1	200		Leo-1	2	33		Leo-1	2	42
Leo-6	1	135		Leo-6	1	200		Leo-1	3	29		Leo-1	3	40
Leo-6	1	na		Leo-6	1	183		Leo-1	3	28		Leo-1	3	47
Leo-6	1	135		Leo-6	1	200		Leo-1	3	35		Leo-1	3	41
Leo-6	2	135		Leo-6	2	200		Leo-1	3	31		Leo-1	3	43
Leo-6	2	na		Leo-6	2	201		Leo-1	3	32		Leo-1	3	43
Leo-6	2	135		Leo-6	2	200		Leo-1	3	34		Leo-1	3	56
Leo-6	2	135		Leo-6	2	200		Leo-2	1	27		Leo-2	1	45
Leo-6	2	na		Leo-6	2	203		Leo-2	1	29		Leo-2	1	47
Leo-6	2	na		Leo-6	2	204		Leo-2	1	30		Leo-2	1	57
Leo-6	3	na		Leo-6	3	178		Leo-2	1	28		Leo-2	1	57
Leo-6	3	135		Leo-6	3	200		Leo-2	1	29		Leo-2	1	57
Leo-6	3	na		Leo-6	3	194		Leo-2	1	26		Leo-2	1	52
Leo-6	3	135		Leo-6	3	200		Leo-2	2	33		Leo-2	2	46
Leo-6	3	na		Leo-6	3	188		Leo-2	2	35		Leo-2	2	46
Leo-7	1	135		Leo-7	1	200		Leo-2	2	35		Leo-2	2	45
Leo-7	1	135		Leo-7	1	200		Leo-2	2	34		Leo-2	2	47
Leo-7	1	135		Leo-7	1	200		Leo-2	2	35		Leo-2	2	38
Leo-7	2	135		Leo-7	2	200		Leo-2	2	33		Leo-2	2	49
Leo-7	2	135		Leo-7	2	200		Leo-2	3	45		Leo-2	3	68
Leo-7	2	135		Leo-7	2	200		Leo-2	3	35		Leo-2	3	64
Leo-7	2	135		Leo-7	2	200		Leo-2	3	34		Leo-2	3	60
Leo-7	2	na		Leo-7	2	159		Leo-2	3	40		Leo-2	3	64
Leo-7	2	135		Leo-7	2	200		Leo-2	3	42		Leo-2	3	75
Leo-7	3	135		Leo-7	3	200		Leo-3	1	20		Leo-3	1	31
Leo-7	3	107		Leo-7	3	118		Leo-3	1	19		Leo-3	1	36
Leo-7	3	135		Leo-7	3	200		Leo-3	1	18		Leo-3	1	35
Leo-7	3	103		Leo-7	3	117		Leo-3	1	20		Leo-3	1	32
Leo-8	1	128		Leo-8	1	189		Leo-3	1	17		Leo-3	1	35
Leo-8	1	151		Leo-8	1	190		Leo-3	1	19		Leo-3	1	36
Leo-8	2	89		Leo-8	2	127		Leo-3	2	23		Leo-3	2	33
Leo-8	2	102		Leo-8	2	153		Leo-3	2	25		Leo-3	2	32
Leo-8	2	131		Leo-8	2	130		Leo-3	2	22		Leo-3	2	31
Leo-8	2	na		Leo-8	2	144		Leo-3	2	24		Leo-3	2	31
Leo-8	2	159		Leo-8	2	117		Leo-3	2	24		Leo-3	2	32
Leo-8	2	138		Leo-8	2	165		Leo-3	2	23		Leo-3	2	31
Leo-8	3	135		Leo-8	3	200		Leo-3	3	20		Leo-3	3	34
Leo-8	3	128		Leo-8	3	138		Leo-3	3	22		Leo-3	3	31
Leo-8	3	145		Leo-8	3	125		Leo-3	3	21		Leo-3	3	32
Leo-8	3	136		Leo-8	3	124		Leo-3	3	24		Leo-3	3	32
Leo-8	3	153		Leo-8	3	116		Leo-3	3	23		Leo-3	3	31
Leo-9	1	135		Leo-9	1	200		Leo-3	3	24		Leo-3	3	30
Leo-9	1	124		Leo-9	1	186		Leo-4	1	77		Leo-4	1	81
Leo-9	1	111		Leo-9	1	195		Leo-4	1	66		Leo-4	1	82
Leo-9	1	135		Leo-9	1	200		Leo-4	1	54		Leo-4	1	79
Leo-9	1	na		Leo-9	1	191		Leo-4	1	50		Leo-4	1	75
Leo-9	2	119		Leo-9	2	190		Leo-4	1	41		Leo-4	1	66
Leo-9	2	na		Leo-9	2	194		Leo-4	1	61		Leo-4	1	71
Leo-9	2	116		Leo-9	2	167		Leo-4	2	62		Leo-4	2	71
Leo-9	2	135		Leo-9	2	200		Leo-4	2	52		Leo-4	2	64
Leo-9	2	135		Leo-9	2	200		Leo-4	2	54		Leo-4	2	71
Leo-9	2	135		Leo-9	2	200		Leo-4	2	39		Leo-4	2	51
Leo-9	3	135		Leo-9	3	200		Leo-4	2	59		Leo-4	2	68
Leo-9	3	135		Leo-9	3	200		Leo-4	2	50		Leo-4	2	75
Leo-10	1	135		Leo-10	1	200		Leo-4	3	41		Leo-4	3	67
Leo-10	1	135		Leo-10	1	200		Leo-4	3	50		Leo-4	3	68
Leo-10	1	135		Leo-10	1	200		Leo-4	3	41		Leo-4	3	68
Leo-10	2	135		Leo-10	2	200		Leo-4	3	42		Leo-4	3	64
Leo-10	2	135		Leo-10	2	200		Leo-4	3	44		Leo-4	3	55
Leo-10	3	135		Leo-10	3	200		Leo-4	3	41		Leo-4	3	56
Leo-10	3	135		Leo-10	3	200		Leo-6	1	29		Leo-6	1	40
Leo-10	3	135		Leo-10	3	200		Leo-6	1	39		Leo-6	1	57
Leo-10	3	135		Leo-10	3	200		Leo-6	1	35		Leo-6	1	65
Leo-11	1	114		Leo-11	1	187		Leo-6	1	62		Leo-6	1	71
Leo-11	1	135		Leo-11	1	200		Leo-6	1	59		Leo-6	1	69
Leo-11	1	135		Leo-11	1	200		Leo-6	1	50		Leo-6	1	74
Leo-11	1	135		Leo-11	1	200		Leo-6	2	54		Leo-6	2	65
Leo-11	1	na		Leo-11	1	196		Leo-6	2	52		Leo-6	2	68
Leo-11	2	128		Leo-11	2	174		Leo-6	2	50		Leo-6	2	81
Leo-11	2	135		Leo-11	2	200		Leo-6	2	52		Leo-6	2	88
Leo-11	2	na		Leo-11	2	194		Leo-6	2	61		Leo-6	2	87
Leo-11	2	135		Leo-11	2	151		Leo-6	3	58		Leo-6	3	66
Leo-11	3	113		Leo-11	3	133		Leo-6	3	35		Leo-6	3	61
Leo-11	3	na		Leo-11	3	190		Leo-6	3	55		Leo-6	3	65
Leo-11	3	na		Leo-11	3	182		Leo-6	3	49		Leo-6	3	61
Leo-11	3	135		Leo-11	3	200		Leo-7	1	35		Leo-7	1	68
Leo-11	3	na		Leo-11	3	160		Leo-7	1	34		Leo-7	1	59
Leo-11	3	128		Leo-11	3	155		Leo-7	1	35		Leo-7	1	55
 Mar-1	1	69		 Mar-1	1	107		Leo-7	1	38		Leo-7	1	60
 Mar-1	2	62		 Mar-1	2	104		Leo-7	1	27		Leo-7	1	52
 Mar-1	2	69		 Mar-1	2	106		Leo-7	2	26		Leo-7	2	56
 Mar-1	2	71		 Mar-1	2	111		Leo-7	2	28		Leo-7	2	42
 Mar-1	2	64		 Mar-1	2	109		Leo-7	2	30		Leo-7	2	43
 Mar-1	3	na		 Mar-1	3	131		Leo-7	3	27		Leo-7	3	38
 Mar-1	3	na		 Mar-1	3	123		Leo-7	3	28		Leo-7	3	40
 Mar-1	3	68		 Mar-1	3	109		Leo-7	3	30		Leo-7	3	41
 Mar-1	3	62		 Mar-1	3	108		Leo-7	3	26		Leo-7	3	43
 Mar-2	1	68		 Mar-2	1	113		Leo-7	3	23		Leo-7	3	44
 Mar-2	1	66		 Mar-2	1	112		Leo-7	3	26		Leo-7	3	44
 Mar-2	1	61		 Mar-2	1	111		Leo-8	1	29		Leo-8	1	40
 Mar-2	1	na		 Mar-2	1	132		Leo-8	1	35		Leo-8	1	38
 Mar-2	2	69		 Mar-2	2	105		Leo-8	1	31		Leo-8	1	40
 Mar-2	2	63		 Mar-2	2	115		Leo-8	1	33		Leo-8	1	39
 Mar-2	2	65		 Mar-2	2	97		Leo-8	1	32		Leo-8	1	39
 Mar-2	2	61		 Mar-2	2	102		Leo-8	1	34		Leo-8	1	37
 Mar-2	2	72		 Mar-2	2	98		Leo-8	2	34		Leo-8	2	43
 Mar-2	2	63		 Mar-2	2	108		Leo-8	2	32		Leo-8	2	52
 Mar-2	3	63		 Mar-2	3	105		Leo-8	2	30		Leo-8	2	44
 Mar-2	3	70		 Mar-2	3	102		Leo-8	2	30		Leo-8	2	52
 Mar-2	3	69		 Mar-2	3	110		Leo-8	2	28		Leo-8	2	47
 Mar-2	3	70		 Mar-2	3	122		Leo-8	2	29		Leo-8	2	49
 Mar-3	1	78		 Mar-3	1	113		Leo-8	3	31		Leo-8	3	47
 Mar-3	1	62		 Mar-3	1	115		Leo-8	3	36		Leo-8	3	47
 Mar-3	2	68		 Mar-3	2	89		Leo-8	3	31		Leo-8	3	50
 Mar-3	2	70		 Mar-3	2	89		Leo-8	3	37		Leo-8	3	48
 Mar-3	3	65		 Mar-3	3	94		Leo-8	3	33		Leo-8	3	47
 Mar-4	1	135		 Mar-4	1	200		Leo-9	1	27		Leo-9	1	42
 Mar-4	1	135		 Mar-4	1	200		Leo-9	1	24		Leo-9	1	40
 Mar-4	1	135		 Mar-4	1	200		Leo-9	1	24		Leo-9	1	43
 Mar-4	1	135		 Mar-4	1	200		Leo-9	1	23		Leo-9	1	43
 Mar-4	2	135		 Mar-4	2	200		Leo-9	1	28		Leo-9	1	43
 Mar-4	2	na		 Mar-4	2	182		Leo-9	1	28		Leo-9	1	47
 Mar-4	2	123		 Mar-4	2	167		Leo-9	2	26		Leo-9	2	51
 Mar-4	2	na		 Mar-4	2	189		Leo-9	2	29		Leo-9	2	46
 Mar-4	3	135		 Mar-4	3	200		Leo-9	2	27		Leo-9	2	51
 Mar-4	3	135		 Mar-4	3	200		Leo-9	2	28		Leo-9	2	45
 Mar-4	3	135		 Mar-4	3	200		Leo-9	2	29		Leo-9	2	47
 Mar-4	3	135		 Mar-4	3	200		Leo-9	2	30		Leo-9	2	44
 Mar-4	3	135		 Mar-4	3	200		Leo-9	3	31		Leo-9	3	47
 Mar-5	1	73		 Mar-5	1	113		Leo-9	3	29		Leo-9	3	47
 Mar-5	1	70		 Mar-5	1	113		Leo-9	3	29		Leo-9	3	49
 Mar-5	2	60		 Mar-5	2	106		Leo-9	3	29		Leo-9	3	47
 Mar-5	2	70		 Mar-5	2	105		Leo-9	3	28		Leo-9	3	46
 Mar-5	2	61		 Mar-5	2	106		Leo-9	3	28		Leo-9	3	50
 Mar-5	2	62		 Mar-5	2	116		Leo-10	1	26		Leo-10	1	40
 Mar-5	2	70		 Mar-5	2	104		Leo-10	1	30		Leo-10	1	54
 Mar-5	3	65		 Mar-5	3	106		Leo-10	1	31		Leo-10	1	57
 Mar-6	1	135		 Mar-6	1	200		Leo-10	1	29		Leo-10	1	54
 Mar-6	1	135		 Mar-6	1	200		Leo-10	1	25		Leo-10	1	44
 Mar-6	1	135		 Mar-6	1	200		Leo-10	1	26		Leo-10	1	49
 Mar-6	1	na		 Mar-6	1	180		Leo-10	2	24		Leo-10	2	52
 Mar-6	2	na		 Mar-6	2	173		Leo-10	2	27		Leo-10	2	52
 Mar-6	2	135		 Mar-6	2	200		Leo-10	2	23		Leo-10	2	51
 Mar-6	2	na		 Mar-6	2	174		Leo-10	2	24		Leo-10	2	50
 Mar-6	2	na		 Mar-6	2	187		Leo-10	2	24		Leo-10	2	49
 Mar-6	2	na		 Mar-6	2	172		Leo-10	2	30		Leo-10	2	53
 Mar-6	2	na		 Mar-6	2	172		Leo-10	3	28		Leo-10	3	43
 Mar-6	3	113		 Mar-6	3	147		Leo-10	3	31		Leo-10	3	41
 Mar-6	3	117		 Mar-6	3	158		Leo-10	3	28		Leo-10	3	47
 Mar-6	3	135		 Mar-6	3	200		Leo-10	3	30		Leo-10	3	44
 Mar-6	3	109		 Mar-6	3	168		Leo-10	3	27		Leo-10	3	45
 Mar-6	3	na		 Mar-6	3	178		Leo-10	3	31		Leo-10	3	48
 Mar-7	1	64		 Mar-7	1	75		Leo-11	1	30		Leo-11	1	40
 Mar-7	1	62		 Mar-7	1	74		Leo-11	1	32		Leo-11	1	49
 Mar-7	1	54		 Mar-7	1	90		Leo-11	1	30		Leo-11	1	39
 Mar-7	1	52		 Mar-7	1	75		Leo-11	1	26		Leo-11	1	35
 Mar-7	1	59		 Mar-7	1	76		Leo-11	1	32		Leo-11	1	39
 Mar-7	1	52		 Mar-7	1	77		Leo-11	2	36		Leo-11	2	55
 Mar-7	2	55		 Mar-7	2	68		Leo-11	2	30		Leo-11	2	47
 Mar-7	2	49		 Mar-7	2	74		Leo-11	2	32		Leo-11	2	56
 Mar-7	2	41		 Mar-7	2	59		Leo-11	2	29		Leo-11	2	58
 Mar-7	2	58		 Mar-7	2	61		Leo-11	2	29		Leo-11	2	51
 Mar-7	2	54		 Mar-7	2	66		Leo-11	2	34		Leo-11	2	55
 Mar-7	2	53		 Mar-7	2	70		Leo-11	3	32		Leo-11	3	56
 Mar-7	3	38		 Mar-7	3	79		Leo-11	3	31		Leo-11	3	52
 Mar-7	3	58		 Mar-7	3	77		Leo-11	3	28		Leo-11	3	46
 Mar-7	3	52		 Mar-7	3	66		Leo-11	3	30		Leo-11	3	48
 Mar-7	3	56		 Mar-7	3	65		Leo-11	3	29		Leo-11	3	48
 Mar-8	1	71		 Mar-8	1	138		Leo-11	3	26		Leo-11	3	47
 Mar-8	1	na		 Mar-8	1	139		 Mar-1	1	14		 Mar-1	1	33
 Mar-8	1	na		 Mar-8	1	173		 Mar-1	1	15		 Mar-1	1	36
 Mar-8	2	55		 Mar-8	2	110		 Mar-1	1	16		 Mar-1	1	33
 Mar-8	2	na		 Mar-8	2	125		 Mar-1	1	15		 Mar-1	1	33
 Mar-8	2	64		 Mar-8	2	111		 Mar-1	1	14		 Mar-1	1	40
 Mar-8	2	67		 Mar-8	2	114		 Mar-1	1	15		 Mar-1	1	40
 Mar-8	3	80		 Mar-8	3	120		 Mar-1	2	17		 Mar-1	2	32
 Mar-8	3	67		 Mar-8	3	107		 Mar-1	2	17		 Mar-1	2	32
 Mar-8	3	62		 Mar-8	3	111		 Mar-1	2	17		 Mar-1	2	32
 Mar-8	3	72		 Mar-8	3	117		 Mar-1	2	18		 Mar-1	2	32
 Mar-8	3	66		 Mar-8	3	105		 Mar-1	2	17		 Mar-1	2	32
 Mar-10	1	30		 Mar-10	1	67		 Mar-1	2	17		 Mar-1	2	30
 Mar-10	1	29		 Mar-10	1	70		 Mar-1	3	14		 Mar-1	3	29
 Mar-10	1	29		 Mar-10	1	66		 Mar-1	3	15		 Mar-1	3	36
 Mar-10	1	32		 Mar-10	1	70		 Mar-1	3	13		 Mar-1	3	28
 Mar-10	1	26		 Mar-10	1	57		 Mar-1	3	15		 Mar-1	3	32
 Mar-10	1	24		 Mar-10	1	57		 Mar-1	3	16		 Mar-1	3	30
 Mar-10	2	29		 Mar-10	2	68		 Mar-1	3	15		 Mar-1	3	36
 Mar-10	2	25		 Mar-10	2	68		 Mar-2	1	17		 Mar-2	1	37
 Mar-10	2	28		 Mar-10	2	67		 Mar-2	1	16		 Mar-2	1	34
 Mar-10	2	26		 Mar-10	2	67		 Mar-2	1	17		 Mar-2	1	33
 Mar-10	2	28		 Mar-10	2	68		 Mar-2	1	17		 Mar-2	1	34
 Mar-10	2	28		 Mar-10	2	64		 Mar-2	1	17		 Mar-2	1	32
 Mar-10	3	29		 Mar-10	3	62		 Mar-2	1	18		 Mar-2	1	32
 Mar-10	3	28		 Mar-10	3	64		 Mar-2	2	17		 Mar-2	2	36
 Mar-10	3	30		 Mar-10	3	66		 Mar-2	2	16		 Mar-2	2	37
 Mar-10	3	30		 Mar-10	3	61		 Mar-2	2	19		 Mar-2	2	37
 Mar-10	3	30		 Mar-10	3	65		 Mar-2	2	18		 Mar-2	2	38
 Mar-10	3	30		 Mar-10	3	65		 Mar-2	2	18		 Mar-2	2	36
 Mar-11	1	75		 Mar-11	1	139		 Mar-2	2	17		 Mar-2	2	36
 Mar-11	1	na		 Mar-11	1	158		 Mar-2	3	18		 Mar-2	3	38
 Mar-11	1	60		 Mar-11	1	115		 Mar-2	3	19		 Mar-2	3	36
 Mar-11	1	69		 Mar-11	1	126		 Mar-2	3	17		 Mar-2	3	39
 Mar-11	2	59		 Mar-11	2	113		 Mar-2	3	18		 Mar-2	3	38
 Mar-11	2	66		 Mar-11	2	124		 Mar-2	3	19		 Mar-2	3	37
 Mar-11	2	60		 Mar-11	2	100		 Mar-3	1	16		 Mar-3	1	40
 Mar-11	2	64		 Mar-11	2	118		 Mar-3	1	18		 Mar-3	1	52
 Mar-11	2	69		 Mar-11	2	102		 Mar-3	1	18		 Mar-3	1	44
 Mar-11	2	63		 Mar-11	2	104		 Mar-3	1	15		 Mar-3	1	52
 Mar-11	3	69		 Mar-11	3	110		 Mar-3	2	17		 Mar-3	2	32
 Mar-11	3	71		 Mar-11	3	125		 Mar-3	2	16		 Mar-3	2	35
 Mar-11	3	71		 Mar-11	3	105		 Mar-3	2	15		 Mar-3	2	32
 Mar-11	3	na		 Mar-11	3	120		 Mar-3	2	15		 Mar-3	2	32
 Mar-11	3	66		 Mar-11	3	101		 Mar-3	2	17		 Mar-3	2	30
Pra-0	1	75		Pra-0	1	123		 Mar-3	2	17		 Mar-3	2	32
Pra-0	1	80		Pra-0	1	127		 Mar-3	3	15		 Mar-3	3	38
Pra-0	1	76		Pra-0	1	120		 Mar-3	3	12		 Mar-3	3	39
Pra-0	1	84		Pra-0	1	113		 Mar-3	3	16		 Mar-3	3	32
Pra-0	1	79		Pra-0	1	104		 Mar-3	3	16		 Mar-3	3	38
Pra-0	1	83		Pra-0	1	98		 Mar-3	3	17		 Mar-3	3	42
Pra-0	2	64		Pra-0	2	139		 Mar-3	3	15		 Mar-3	3	35
Pra-0	2	61		Pra-0	2	116		 Mar-4	1	21		 Mar-4	1	37
Pra-0	2	57		Pra-0	2	110		 Mar-4	1	25		 Mar-4	1	39
Pra-0	2	58		Pra-0	2	109		 Mar-4	1	21		 Mar-4	1	39
Pra-0	2	71		Pra-0	2	98		 Mar-4	1	27		 Mar-4	1	45
Pra-0	2	69		Pra-0	2	99		 Mar-4	1	22		 Mar-4	1	45
Pra-0	3	73		Pra-0	3	102		 Mar-4	1	27		 Mar-4	1	53
Pra-0	3	67		Pra-0	3	100		 Mar-4	2	23		 Mar-4	2	37
Pra-0	3	na		Pra-0	3	116		 Mar-4	2	25		 Mar-4	2	32
Pra-0	3	63		Pra-0	3	105		 Mar-4	2	22		 Mar-4	2	34
Pra-0	3	75		Pra-0	3	101		 Mar-4	2	25		 Mar-4	2	32
Pra-0	3	69		Pra-0	3	106		 Mar-4	2	25		 Mar-4	2	32
Pra-1	1	90		Pra-1	1	173		 Mar-4	2	25		 Mar-4	2	33
Pra-1	1	na		Pra-1	1	203		 Mar-4	3	20		 Mar-4	3	36
Pra-1	1	na		Pra-1	1	165		 Mar-4	3	23		 Mar-4	3	37
Pra-1	1	101		Pra-1	1	181		 Mar-4	3	20		 Mar-4	3	33
Pra-1	1	na		Pra-1	1	165		 Mar-4	3	22		 Mar-4	3	35
Pra-1	1	87		Pra-1	1	123		 Mar-4	3	24		 Mar-4	3	34
Pra-1	2	na		Pra-1	2	180		 Mar-4	3	26		 Mar-4	3	35
Pra-1	2	62		Pra-1	2	99		 Mar-5	1	15		 Mar-5	1	40
Pra-1	2	na		Pra-1	2	170		 Mar-5	1	16		 Mar-5	1	42
Pra-1	2	100		Pra-1	2	146		 Mar-5	1	15		 Mar-5	1	40
Pra-1	2	76		Pra-1	2	107		 Mar-5	1	17		 Mar-5	1	47
Pra-1	2	na		Pra-1	2	162		 Mar-5	1	16		 Mar-5	1	45
Pra-2	1	121		Pra-2	1	151		 Mar-5	1	15		 Mar-5	1	38
Pra-2	1	101		Pra-2	1	190		 Mar-5	2	16		 Mar-5	2	32
Pra-2	1	99		Pra-2	1	158		 Mar-5	2	16		 Mar-5	2	34
Pra-2	1	133		Pra-2	1	136		 Mar-5	2	17		 Mar-5	2	34
Pra-2	1	125		Pra-2	1	138		 Mar-5	2	16		 Mar-5	2	34
Pra-2	2	na		Pra-2	2	180		 Mar-5	2	19		 Mar-5	2	32
Pra-2	2	106		Pra-2	2	159		 Mar-5	2	15		 Mar-5	2	33
Pra-2	2	91		Pra-2	2	146		 Mar-5	3	16		 Mar-5	3	35
Pra-2	2	124		Pra-2	2	152		 Mar-5	3	13		 Mar-5	3	39
Pra-2	2	116		Pra-2	2	137		 Mar-5	3	17		 Mar-5	3	36
Pra-2	2	na		Pra-2	2	140		 Mar-5	3	17		 Mar-5	3	35
Pra-2	3	119		Pra-2	3	136		 Mar-5	3	16		 Mar-5	3	39
Pra-2	3	121		Pra-2	3	138		 Mar-5	3	16		 Mar-5	3	41
Pra-2	3	na		Pra-2	3	157		 Mar-6	1	31		 Mar-6	1	65
Pra-2	3	na		Pra-2	3	140		 Mar-6	1	24		 Mar-6	1	52
Pra-2	3	116		Pra-2	3	136		 Mar-6	1	37		 Mar-6	1	80
Pra-3	1	135		Pra-3	1	200		 Mar-6	1	30		 Mar-6	1	56
Pra-3	1	90		Pra-3	1	171		 Mar-6	1	27		 Mar-6	1	52
Pra-3	1	90		Pra-3	1	151		 Mar-6	1	34		 Mar-6	1	65
Pra-3	1	na		Pra-3	1	200		 Mar-6	2	28		 Mar-6	2	47
Pra-3	1	na		Pra-3	1	176		 Mar-6	2	31		 Mar-6	2	54
Pra-3	1	97		Pra-3	1	170		 Mar-6	2	23		 Mar-6	2	43
Pra-3	2	na		Pra-3	2	165		 Mar-6	2	23		 Mar-6	2	36
Pra-3	2	135		Pra-3	2	200		 Mar-6	2	27		 Mar-6	2	45
Pra-3	2	135		Pra-3	2	200		 Mar-6	2	29		 Mar-6	2	51
Pra-3	3	135		Pra-3	3	200		 Mar-6	3	22		 Mar-6	3	44
Pra-3	3	93		Pra-3	3	158		 Mar-6	3	24		 Mar-6	3	37
Pra-3	3	87		Pra-3	3	140		 Mar-6	3	28		 Mar-6	3	41
Pra-3	3	87		Pra-3	3	140		 Mar-6	3	30		 Mar-6	3	44
Pra-3	3	135		Pra-3	3	200		 Mar-6	3	27		 Mar-6	3	40
Pra-3	3	79		Pra-3	3	122		 Mar-6	3	27		 Mar-6	3	40
Pra-4	1	135		Pra-4	1	200		 Mar-7	1	15		 Mar-7	1	32
Pra-4	1	135		Pra-4	1	200		 Mar-7	1	13		 Mar-7	1	33
Pra-4	1	na		Pra-4	1	204		 Mar-7	1	13		 Mar-7	1	30
Pra-4	1	119		Pra-4	1	138		 Mar-7	1	14		 Mar-7	1	30
Pra-4	1	na		Pra-4	1	189		 Mar-7	1	12		 Mar-7	1	32
Pra-4	1	133		Pra-4	1	147		 Mar-7	1	14		 Mar-7	1	32
Pra-4	2	135		Pra-4	2	200		 Mar-7	2	14		 Mar-7	2	28
Pra-4	2	135		Pra-4	2	200		 Mar-7	2	15		 Mar-7	2	32
Pra-4	2	135		Pra-4	2	200		 Mar-7	2	15		 Mar-7	2	34
Pra-4	2	127		Pra-4	2	200		 Mar-7	2	14		 Mar-7	2	30
Pra-4	2	123		Pra-4	2	131		 Mar-7	2	14		 Mar-7	2	30
Pra-4	3	135		Pra-4	3	200		 Mar-7	2	13		 Mar-7	2	30
Pra-4	3	na		Pra-4	3	173		 Mar-7	3	14		 Mar-7	3	32
Pra-4	3	156		Pra-4	3	140		 Mar-7	3	15		 Mar-7	3	29
Pra-4	3	133		Pra-4	3	165		 Mar-7	3	14		 Mar-7	3	36
Pra-5	1	88		Pra-5	1	173		 Mar-7	3	14		 Mar-7	3	30
Pra-5	1	na		Pra-5	1	180		 Mar-7	3	15		 Mar-7	3	33
Pra-5	1	na		Pra-5	1	198		 Mar-7	3	15		 Mar-7	3	33
Pra-5	1	na		Pra-5	1	190		 Mar-8	1	14		 Mar-8	1	43
Pra-5	1	na		Pra-5	1	200		 Mar-8	1	16		 Mar-8	1	43
Pra-5	1	na		Pra-5	1	162		 Mar-8	1	16		 Mar-8	1	43
Pra-5	2	135		Pra-5	2	200		 Mar-8	1	17		 Mar-8	1	41
Pra-5	2	121		Pra-5	2	139		 Mar-8	1	16		 Mar-8	1	43
Pra-5	2	98		Pra-5	2	172		 Mar-8	1	18		 Mar-8	1	43
Pra-5	3	135		Pra-5	3	200		 Mar-8	2	15		 Mar-8	2	46
Pra-5	3	135		Pra-5	3	200		 Mar-8	2	20		 Mar-8	2	44
Pra-5	3	na		Pra-5	3	190		 Mar-8	2	17		 Mar-8	2	39
Pra-5	3	na		Pra-5	3	152		 Mar-8	2	14		 Mar-8	2	42
Pra-5	3	135		Pra-5	3	200		 Mar-8	2	13		 Mar-8	2	44
Pra-6	1	100		Pra-6	1	128		 Mar-8	2	18		 Mar-8	2	37
Pra-6	1	na		Pra-6	1	186		 Mar-8	3	17		 Mar-8	3	44
Pra-6	1	na		Pra-6	1	194		 Mar-8	3	15		 Mar-8	3	43
Pra-6	2	na		Pra-6	2	180		 Mar-8	3	15		 Mar-8	3	40
Pra-6	2	na		Pra-6	2	167		 Mar-8	3	17		 Mar-8	3	42
Pra-6	2	na		Pra-6	2	193		 Mar-8	3	16		 Mar-8	3	41
Pra-6	2	107		Pra-6	2	134		 Mar-8	3	15		 Mar-8	3	43
Pra-6	2	91		Pra-6	2	136		 Mar-10	1	15		 Mar-10	1	43
Pra-6	3	93		Pra-6	3	145		 Mar-10	1	15		 Mar-10	1	36
Pra-6	3	104		Pra-6	3	133		 Mar-10	1	14		 Mar-10	1	46
Pra-6	3	95		Pra-6	3	148		 Mar-10	1	14		 Mar-10	1	43
Pra-7	1	135		Pra-7	1	200		 Mar-10	1	13		 Mar-10	1	47
Pra-7	1	na		Pra-7	1	175		 Mar-10	1	17		 Mar-10	1	48
Pra-7	1	na		Pra-7	1	167		 Mar-10	2	18		 Mar-10	2	42
Pra-7	2	na		Pra-7	2	144		 Mar-10	2	16		 Mar-10	2	45
Pra-7	2	135		Pra-7	2	200		 Mar-10	2	15		 Mar-10	2	41
Pra-7	2	135		Pra-7	2	200		 Mar-10	2	16		 Mar-10	2	47
Pra-7	2	na		Pra-7	2	140		 Mar-10	2	15		 Mar-10	2	40
Pra-7	3	92		Pra-7	3	185		 Mar-10	2	15		 Mar-10	2	47
Pra-7	3	na		Pra-7	3	161		 Mar-10	3	16		 Mar-10	3	36
Pra-7	3	na		Pra-7	3	162		 Mar-10	3	15		 Mar-10	3	38
Pra-7	3	135		Pra-7	3	200		 Mar-10	3	17		 Mar-10	3	38
Pra-8	1	86		Pra-8	1	95		 Mar-10	3	17		 Mar-10	3	39
Pra-8	1	76		Pra-8	1	113		 Mar-10	3	16		 Mar-10	3	40
Pra-8	1	69		Pra-8	1	98		 Mar-10	3	14		 Mar-10	3	36
Pra-8	1	75		Pra-8	1	98		 Mar-11	1	21		 Mar-11	1	61
Pra-8	1	87		Pra-8	1	90		 Mar-11	1	15		 Mar-11	1	41
Pra-8	1	55		Pra-8	1	100		 Mar-11	1	16		 Mar-11	1	36
Pra-8	2	79		Pra-8	2	98		 Mar-11	1	18		 Mar-11	1	36
Pra-8	2	70		Pra-8	2	98		 Mar-11	1	18		 Mar-11	1	40
Pra-8	2	70		Pra-8	2	94		 Mar-11	2	18		 Mar-11	2	42
Pra-8	2	61		Pra-8	2	100		 Mar-11	2	15		 Mar-11	2	44
Pra-8	2	70		Pra-8	2	93		 Mar-11	2	16		 Mar-11	2	43
Pra-8	2	74		Pra-8	2	102		 Mar-11	2	17		 Mar-11	2	41
Pra-8	3	65		Pra-8	3	102		 Mar-11	2	16		 Mar-11	2	47
Pra-8	3	68		Pra-8	3	97		 Mar-11	2	16		 Mar-11	2	47
Pra-8	3	61		Pra-8	3	98		 Mar-11	3	18		 Mar-11	3	44
Pra-8	3	72		Pra-8	3	95		 Mar-11	3	17		 Mar-11	3	47
Pra-8	3	73		Pra-8	3	94		 Mar-11	3	20		 Mar-11	3	46
Pra-10	1	135		Pra-10	1	200		 Mar-11	3	16		 Mar-11	3	44
Pra-10	1	na		Pra-10	1	182		 Mar-11	3	18		 Mar-11	3	41
Pra-10	1	na		Pra-10	1	165		 Mar-11	3	16		 Mar-11	3	47
Pra-10	2	126		Pra-10	2	173		Pra-0	1	19		Pra-0	1	42
Pra-10	3	na		Pra-10	3	157		Pra-0	1	18		Pra-0	1	39
Pra-10	3	132		Pra-10	3	154		Pra-0	1	19		Pra-0	1	39
Pra-10	3	117		Pra-10	3	180		Pra-0	1	19		Pra-0	1	40
Pra-10	3	132		Pra-10	3	159		Pra-0	1	19		Pra-0	1	42
Qui-0	1	62		Qui-0	1	79		Pra-0	1	18		Pra-0	1	44
Qui-0	1	64		Qui-0	1	80		Pra-0	2	17		Pra-0	2	41
Qui-0	1	62		Qui-0	1	68		Pra-0	2	20		Pra-0	2	38
Qui-0	1	67		Qui-0	1	97		Pra-0	2	20		Pra-0	2	38
Qui-0	1	71		Qui-0	1	94		Pra-0	2	20		Pra-0	2	36
Qui-0	2	70		Qui-0	2	82		Pra-0	2	18		Pra-0	2	39
Qui-0	2	76		Qui-0	2	88		Pra-0	2	20		Pra-0	2	37
Qui-0	2	61		Qui-0	2	88		Pra-0	3	21		Pra-0	3	43
Qui-0	2	72		Qui-0	2	90		Pra-0	3	18		Pra-0	3	38
Qui-0	2	77		Qui-0	2	83		Pra-0	3	20		Pra-0	3	38
Qui-0	2	84		Qui-0	2	89		Pra-0	3	19		Pra-0	3	37
Qui-0	3	85		Qui-0	3	83		Pra-0	3	20		Pra-0	3	37
Qui-0	3	81		Qui-0	3	88		Pra-0	3	20		Pra-0	3	36
Qui-0	3	87		Qui-0	3	81		Pra-1	1	37		Pra-1	1	56
Qui-0	3	73		Qui-0	3	83		Pra-1	1	31		Pra-1	1	57
Qui-0	3	66		Qui-0	3	78		Pra-1	1	27		Pra-1	1	52
Qui-0	3	78		Qui-0	3	94		Pra-1	1	30		Pra-1	1	57
Qui-1	1	33		Qui-1	1	49		Pra-1	1	31		Pra-1	1	53
Qui-1	1	43		Qui-1	1	55		Pra-1	1	29		Pra-1	1	57
Qui-1	1	34		Qui-1	1	56		Pra-1	2	22		Pra-1	2	41
Qui-1	1	37		Qui-1	1	51		Pra-1	2	20		Pra-1	2	41
Qui-1	1	31		Qui-1	1	49		Pra-1	2	20		Pra-1	2	44
Qui-1	2	22		Qui-1	2	45		Pra-1	2	24		Pra-1	2	44
Qui-1	2	24		Qui-1	2	48		Pra-1	2	25		Pra-1	2	44
Qui-1	2	41		Qui-1	2	59		Pra-1	2	24		Pra-1	2	45
Qui-1	2	35		Qui-1	2	53		Pra-1	3	25		Pra-1	3	36
Qui-1	2	34		Qui-1	2	54		Pra-1	3	23		Pra-1	3	36
Qui-1	3	36		Qui-1	3	53		Pra-1	3	24		Pra-1	3	39
Qui-1	3	37		Qui-1	3	57		Pra-1	3	24		Pra-1	3	35
Qui-1	3	27		Qui-1	3	51		Pra-1	3	23		Pra-1	3	35
Qui-1	3	34		Qui-1	3	51		Pra-1	3	23		Pra-1	3	34
Qui-1	3	44		Qui-1	3	61		Pra-2	1	22		Pra-2	1	44
Qui-1	3	22		Qui-1	3	42		Pra-2	1	22		Pra-2	1	43
Qui-2	1	68		Qui-2	1	86		Pra-2	1	23		Pra-2	1	41
Qui-2	1	59		Qui-2	1	68		Pra-2	2	27		Pra-2	2	49
Qui-2	1	57		Qui-2	1	81		Pra-2	2	20		Pra-2	2	47
Qui-2	1	69		Qui-2	1	83		Pra-2	2	21		Pra-2	2	43
Qui-2	1	66		Qui-2	1	86		Pra-2	2	19		Pra-2	2	51
Qui-2	1	74		Qui-2	1	83		Pra-2	3	21		Pra-2	3	40
Qui-2	2	71		Qui-2	2	81		Pra-2	3	28		Pra-2	3	43
Qui-2	2	63		Qui-2	2	79		Pra-2	3	25		Pra-2	3	39
Qui-2	2	64		Qui-2	2	78		Pra-2	3	21		Pra-2	3	37
Qui-2	2	66		Qui-2	2	82		Pra-3	1	24		Pra-3	1	41
Qui-2	2	69		Qui-2	2	85		Pra-3	1	20		Pra-3	1	53
Qui-2	2	67		Qui-2	2	80		Pra-3	1	20		Pra-3	1	47
Qui-2	3	61		Qui-2	3	81		Pra-3	1	20		Pra-3	1	49
Qui-2	3	68		Qui-2	3	83		Pra-3	1	29		Pra-3	1	54
Qui-2	3	60		Qui-2	3	80		Pra-3	1	29		Pra-3	1	59
Qui-2	3	58		Qui-2	3	67		Pra-3	2	20		Pra-3	2	41
Qui-2	3	55		Qui-2	3	64		Pra-3	2	21		Pra-3	2	41
Qui-2	3	75		Qui-2	3	77		Pra-3	2	24		Pra-3	2	39
Qui-3	1	74		Qui-3	1	101		Pra-3	2	22		Pra-3	2	42
Qui-3	1	67		Qui-3	1	88		Pra-3	2	21		Pra-3	2	43
Qui-3	1	76		Qui-3	1	92		Pra-3	2	19		Pra-3	2	44
Qui-3	1	83		Qui-3	1	88		Pra-3	3	20		Pra-3	3	44
Qui-3	1	80		Qui-3	1	84		Pra-3	3	17		Pra-3	3	39
Qui-3	1	81		Qui-3	1	87		Pra-3	3	21		Pra-3	3	42
Qui-3	2	75		Qui-3	2	93		Pra-3	3	22		Pra-3	3	41
Qui-3	2	65		Qui-3	2	77		Pra-3	3	19		Pra-3	3	45
Qui-3	2	69		Qui-3	2	84		Pra-3	3	23		Pra-3	3	44
Qui-3	2	67		Qui-3	2	73		Pra-4	1	21		Pra-4	1	46
Qui-3	2	87		Qui-3	2	83		Pra-4	1	28		Pra-4	1	45
Qui-3	3	73		Qui-3	3	75		Pra-4	1	28		Pra-4	1	43
Qui-3	3	63		Qui-3	3	89		Pra-4	1	23		Pra-4	1	43
Qui-3	3	76		Qui-3	3	82		Pra-4	1	25		Pra-4	1	41
Qui-3	3	82		Qui-3	3	79		Pra-4	1	27		Pra-4	1	43
Qui-3	3	79		Qui-3	3	84		Pra-4	2	24		Pra-4	2	42
Qui-3	3	83		Qui-3	3	81		Pra-4	2	27		Pra-4	2	42
Qui-4	1	40		Qui-4	1	58		Pra-4	2	29		Pra-4	2	41
Qui-4	1	37		Qui-4	1	61		Pra-4	2	26		Pra-4	2	38
Qui-4	1	36		Qui-4	1	61		Pra-4	2	24		Pra-4	2	43
Qui-4	1	38		Qui-4	1	61		Pra-4	2	24		Pra-4	2	41
Qui-4	1	37		Qui-4	1	63		Pra-4	3	27		Pra-4	3	41
Qui-4	1	35		Qui-4	1	60		Pra-4	3	27		Pra-4	3	43
Qui-4	2	32		Qui-4	2	59		Pra-4	3	27		Pra-4	3	44
Qui-4	2	28		Qui-4	2	52		Pra-4	3	28		Pra-4	3	43
Qui-4	2	34		Qui-4	2	62		Pra-4	3	24		Pra-4	3	38
Qui-4	2	48		Qui-4	2	65		Pra-4	3	24		Pra-4	3	37
Qui-4	2	22		Qui-4	2	46		Pra-5	1	22		Pra-5	1	39
Qui-4	2	31		Qui-4	2	59		Pra-5	1	21		Pra-5	1	42
Qui-4	3	34		Qui-4	3	60		Pra-5	1	22		Pra-5	1	39
Qui-4	3	37		Qui-4	3	52		Pra-5	1	22		Pra-5	1	40
Qui-4	3	48		Qui-4	3	59		Pra-5	1	20		Pra-5	1	38
Qui-4	3	28		Qui-4	3	54		Pra-5	1	22		Pra-5	1	39
Qui-4	3	36		Qui-4	3	52		Pra-5	2	20		Pra-5	2	38
Qui-5	1	37		Qui-5	1	76		Pra-5	2	18		Pra-5	2	39
Qui-5	1	37		Qui-5	1	73		Pra-5	2	25		Pra-5	2	36
Qui-5	1	43		Qui-5	1	69		Pra-5	2	20		Pra-5	2	40
Qui-5	1	45		Qui-5	1	60		Pra-5	2	24		Pra-5	2	35
Qui-5	1	48		Qui-5	1	65		Pra-5	2	21		Pra-5	2	35
Qui-5	1	43		Qui-5	1	57		Pra-5	3	24		Pra-5	3	44
Qui-5	2	41		Qui-5	2	60		Pra-5	3	22		Pra-5	3	45
Qui-5	2	23		Qui-5	2	51		Pra-5	3	20		Pra-5	3	40
Qui-5	2	39		Qui-5	2	63		Pra-5	3	22		Pra-5	3	38
Qui-5	2	36		Qui-5	2	50		Pra-5	3	26		Pra-5	3	43
Qui-5	2	38		Qui-5	2	51		Pra-5	3	25		Pra-5	3	44
Qui-5	3	28		Qui-5	3	47		Pra-6	1	30		Pra-6	1	61
Qui-5	3	39		Qui-5	3	75		Pra-6	1	30		Pra-6	1	57
Qui-5	3	35		Qui-5	3	56		Pra-6	1	25		Pra-6	1	45
Qui-5	3	34		Qui-5	3	55		Pra-6	1	23		Pra-6	1	46
Qui-5	3	44		Qui-5	3	66		Pra-6	1	27		Pra-6	1	52
Qui-5	3	45		Qui-5	3	59		Pra-6	1	31		Pra-6	1	57
Qui-6	1	55		Qui-6	1	75		Pra-6	2	20		Pra-6	2	38
Qui-6	1	57		Qui-6	1	70		Pra-6	2	22		Pra-6	2	36
Qui-6	1	66		Qui-6	1	86		Pra-6	2	21		Pra-6	2	43
Qui-6	1	59		Qui-6	1	88		Pra-6	2	19		Pra-6	2	38
Qui-6	1	59		Qui-6	1	88		Pra-6	2	20		Pra-6	2	37
Qui-6	1	72		Qui-6	1	82		Pra-6	3	25		Pra-6	3	36
Qui-6	2	60		Qui-6	2	79		Pra-6	3	26		Pra-6	3	37
Qui-6	2	54		Qui-6	2	110		Pra-6	3	22		Pra-6	3	35
Qui-6	2	57		Qui-6	2	75		Pra-6	3	23		Pra-6	3	34
Qui-6	2	64		Qui-6	2	90		Pra-6	3	20		Pra-6	3	36
Qui-6	2	73		Qui-6	2	75		Pra-6	3	24		Pra-6	3	36
Qui-6	2	51		Qui-6	2	88		Pra-7	1	25		Pra-7	1	47
Qui-6	3	61		Qui-6	3	79		Pra-7	1	24		Pra-7	1	43
Qui-6	3	71		Qui-6	3	89		Pra-7	1	21		Pra-7	1	37
Qui-6	3	52		Qui-6	3	73		Pra-7	1	24		Pra-7	1	43
Qui-6	3	64		Qui-6	3	77		Pra-7	1	22		Pra-7	1	46
Qui-6	3	65		Qui-6	3	85		Pra-7	2	30		Pra-7	2	40
Qui-6	3	72		Qui-6	3	85		Pra-7	2	22		Pra-7	2	42
Qui-7	1	45		Qui-7	1	86		Pra-7	2	25		Pra-7	2	41
Qui-7	1	36		Qui-7	1	65		Pra-7	2	24		Pra-7	2	39
Qui-7	1	57		Qui-7	1	68		Pra-7	2	20		Pra-7	2	44
Qui-7	1	62		Qui-7	1	73		Pra-7	2	28		Pra-7	2	44
Qui-7	1	47		Qui-7	1	72		Pra-7	3	43		Pra-7	3	68
Qui-7	1	64		Qui-7	1	73		Pra-7	3	34		Pra-7	3	55
Qui-7	2	46		Qui-7	2	83		Pra-7	3	30		Pra-7	3	53
Qui-7	2	65		Qui-7	2	81		Pra-7	3	25		Pra-7	3	40
Qui-7	2	60		Qui-7	2	69		Pra-8	1	21		Pra-8	1	47
Qui-7	2	56		Qui-7	2	62		Pra-8	1	19		Pra-8	1	46
Qui-7	2	39		Qui-7	2	63		Pra-8	1	21		Pra-8	1	46
Qui-7	3	42		Qui-7	3	65		Pra-8	1	17		Pra-8	1	40
Qui-7	3	56		Qui-7	3	71		Pra-8	1	21		Pra-8	1	44
Qui-7	3	39		Qui-7	3	53		Pra-8	1	20		Pra-8	1	41
Qui-7	3	43		Qui-7	3	68		Pra-8	2	27		Pra-8	2	47
Qui-8	1	53		Qui-8	1	77		Pra-8	2	25		Pra-8	2	45
Qui-8	1	62		Qui-8	1	90		Pra-8	2	24		Pra-8	2	44
Qui-8	1	48		Qui-8	1	97		Pra-8	2	23		Pra-8	2	46
Qui-8	1	46		Qui-8	1	82		Pra-8	2	27		Pra-8	2	47
Qui-8	1	57		Qui-8	1	69		Pra-8	2	27		Pra-8	2	49
Qui-8	1	23		Qui-8	1	57		Pra-8	3	24		Pra-8	3	42
Qui-8	2	47		Qui-8	2	75		Pra-8	3	27		Pra-8	3	42
Qui-8	2	56		Qui-8	2	72		Pra-8	3	23		Pra-8	3	39
Qui-8	2	47		Qui-8	2	100		Pra-8	3	24		Pra-8	3	38
Qui-8	2	53		Qui-8	2	102		Pra-8	3	23		Pra-8	3	41
Qui-8	2	57		Qui-8	2	78		Pra-8	3	25		Pra-8	3	38
Qui-8	2	57		Qui-8	2	87		Pra-10	1	22		Pra-10	1	40
Qui-8	3	43		Qui-8	3	67		Pra-10	1	22		Pra-10	1	40
Qui-8	3	56		Qui-8	3	75		Pra-10	1	20		Pra-10	1	39
Qui-8	3	48		Qui-8	3	68		Pra-10	1	19		Pra-10	1	39
Qui-8	3	62		Qui-8	3	83		Pra-10	1	19		Pra-10	1	40
Qui-8	3	63		Qui-8	3	83		Pra-10	1	24		Pra-10	1	40
Qui-9	1	59		Qui-9	1	79		Pra-10	2	25		Pra-10	2	43
Qui-9	1	56		Qui-9	1	101		Pra-10	2	28		Pra-10	2	44
Qui-9	1	64		Qui-9	1	94		Pra-10	2	22		Pra-10	2	44
Qui-9	1	78		Qui-9	1	82		Pra-10	2	24		Pra-10	2	44
Qui-9	1	81		Qui-9	1	81		Pra-10	2	25		Pra-10	2	44
Qui-9	1	65		Qui-9	1	87		Pra-10	2	27		Pra-10	2	47
Qui-9	2	62		Qui-9	2	87		Pra-10	3	29		Pra-10	3	56
Qui-9	2	67		Qui-9	2	83		Pra-10	3	28		Pra-10	3	51
Qui-9	2	64		Qui-9	2	78		Pra-10	3	34		Pra-10	3	59
Qui-9	2	65		Qui-9	2	64		Qui-0	1	20		Qui-0	1	42
Qui-9	2	72		Qui-9	2	85		Qui-0	1	21		Qui-0	1	37
Qui-9	3	59		Qui-9	3	84		Qui-0	1	21		Qui-0	1	40
Qui-9	3	70		Qui-9	3	67		Qui-0	1	18		Qui-0	1	33
Qui-9	3	65		Qui-9	3	78		Qui-0	1	18		Qui-0	1	38
Qui-9	3	63		Qui-9	3	97		Qui-0	1	18		Qui-0	1	36
Qui-9	3	58		Qui-9	3	88		Qui-0	2	18		Qui-0	2	27
San-0	1	29		San-0	1	53		Qui-0	2	20		Qui-0	2	32
San-0	1	28		San-0	1	49		Qui-0	2	19		Qui-0	2	30
San-0	1	31		San-0	1	48		Qui-0	2	18		Qui-0	2	29
San-0	1	30		San-0	1	47		Qui-0	2	17		Qui-0	2	27
San-0	1	27		San-0	1	56		Qui-0	2	17		Qui-0	2	30
San-0	2	24		San-0	2	51		Qui-0	3	17		Qui-0	3	35
San-0	2	32		San-0	2	48		Qui-0	3	19		Qui-0	3	31
San-0	2	30		San-0	2	53		Qui-0	3	19		Qui-0	3	33
San-0	2	26		San-0	2	42		Qui-0	3	18		Qui-0	3	32
San-0	2	27		San-0	2	50		Qui-0	3	17		Qui-0	3	34
San-0	2	31		San-0	2	54		Qui-0	3	18		Qui-0	3	31
San-0	3	33		San-0	3	46		Qui-1	1	12		Qui-1	1	31
San-0	3	33		San-0	3	45		Qui-1	1	13		Qui-1	1	32
San-0	3	30		San-0	3	44		Qui-1	1	13		Qui-1	1	30
San-0	3	34		San-0	3	45		Qui-1	1	13		Qui-1	1	29
San-0	3	32		San-0	3	41		Qui-1	1	19		Qui-1	1	37
San-0	3	31		San-0	3	47		Qui-1	1	13		Qui-1	1	30
San-2	1	40		San-2	1	93		Qui-1	2	14		Qui-1	2	32
San-2	1	60		San-2	1	95		Qui-1	2	15		Qui-1	2	29
San-2	1	54		San-2	1	97		Qui-1	2	13		Qui-1	2	31
San-2	1	56		San-2	1	100		Qui-1	2	12		Qui-1	2	30
San-2	1	52		San-2	1	96		Qui-1	2	13		Qui-1	2	29
San-2	1	61		San-2	1	95		Qui-1	2	11		Qui-1	2	24
San-2	2	na		San-2	2	112		Qui-1	3	13		Qui-1	3	30
San-2	2	52		San-2	2	105		Qui-1	3	14		Qui-1	3	30
San-2	2	47		San-2	2	106		Qui-1	3	14		Qui-1	3	32
San-2	2	na		San-2	2	116		Qui-1	3	15		Qui-1	3	30
San-2	2	54		San-2	2	104		Qui-1	3	15		Qui-1	3	29
San-2	3	63		San-2	3	100		Qui-1	3	13		Qui-1	3	29
San-2	3	71		San-2	3	96		Qui-2	1	16		Qui-2	1	31
San-2	3	70		San-2	3	94		Qui-2	1	17		Qui-2	1	34
San-2	3	57		San-2	3	102		Qui-2	1	17		Qui-2	1	32
San-4	1	62		San-4	1	81		Qui-2	1	15		Qui-2	1	31
San-4	1	60		San-4	1	68		Qui-2	1	16		Qui-2	1	32
San-4	1	67		San-4	1	86		Qui-2	1	16		Qui-2	1	34
San-4	1	71		San-4	1	85		Qui-2	2	16		Qui-2	2	38
San-4	1	68		San-4	1	66		Qui-2	2	17		Qui-2	2	35
San-4	2	65		San-4	2	85		Qui-2	2	18		Qui-2	2	38
San-4	2	52		San-4	2	88		Qui-2	2	17		Qui-2	2	36
San-4	2	63		San-4	2	86		Qui-2	2	17		Qui-2	2	44
San-4	2	71		San-4	2	86		Qui-2	2	18		Qui-2	2	35
San-4	2	62		San-4	2	78		Qui-2	3	19		Qui-2	3	35
San-4	3	57		San-4	3	88		Qui-2	3	18		Qui-2	3	30
San-4	3	na		San-4	3	101		Qui-2	3	16		Qui-2	3	38
San-4	3	64		San-4	3	88		Qui-2	3	17		Qui-2	3	33
San-4	3	62		San-4	3	91		Qui-2	3	18		Qui-2	3	35
San-4	3	na		San-4	3	101		Qui-2	3	18		Qui-2	3	34
San-4	3	74		San-4	3	88		Qui-3	1	19		Qui-3	1	30
San-5	1	58		San-5	1	98		Qui-3	1	20		Qui-3	1	33
San-5	1	64		San-5	1	84		Qui-3	1	19		Qui-3	1	30
San-5	1	61		San-5	1	94		Qui-3	1	19		Qui-3	1	33
San-5	1	64		San-5	1	91		Qui-3	1	19		Qui-3	1	28
San-5	1	64		San-5	1	83		Qui-3	1	21		Qui-3	1	30
San-5	1	65		San-5	1	77		Qui-3	2	20		Qui-3	2	36
San-5	2	55		San-5	2	89		Qui-3	2	18		Qui-3	2	36
San-5	2	52		San-5	2	86		Qui-3	2	19		Qui-3	2	34
San-5	2	55		San-5	2	90		Qui-3	2	18		Qui-3	2	38
San-5	2	57		San-5	2	76		Qui-3	2	21		Qui-3	2	33
San-5	2	61		San-5	2	75		Qui-3	2	17		Qui-3	2	38
San-5	2	54		San-5	2	75		Qui-3	3	19		Qui-3	3	36
San-5	3	58		San-5	3	76		Qui-3	3	19		Qui-3	3	34
San-5	3	53		San-5	3	75		Qui-3	3	16		Qui-3	3	35
San-5	3	58		San-5	3	82		Qui-3	3	18		Qui-3	3	32
San-5	3	59		San-5	3	85		Qui-3	3	19		Qui-3	3	33
San-5	3	62		San-5	3	82		Qui-3	3	17		Qui-3	3	34
San-5	3	52		San-5	3	61		Qui-4	1	14		Qui-4	1	30
San-6	1	25		San-6	1	44		Qui-4	1	14		Qui-4	1	32
San-6	1	26		San-6	1	47		Qui-4	1	15		Qui-4	1	27
San-6	1	25		San-6	1	44		Qui-4	1	14		Qui-4	1	28
San-6	1	31		San-6	1	46		Qui-4	1	13		Qui-4	1	29
San-6	1	22		San-6	1	46		Qui-4	1	17		Qui-4	1	26
San-6	1	27		San-6	1	42		Qui-4	2	15		Qui-4	2	30
San-6	2	30		San-6	2	46		Qui-4	2	16		Qui-4	2	27
San-6	2	30		San-6	2	49		Qui-4	2	16		Qui-4	2	26
San-6	2	28		San-6	2	42		Qui-4	2	17		Qui-4	2	27
San-6	2	27		San-6	2	47		Qui-4	2	16		Qui-4	2	29
San-6	2	25		San-6	2	39		Qui-4	2	16		Qui-4	2	28
San-6	2	30		San-6	2	42		Qui-4	3	12		Qui-4	3	30
San-6	3	25		San-6	3	44		Qui-4	3	14		Qui-4	3	29
San-6	3	28		San-6	3	44		Qui-4	3	13		Qui-4	3	34
San-6	3	33		San-6	3	43		Qui-4	3	15		Qui-4	3	28
San-6	3	32		San-6	3	42		Qui-4	3	13		Qui-4	3	31
San-6	3	30		San-6	3	40		Qui-4	3	13		Qui-4	3	33
San-6	3	28		San-6	3	44		Qui-5	1	12		Qui-5	1	27
San-8	1	26		San-8	1	52		Qui-5	1	13		Qui-5	1	27
San-8	1	28		San-8	1	53		Qui-5	1	14		Qui-5	1	27
San-8	1	26		San-8	1	54		Qui-5	1	13		Qui-5	1	25
San-8	1	32		San-8	1	47		Qui-5	1	14		Qui-5	1	28
San-8	1	27		San-8	1	47		Qui-5	1	14		Qui-5	1	26
San-8	1	33		San-8	1	45		Qui-5	2	14		Qui-5	2	26
San-8	2	24		San-8	2	44		Qui-5	2	14		Qui-5	2	23
San-8	2	29		San-8	2	42		Qui-5	2	14		Qui-5	2	26
San-8	2	28		San-8	2	40		Qui-5	2	15		Qui-5	2	26
San-8	2	33		San-8	2	44		Qui-5	2	14		Qui-5	2	24
San-8	2	33		San-8	2	44		Qui-5	2	13		Qui-5	2	29
San-8	2	31		San-8	2	43		Qui-5	3	11		Qui-5	3	29
San-8	3	27		San-8	3	47		Qui-5	3	12		Qui-5	3	28
San-8	3	26		San-8	3	39		Qui-5	3	12		Qui-5	3	29
San-8	3	28		San-8	3	38		Qui-5	3	13		Qui-5	3	30
San-8	3	26		San-8	3	39		Qui-5	3	13		Qui-5	3	28
San-8	3	23		San-8	3	39		Qui-5	3	12		Qui-5	3	28
San-8	3	29		San-8	3	44		Qui-6	1	20		Qui-6	1	40
San-9	1	71		San-9	1	103		Qui-6	1	18		Qui-6	1	42
San-9	1	71		San-9	1	97		Qui-6	1	18		Qui-6	1	35
San-9	1	81		San-9	1	95		Qui-6	1	20		Qui-6	1	40
San-9	1	70		San-9	1	98		Qui-6	2	19		Qui-6	2	31
San-9	1	67		San-9	1	100		Qui-6	2	19		Qui-6	2	29
San-9	2	71		San-9	2	102		Qui-6	2	17		Qui-6	2	30
San-9	2	69		San-9	2	99		Qui-6	2	14		Qui-6	2	24
San-9	2	65		San-9	2	101		Qui-6	2	19		Qui-6	2	28
San-9	2	54		San-9	2	112		Qui-6	2	18		Qui-6	2	28
San-9	2	67		San-9	2	87		Qui-6	3	18		Qui-6	3	25
San-9	3	69		San-9	3	95		Qui-6	3	17		Qui-6	3	26
San-9	3	69		San-9	3	98		Qui-6	3	17		Qui-6	3	27
San-9	3	74		San-9	3	94		Qui-6	3	16		Qui-6	3	28
San-10	1	82		San-10	1	101		Qui-6	3	18		Qui-6	3	26
San-10	1	71		San-10	1	107		Qui-6	3	20		Qui-6	3	28
San-10	1	64		San-10	1	124		Qui-7	1	14		Qui-7	1	32
San-10	1	84		San-10	1	101		Qui-7	1	16		Qui-7	1	29
San-10	1	80		San-10	1	104		Qui-7	1	14		Qui-7	1	32
San-10	2	76		San-10	2	103		Qui-7	1	15		Qui-7	1	28
San-10	2	67		San-10	2	109		Qui-7	1	15		Qui-7	1	29
San-10	2	76		San-10	2	104		Qui-7	1	15		Qui-7	1	30
San-10	2	84		San-10	2	98		Qui-7	2	16		Qui-7	2	29
San-10	2	72		San-10	2	113		Qui-7	2	14		Qui-7	2	32
San-10	3	69		San-10	3	115		Qui-7	2	15		Qui-7	2	28
San-10	3	79		San-10	3	102		Qui-7	2	16		Qui-7	2	32
San-10	3	66		San-10	3	95		Qui-7	2	17		Qui-7	2	25
San-10	3	69		San-10	3	104		Qui-7	2	16		Qui-7	2	26
San-10	3	79		San-10	3	97		Qui-7	3	17		Qui-7	3	31
San-10	3	75		San-10	3	98		Qui-7	3	15		Qui-7	3	31
San-12	1	47		San-12	1	66		Qui-7	3	12		Qui-7	3	29
San-12	1	50		San-12	1	66		Qui-7	3	16		Qui-7	3	30
San-12	1	55		San-12	1	61		Qui-7	3	16		Qui-7	3	36
San-12	1	55		San-12	1	66		Qui-7	3	16		Qui-7	3	30
San-12	1	54		San-12	1	63		Qui-8	1	15		Qui-8	1	30
San-12	1	56		San-12	1	66		Qui-8	1	16		Qui-8	1	29
San-12	2	54		San-12	2	73		Qui-8	1	14		Qui-8	1	30
San-12	2	63		San-12	2	67		Qui-8	1	16		Qui-8	1	29
San-12	2	50		San-12	2	77		Qui-8	2	19		Qui-8	2	29
San-12	2	54		San-12	2	69		Qui-8	2	14		Qui-8	2	29
San-12	2	63		San-12	2	65		Qui-8	2	16		Qui-8	2	28
San-12	2	60		San-12	2	70		Qui-8	2	14		Qui-8	2	29
San-12	3	57		San-12	3	66		Qui-8	2	20		Qui-8	2	27
San-12	3	62		San-12	3	66		Qui-8	2	13		Qui-8	2	29
San-12	3	48		San-12	3	67		Qui-8	3	16		Qui-8	3	29
San-12	3	57		San-12	3	61		Qui-8	3	13		Qui-8	3	30
San-12	3	57		San-12	3	67		Qui-8	3	15		Qui-8	3	27
San-12	3	57		San-12	3	67		Qui-8	3	15		Qui-8	3	26
San-13	1	49		San-13	1	66		Qui-8	3	16		Qui-8	3	29
San-13	1	52		San-13	1	65		Qui-9	1	18		Qui-9	1	36
San-13	1	52		San-13	1	65		Qui-9	1	18		Qui-9	1	33
San-13	1	40		San-13	1	68		Qui-9	1	18		Qui-9	1	33
San-13	2	37		San-13	2	64		Qui-9	1	18		Qui-9	1	32
San-13	2	43		San-13	2	68		Qui-9	1	18		Qui-9	1	31
San-13	2	61		San-13	2	67		Qui-9	1	18		Qui-9	1	33
San-13	2	38		San-13	2	68		Qui-9	2	20		Qui-9	2	33
San-13	2	64		San-13	2	67		Qui-9	2	21		Qui-9	2	32
San-13	2	42		San-13	2	70		Qui-9	2	19		Qui-9	2	32
San-13	3	47		San-13	3	65		Qui-9	2	18		Qui-9	2	31
San-13	3	45		San-13	3	66		Qui-9	2	21		Qui-9	2	32
San-13	3	42		San-13	3	66		Qui-9	2	20		Qui-9	2	30
San-13	3	49		San-13	3	64		Qui-9	3	18		Qui-9	3	31
San-13	3	46		San-13	3	65		Qui-9	3	21		Qui-9	3	29
San-13	3	45		San-13	3	79		Qui-9	3	19		Qui-9	3	30
								Qui-9	3	19		Qui-9	3	28
								Qui-9	3	17		Qui-9	3	29
								Qui-9	3	20		Qui-9	3	29
								San-0	1	14		San-0	1	40
								San-0	1	13		San-0	1	32
								San-0	1	12		San-0	1	32
								San-0	1	14		San-0	1	35
								San-0	2	10		San-0	2	29
								San-0	2	11		San-0	2	23
								San-0	2	11		San-0	2	29
								San-0	2	13		San-0	2	25
								San-0	2	11		San-0	2	27
								San-0	2	13		San-0	2	29
								San-0	3	13		San-0	3	30
								San-0	3	12		San-0	3	30
								San-0	3	12		San-0	3	30
								San-0	3	10		San-0	3	29
								San-0	3	11		San-0	3	35
								San-0	3	14		San-0	3	33
								San-2	1	12		San-2	1	39
								San-2	1	17		San-2	1	41
								San-2	1	16		San-2	1	43
								San-2	1	12		San-2	1	44
								San-2	1	19		San-2	1	36
								San-2	1	18		San-2	1	44
								San-2	2	14		San-2	2	36
								San-2	2	16		San-2	2	30
								San-2	2	16		San-2	2	32
								San-2	2	14		San-2	2	34
								San-2	2	20		San-2	2	32
								San-2	2	16		San-2	2	35
								San-2	3	16		San-2	3	36
								San-2	3	15		San-2	3	36
								San-2	3	18		San-2	3	35
								San-2	3	12		San-2	3	36
								San-2	3	17		San-2	3	35
								San-2	3	14		San-2	3	32
								San-4	1	19		San-4	1	29
								San-4	1	20		San-4	1	30
								San-4	1	22		San-4	1	31
								San-4	1	23		San-4	1	31
								San-4	1	23		San-4	1	31
								San-4	1	21		San-4	1	30
								San-4	2	19		San-4	2	33
								San-4	2	14		San-4	2	32
								San-4	2	21		San-4	2	28
								San-4	2	24		San-4	2	29
								San-4	2	21		San-4	2	29
								San-4	2	20		San-4	2	31
								San-4	3	19		San-4	3	37
								San-4	3	20		San-4	3	34
								San-4	3	20		San-4	3	36
								San-4	3	19		San-4	3	39
								San-5	1	16		San-5	1	34
								San-5	1	18		San-5	1	35
								San-5	1	16		San-5	1	34
								San-5	1	19		San-5	1	33
								San-5	1	16		San-5	1	40
								San-5	1	18		San-5	1	33
								San-5	2	18		San-5	2	35
								San-5	2	19		San-5	2	35
								San-5	2	22		San-5	2	32
								San-5	2	20		San-5	2	34
								San-5	2	17		San-5	2	37
								San-5	3	20		San-5	3	35
								San-5	3	22		San-5	3	32
								San-5	3	21		San-5	3	35
								San-5	3	20		San-5	3	32
								San-5	3	19		San-5	3	32
								San-5	3	21		San-5	3	31
								San-6	1	12		San-6	1	30
								San-6	1	14		San-6	1	29
								San-6	1	12		San-6	1	29
								San-6	1	12		San-6	1	28
								San-6	1	14		San-6	1	32
								San-6	1	13		San-6	1	33
								San-6	2	12		San-6	2	35
								San-6	2	11		San-6	2	25
								San-6	2	14		San-6	2	32
								San-6	2	11		San-6	2	29
								San-6	2	14		San-6	2	31
								San-6	2	14		San-6	2	33
								San-6	3	11		San-6	3	27
								San-6	3	11		San-6	3	23
								San-6	3	13		San-6	3	32
								San-6	3	12		San-6	3	29
								San-6	3	14		San-6	3	31
								San-6	3	10		San-6	3	22
								San-8	1	10		San-8	1	29
								San-8	1	12		San-8	1	32
								San-8	1	11		San-8	1	25
								San-8	1	12		San-8	1	24
								San-8	1	12		San-8	1	27
								San-8	1	13		San-8	1	33
								San-8	2	11		San-8	2	29
								San-8	2	12		San-8	2	28
								San-8	2	11		San-8	2	23
								San-8	2	12		San-8	2	28
								San-8	2	13		San-8	2	27
								San-8	2	15		San-8	2	32
								San-8	3	12		San-8	3	29
								San-8	3	11		San-8	3	26
								San-8	3	13		San-8	3	31
								San-8	3	12		San-8	3	26
								San-8	3	12		San-8	3	29
								San-8	3	13		San-8	3	28
								San-9	1	19		San-9	1	38
								San-9	1	19		San-9	1	40
								San-9	1	21		San-9	1	40
								San-9	1	20		San-9	1	37
								San-9	1	20		San-9	1	40
								San-9	1	18		San-9	1	44
								San-9	2	22		San-9	2	37
								San-9	2	23		San-9	2	36
								San-9	2	23		San-9	2	39
								San-9	2	22		San-9	2	34
								San-9	2	24		San-9	2	36
								San-9	2	24		San-9	2	35
								San-9	3	20		San-9	3	32
								San-9	3	21		San-9	3	35
								San-9	3	20		San-9	3	32
								San-9	3	21		San-9	3	32
								San-9	3	23		San-9	3	31
								San-9	3	22		San-9	3	34
								San-10	1	13		San-10	1	47
								San-10	1	17		San-10	1	40
								San-10	1	16		San-10	1	36
								San-10	1	14		San-10	1	35
								San-10	1	13		San-10	1	30
								San-10	1	15		San-10	1	47
								San-10	2	16		San-10	2	33
								San-10	2	16		San-10	2	36
								San-10	2	16		San-10	2	32
								San-10	2	17		San-10	2	32
								San-10	2	17		San-10	2	36
								San-10	2	16		San-10	2	35
								San-10	3	16		San-10	3	34
								San-10	3	16		San-10	3	34
								San-10	3	16		San-10	3	30
								San-10	3	16		San-10	3	34
								San-10	3	17		San-10	3	32
								San-10	3	16		San-10	3	34
								San-12	1	25		San-12	1	37
								San-12	1	24		San-12	1	37
								San-12	1	23		San-12	1	37
								San-12	1	19		San-12	1	40
								San-12	1	21		San-12	1	38
								San-12	1	24		San-12	1	36
								San-12	2	24		San-12	2	36
								San-12	2	24		San-12	2	40
								San-12	2	22		San-12	2	38
								San-12	2	24		San-12	2	41
								San-12	2	23		San-12	2	37
								San-12	2	26		San-12	2	39
								San-12	3	20		San-12	3	44
								San-12	3	24		San-12	3	40
								San-12	3	21		San-12	3	41
								San-12	3	24		San-12	3	36
								San-12	3	24		San-12	3	38
								San-12	3	21		San-12	3	38
								San-13	1	15		San-13	1	35
								San-13	1	14		San-13	1	37
								San-13	1	13		San-13	1	44
								San-13	1	22		San-13	1	56
								San-13	2	16		San-13	2	34
								San-13	2	15		San-13	2	32
								San-13	2	16		San-13	2	36
								San-13	2	15		San-13	2	42
								San-13	3	16		San-13	3	27
