MAXIMUM NUMBER OF ROSETTES				FLOWERING TIME				NUMBER OF FRUITING PLANTS				NUMBER OF FRUITS PER PLANT		
GENOTYPE	BLOCK	VARIABLE		GENOTYPE	BLOCK	VARIABLE		GENOTYPE	BLOCK	VARIABLE		GENOTYPE	BLOCK	VARIABLE
Agu 0	1	5		AGU0	1	143		Agu 0	1	3		Agu 0	1	1.33
Agu 0	1	10		AGU0	1	142		Agu 0	1	4		Agu 0	1	1.25
Agu 0	1	6		AGU0	1	148		Agu 0	1	1		Agu 0	1	1.00
Agu 0	1	2		AGU0	2	130		Agu 0	2	5		Agu 0	2	2.40
Agu 0	2	14		AGU0	2	142		Agu 0	2	3		Agu 0	2	2.33
Agu 0	2	10		AGU0	2	134		Agu 0	2	1		Agu 0	2	8.00
Agu 0	2	11		AGU0	3	142		Agu 0	3	1		Agu 0	3	1.00
Agu 0	3	6		AGU0	3	143		Agu 0	3	1		Agu 0	3	2.00
Agu 0	3	8		AGU0	3	142		Agu 0	3	1		Agu 0	3	1.00
Agu 0	3	4		AGU0	4	138		Agu 0	4	3		Agu 0	4	2.33
Agu 0	3	8		AGU0	4	134		Agu 0	4	6		Agu 0	4	6.17
Agu 0	4	5		AGU0	4	148		Agu 1	1	5		Agu 1	1	1.20
Agu 0	4	19		AGU1	1	148		Agu 1	1	9		Agu 1	1	4.33
Agu 0	4	7		AGU1	1	142		Agu 1	1	8		Agu 1	1	1.83
Agu 1	1	19		AGU1	1	142		Agu 1	1	1		Agu 1	1	1.00
Agu 1	1	21		AGU1	1	148		Agu 1	2	5		Agu 1	2	1.20
Agu 1	1	15		AGU1	2	142		Agu 1	2	1		Agu 1	2	1.00
Agu 1	1	8		AGU1	2	148		Agu 1	2	3		Agu 1	2	1.00
Agu 1	2	15		AGU1	2	148		Agu 1	2	6		Agu 1	2	1.33
Agu 1	2	15		AGU1	2	148		Agu 1	3	4		Agu 1	3	1.50
Agu 1	2	10		AGU1	3	142		Agu 1	3	1		Agu 1	3	1.00
Agu 1	2	7		AGU1	3	142		Agu 1	4	4		Agu 1	4	2.25
Agu 1	3	12		AGU1	3	148		Agu 1	4	4		Agu 1	4	1.00
Agu 1	3	13		AGU1	4	142		Agu 1	4	1		Agu 1	4	1.00
Agu 1	3	4		AGU1	4	148		Agu 1	4	3		Agu 1	4	1.00
Agu 1	3	10		AGU1	4	148		Agu 2	1	2		Agu 2	1	1.50
Agu 1	4	11		AGU1	4	148		Agu 2	1	1		Agu 2	1	3.00
Agu 1	4	10		AGU2	1	142		Agu 2	1	6		Agu 2	1	1.33
Agu 1	4	14		AGU2	1	138		Agu 2	2	5		Agu 2	2	2.20
Agu 2	1	6		AGU2	1	142		Agu 2	3	1		Agu 2	3	1.00
Agu 2	1	4		AGU2	2	142		Agu 2	4	1		Agu 2	4	2.00
Agu 2	1	11		AGU2	2	148		Agu 2	4	6		Agu 2	4	10.67
Agu 2	1	5		AGU2	3	143		Agu 4	1	8		Agu 4	1	1.17
Agu 2	2	6		AGU2	4	144		Agu 4	1	5		Agu 4	1	1.00
Agu 2	2	3		AGU2	4	148		Agu 4	1	1		Agu 4	1	1.00
Agu 2	2	8		AGU2	4	134		Agu 4	1	1		Agu 4	1	1.00
Agu 2	2	7		AGU2	4	148		Agu 4	2	11		Agu 4	2	3.17
Agu 2	3	6		AGU4	1	142		Agu 4	2	4		Agu 4	2	1.00
Agu 2	3	1		AGU4	1	142		Agu 4	2	6		Agu 4	2	1.50
Agu 2	4	4		AGU4	1	156		Agu 4	2	5		Agu 4	2	2.60
Agu 2	4	12		AGU4	1	148		Agu 4	3	1		Agu 4	3	2.00
Agu 2	4	12		AGU4	2	134		Agu 4	3	8		Agu 4	3	1.17
Agu 2	4	3		AGU4	2	148		Agu 4	3	4		Agu 4	3	1.00
Agu 4	1	22		AGU4	2	142		Agu 4	4	10		Agu 4	4	2.17
Agu 4	1	16		AGU4	2	134		Agu 6	1	7		Agu 6	1	1.00
Agu 4	1	15		AGU4	3	142		Agu 6	1	8		Agu 6	1	1.17
Agu 4	1	4		AGU4	3	142		Agu 6	2	6		Agu 6	2	2.83
Agu 4	2	25		AGU4	3	148		Agu 6	2	5		Agu 6	2	1.00
Agu 4	2	32		AGU4	4	134		Agu 6	2	7		Agu 6	2	3.83
Agu 4	2	11		AGU6	1	142		Agu 6	3	4		Agu 6	3	1.25
Agu 4	2	15		AGU6	1	142		Agu 6	3	8		Agu 6	3	3.17
Agu 4	3	22		AGU6	2	142		Agu 6	3	4		Agu 6	3	1.00
Agu 4	3	18		AGU6	2	148		Agu 6	3	2		Agu 6	3	1.00
Agu 4	3	26		AGU6	2	156		Agu 6	4	4		Agu 6	4	1.25
Agu 4	3	28		AGU6	2	142		Agu 6	4	8		Agu 6	4	1.83
Agu 4	4	12		AGU6	3	142		Agu 6	4	7		Agu 6	4	1.17
Agu 4	4	12		AGU6	3	130		Agu 6	4	11		Agu 6	4	4.17
Agu 4	4	8		AGU6	3	148		Agu 7	1	6		Agu 7	1	1.33
Agu 4	4	22		AGU6	3	152		Agu 7	1	9		Agu 7	1	2.00
Agu 6	1	17		AGU6	4	142		Agu 7	1	12		Agu 7	1	1.67
Agu 6	1	12		AGU6	4	142		Agu 7	1	5		Agu 7	1	1.00
Agu 6	1	13		AGU6	4	142		Agu 7	2	8		Agu 7	2	2.50
Agu 6	1	10		AGU6	4	144		Agu 7	2	8		Agu 7	2	1.17
Agu 6	2	11		AGU7	1	138		Agu 7	2	6		Agu 7	2	1.67
Agu 6	2	8		AGU7	1	134		Agu 7	3	8		Agu 7	3	4.50
Agu 6	2	16		AGU7	1	142		Agu 7	3	4		Agu 7	3	11.25
Agu 6	2	14		AGU7	1	138		Agu 7	3	8		Agu 7	3	1.00
Agu 6	3	16		AGU7	2	134		Agu 7	3	4		Agu 7	3	8.00
Agu 6	3	13		AGU7	2	142		Agu 7	4	8		Agu 7	4	1.17
Agu 6	3	15		AGU7	2	134		Agu 7	4	10		Agu 7	4	3.50
Agu 6	3	15		AGU7	3	134		Agu 7	4	5		Agu 7	4	1.80
Agu 6	4	15		AGU7	3	134		Agu 7	4	9		Agu 7	4	2.50
Agu 6	4	14		AGU7	3	142		Agu 7	4	8		Agu 7	4	5.00
Agu 6	4	18		AGU7	3	142		Agu 8	1	5		Agu 8	1	1.00
Agu 6	4	22		AGU7	4	142		Agu 8	1	9		Agu 8	1	13.33
Agu 7	1	24		AGU7	4	134		Agu 8	1	3		Agu 8	1	1.00
Agu 7	1	17		AGU7	4	142		Agu 8	1	8		Agu 8	1	2.00
Agu 7	1	33		AGU7	4	134		Agu 8	2	1		Agu 8	2	2.00
Agu 7	1	17		AGU7	4	134		Agu 8	2	6		Agu 8	2	1.17
Agu 7	2	23		AGU8	1	142		Agu 8	2	6		Agu 8	2	7.33
Agu 7	2	27		AGU8	1	142		Agu 8	2	7		Agu 8	2	1.50
Agu 7	2	17		AGU8	1	148		Agu 8	3	7		Agu 8	3	2.50
Agu 7	3	23		AGU8	1	142		Agu 8	3	7		Agu 8	3	26.67
Agu 7	3	32		AGU8	2	148		Agu 8	3	3		Agu 8	3	1.00
Agu 7	3	21		AGU8	2	142		Agu 8	3	1		Agu 8	3	1.00
Agu 7	3	21		AGU8	2	142		Agu 8	4	7		Agu 8	4	1.00
Agu 7	4	12		AGU8	2	142		Agu 8	4	3		Agu 8	4	1.67
Agu 7	4	21		AGU8	3	142		Agu 8	4	10		Agu 8	4	5.83
Agu 7	4	19		AGU8	3	142		Agu 8	4	5		Agu 8	4	4.00
Agu 7	4	26		AGU8	3	148		Agu 11	1	1		Agu 11	1	1.00
Agu 7	4	37		AGU8	3	148		Agu 11	1	6		Agu 11	1	1.17
Agu 8	1	16		AGU8	4	142		Agu 11	1	2		Agu 11	1	1.50
Agu 8	1	19		AGU8	4	142		Agu 11	1	1		Agu 11	1	1.00
Agu 8	1	21		AGU8	4	142		Agu 11	2	4		Agu 11	2	1.50
Agu 8	1	24		AGU8	4	142		Agu 11	2	3		Agu 11	2	1.00
Agu 8	2	9		AGU11	1	148		Agu 11	2	2		Agu 11	2	1.00
Agu 8	2	12		AGU11	1	142		Agu 11	2	1		Agu 11	2	1.00
Agu 8	2	22		AGU11	1	148		Agu 11	3	3		Agu 11	3	2.00
Agu 8	2	24		AGU11	1	148		Agu 11	3	1		Agu 11	3	1.00
Agu 8	3	15		AGU11	2	142		Agu 11	3	1		Agu 11	3	1.00
Agu 8	3	12		AGU11	2	148		Agu 11	4	2		Agu 11	4	1.50
Agu 8	3	17		AGU11	2	148		Agu 11	4	7		Agu 11	4	1.00
Agu 8	3	17		AGU11	3	142		Agu 11	4	3		Agu 11	4	2.00
Agu 8	4	18		AGU11	3	148		Agu 12	1	11		Agu 12	1	8.17
Agu 8	4	15		AGU11	3	143		Agu 12	1	7		Agu 12	1	2.50
Agu 8	4	23		AGU11	4	130		Agu 12	1	8		Agu 12	1	2.17
Agu 8	4	18		AGU11	4	148		Agu 12	2	7		Agu 12	2	1.33
Agu 11	1	7		AGU11	4	142		Agu 12	2	7		Agu 12	2	1.17
Agu 11	1	14		AGU12	1	142		Agu 12	2	5		Agu 12	2	1.20
Agu 11	1	5		AGU12	1	142		Agu 12	2	2		Agu 12	2	1.00
Agu 11	1	7		AGU12	1	142		Agu 12	3	6		Agu 12	3	2.50
Agu 11	2	9		AGU12	2	148		Agu 12	3	3		Agu 12	3	4.00
Agu 11	2	13		AGU12	2	148		Agu 12	3	2		Agu 12	3	1.00
Agu 11	2	7		AGU12	2	142		Agu 12	3	7		Agu 12	3	1.67
Agu 11	3	9		AGU12	2	142		Agu 12	4	6		Agu 12	4	6.33
Agu 11	3	7		AGU12	3	138		Agu 12	4	8		Agu 12	4	2.50
Agu 11	4	7		AGU12	3	142		Agu 12	4	10		Agu 12	4	1.33
Agu 11	4	8		AGU12	3	148		Agu 12	4	9		Agu 12	4	2.17
Agu 11	4	7		AGU12	3	142		Agu 18	1	1		Agu 18	1	2.00
Agu 12	1	20		AGU12	4	142		Agu 18	2	1		Agu 18	2	1.00
Agu 12	1	14		AGU12	4	142		Agu 18	2	2		Agu 18	2	19.00
Agu 12	1	21		AGU12	4	142		Agu 18	3	3		Agu 18	3	2.00
Agu 12	2	31		AGU12	4	142		Agu 18	3	1		Agu 18	3	1.00
Agu 12	2	18		AGU18	1	138		Agu 18	4	1		Agu 18	4	1.00
Agu 12	2	9		AGU18	2	148		Cdc 0	1	7		Cdc 0	1	1.67
Agu 12	2	10		AGU18	2	142		Cdc 0	1	10		Cdc 0	1	1.67
Agu 12	3	11		AGU18	3	134		Cdc 0	1	8		Cdc 0	1	1.00
Agu 12	3	20		AGU18	4	148		Cdc 0	2	7		Cdc 0	2	1.17
Agu 12	3	10		AGU18	4	144		Cdc 0	2	4		Cdc 0	2	1.25
Agu 12	3	21		CDC0	1	142		Cdc 0	2	6		Cdc 0	2	1.67
Agu 12	4	13		CDC0	1	142		Cdc 0	2	4		Cdc 0	2	2.75
Agu 12	4	18		CDC0	1	148		Cdc 0	3	4		Cdc 0	3	2.00
Agu 12	4	19		CDC0	2	143		Cdc 0	3	1		Cdc 0	3	1.00
Agu 12	4	20		CDC0	2	148		Cdc 0	3	2		Cdc 0	3	1.00
Agu 18	1	3		CDC0	2	148		Cdc 0	3	1		Cdc 0	3	2.00
Agu 18	1	5		CDC0	2	156		Cdc 0	4	6		Cdc 0	4	5.33
Agu 18	1	3		CDC0	3	148		Cdc 0	4	6		Cdc 0	4	1.50
Agu 18	2	6		CDC0	3	148		Cdc 0	4	1		Cdc 0	4	1.00
Agu 18	2	5		CDC0	3	148		Cdc 0	4	6		Cdc 0	4	1.83
Agu 18	3	15		CDC0	3	148		Cdc 1	1	9		Cdc 1	1	1.50
Agu 18	3	10		CDC0	4	148		Cdc 1	1	8		Cdc 1	1	3.50
Agu 18	4	2		CDC0	4	144		Cdc 1	1	7		Cdc 1	1	1.33
Agu 18	4	5		CDC0	4	142		Cdc 1	1	10		Cdc 1	1	3.83
Cdc 0	1	17		CDC0	4	142		Cdc 1	2	1		Cdc 1	2	1.00
Cdc 0	1	9		CDC1	1	142		Cdc 1	2	11		Cdc 1	2	1.83
Cdc 0	1	21		CDC1	1	142		Cdc 1	2	1		Cdc 1	2	1.00
Cdc 0	1	18		CDC1	1	142		Cdc 1	2	10		Cdc 1	2	3.33
Cdc 0	2	11		CDC1	1	142		Cdc 1	3	5		Cdc 1	3	2.40
Cdc 0	2	23		CDC1	2	142		Cdc 1	3	8		Cdc 1	3	1.67
Cdc 0	2	16		CDC1	2	142		Cdc 1	3	3		Cdc 1	3	25.00
Cdc 0	2	11		CDC1	2	142		Cdc 1	3	8		Cdc 1	3	4.50
Cdc 0	3	20		CDC1	2	142		Cdc 1	4	12		Cdc 1	4	5.33
Cdc 0	3	23		CDC1	3	142		Cdc 1	4	6		Cdc 1	4	1.67
Cdc 0	3	29		CDC1	3	148		Cdc 1	4	10		Cdc 1	4	1.50
Cdc 0	3	14		CDC1	3	142		Cdc 3	1	5		Cdc 3	1	1.00
Cdc 0	4	14		CDC1	3	142		Cdc 3	1	4		Cdc 3	1	1.00
Cdc 0	4	21		CDC1	4	142		Cdc 3	1	2		Cdc 3	1	1.00
Cdc 0	4	14		CDC1	4	142		Cdc 3	1	5		Cdc 3	1	1.20
Cdc 1	1	32		CDC1	4	142		Cdc 3	2	6		Cdc 3	2	1.17
Cdc 1	1	33		CDC3	1	148		Cdc 3	2	2		Cdc 3	2	1.00
Cdc 1	1	28		CDC3	1	156		Cdc 3	3	10		Cdc 3	3	4.17
Cdc 1	1	27		CDC3	1	142		Cdc 3	3	2		Cdc 3	3	1.00
Cdc 1	2	24		CDC3	1	142		Cdc 3	3	5		Cdc 3	3	1.00
Cdc 1	2	18		CDC3	2	142		Cdc 3	4	1		Cdc 3	4	1.00
Cdc 1	2	22		CDC3	2	148		Cdc 3	4	3		Cdc 3	4	1.00
Cdc 1	3	29		CDC3	3	142		Cdc 3	4	7		Cdc 3	4	1.33
Cdc 1	3	26		CDC3	3	142		Cdc 4	1	3		Cdc 4	1	2.33
Cdc 1	3	15		CDC3	3	142		Cdc 4	1	4		Cdc 4	1	1.00
Cdc 1	3	25		CDC3	4	148		Cdc 4	1	2		Cdc 4	1	1.00
Cdc 1	4	30		CDC3	4	148		Cdc 4	1	4		Cdc 4	1	1.00
Cdc 1	4	14		CDC3	4	142		Cdc 4	2	6		Cdc 4	2	1.00
Cdc 1	4	20		CDC4	1	148		Cdc 4	2	5		Cdc 4	2	1.00
Cdc 3	1	16		CDC4	1	148		Cdc 4	2	6		Cdc 4	2	4.00
Cdc 3	1	14		CDC4	1	148		Cdc 4	2	5		Cdc 4	2	2.80
Cdc 3	1	14		CDC4	1	142		Cdc 4	3	4		Cdc 4	3	1.00
Cdc 3	1	16		CDC4	2	142		Cdc 4	3	4		Cdc 4	3	1.00
Cdc 3	2	16		CDC4	2	148		Cdc 4	3	6		Cdc 4	3	2.17
Cdc 3	2	15		CDC4	2	148		Cdc 4	3	6		Cdc 4	3	1.50
Cdc 3	2	21		CDC4	2	142		Cdc 4	4	1		Cdc 4	4	2.00
Cdc 3	2	9		CDC4	3	142		Cdc 4	4	5		Cdc 4	4	1.00
Cdc 3	3	14		CDC4	3	142		Cdc 4	4	2		Cdc 4	4	1.00
Cdc 3	3	10		CDC4	3	142		Cdc 4	4	6		Cdc 4	4	1.33
Cdc 3	3	16		CDC4	3	143		Cdc 5	1	5		Cdc 5	1	1.00
Cdc 3	3	21		CDC4	4	144		Cdc 5	1	8		Cdc 5	1	1.33
Cdc 3	4	10		CDC4	4	142		Cdc 5	1	10		Cdc 5	1	3.67
Cdc 3	4	14		CDC4	4	144		Cdc 5	1	5		Cdc 5	1	4.20
Cdc 3	4	8		CDC4	4	148		Cdc 5	2	10		Cdc 5	2	3.17
Cdc 4	1	5		CDC5	1	156		Cdc 5	3	12		Cdc 5	3	10.83
Cdc 4	1	10		CDC5	1	156		Cdc 5	3	5		Cdc 5	3	1.40
Cdc 4	1	15		CDC5	1	156		Cdc 5	3	15		Cdc 5	3	28.50
Cdc 4	1	24		CDC5	1	156		Cdc 5	4	1		Cdc 5	4	1.00
Cdc 4	2	21		CDC5	2	163		Cdc 5	4	10		Cdc 5	4	3.00
Cdc 4	2	15		CDC5	2	156		Cdc 5	4	10		Cdc 5	4	1.67
Cdc 4	2	15		CDC5	3	156		Cdc 5	4	11		Cdc 5	4	1.50
Cdc 4	2	10		CDC5	3	152		Cdc 6	1	6		Cdc 6	1	1.00
Cdc 4	3	20		CDC5	3	152		Cdc 6	1	6		Cdc 6	1	1.50
Cdc 4	3	16		CDC5	4	156		Cdc 6	1	7		Cdc 6	1	1.00
Cdc 4	3	17		CDC5	4	156		Cdc 6	2	1		Cdc 6	2	1.00
Cdc 4	3	18		CDC5	4	156		Cdc 6	2	3		Cdc 6	2	4.67
Cdc 4	4	4		CDC5	4	152		Cdc 6	2	6		Cdc 6	2	1.00
Cdc 4	4	15		CDC6	1	148		Cdc 6	3	6		Cdc 6	3	1.00
Cdc 4	4	8		CDC6	1	148		Cdc 6	3	7		Cdc 6	3	1.33
Cdc 4	4	14		CDC6	1	148		Cdc 6	3	2		Cdc 6	3	1.00
Cdc 5	1	29		CDC6	1	148		Cdc 6	3	3		Cdc 6	3	1.00
Cdc 5	1	37		CDC6	2	148		Cdc 6	4	1		Cdc 6	4	1.00
Cdc 5	1	38		CDC6	2	142		Cdc 6	4	3		Cdc 6	4	1.33
Cdc 5	1	29		CDC6	2	148		Cdc 6	4	4		Cdc 6	4	1.00
Cdc 5	2	17		CDC6	2	148		Cdc 7	1	4		Cdc 7	1	1.50
Cdc 5	2	34		CDC6	3	142		Cdc 7	1	6		Cdc 7	1	1.17
Cdc 5	3	14		CDC6	3	142		Cdc 7	1	9		Cdc 7	1	1.17
Cdc 5	3	29		CDC6	3	148		Cdc 7	1	6		Cdc 7	1	2.67
Cdc 5	3	45		CDC6	3	148		Cdc 7	2	4		Cdc 7	2	1.00
Cdc 5	4	21		CDC6	4	156		Cdc 7	2	7		Cdc 7	2	5.50
Cdc 5	4	29		CDC6	4	142		Cdc 7	2	9		Cdc 7	2	2.83
Cdc 5	4	20		CDC6	4	148		Cdc 7	2	9		Cdc 7	2	1.67
Cdc 5	4	31		CDC7	1	148		Cdc 7	3	6		Cdc 7	3	1.00
Cdc 6	1	15		CDC7	1	142		Cdc 7	3	2		Cdc 7	3	1.50
Cdc 6	1	16		CDC7	1	142		Cdc 7	4	11		Cdc 7	4	7.00
Cdc 6	1	20		CDC7	1	142		Cdc 7	4	2		Cdc 7	4	1.00
Cdc 6	1	19		CDC7	2	142		Cdc 7	4	1		Cdc 7	4	3.00
Cdc 6	2	14		CDC7	2	142		Cdc 7	4	7		Cdc 7	4	2.00
Cdc 6	2	17		CDC7	2	142		Cdc 8	1	6		Cdc 8	1	1.17
Cdc 6	2	4		CDC7	2	142		Cdc 8	1	1		Cdc 8	1	1.00
Cdc 6	3	15		CDC7	3	138		Cdc 8	1	2		Cdc 8	1	1.00
Cdc 6	3	15		CDC7	3	142		Cdc 8	1	2		Cdc 8	1	1.00
Cdc 6	3	25		CDC7	4	142		Cdc 8	2	2		Cdc 8	2	1.00
Cdc 6	4	11		CDC7	4	148		Cdc 8	2	4		Cdc 8	2	1.25
Cdc 6	4	14		CDC7	4	144		Cdc 8	2	6		Cdc 8	2	2.00
Cdc 6	4	15		CDC7	4	142		Cdc 8	2	5		Cdc 8	2	1.20
Cdc 6	4	27		CDC8	1	142		Cdc 8	3	9		Cdc 8	3	12.83
Cdc 7	1	11		CDC8	1	148		Cdc 8	3	2		Cdc 8	3	1.00
Cdc 7	1	28		CDC8	1	142		Cdc 8	3	6		Cdc 8	3	1.00
Cdc 7	1	21		CDC8	1	156		Cdc 8	4	1		Cdc 8	4	1.00
Cdc 7	1	10		CDC8	2	148		Cdc 8	4	1		Cdc 8	4	1.00
Cdc 7	2	9		CDC8	2	142		Cdc 8	4	4		Cdc 8	4	1.50
Cdc 7	2	7		CDC8	2	143		Cdc 9	1	5		Cdc 9	1	1.20
Cdc 7	2	26		CDC8	2	148		Cdc 9	1	1		Cdc 9	1	1.00
Cdc 7	2	16		CDC8	3	142		Cdc 9	1	5		Cdc 9	1	7.00
Cdc 7	3	15		CDC8	3	156		Cdc 9	1	1		Cdc 9	1	1.00
Cdc 7	3	12		CDC8	3	148		Cdc 9	2	2		Cdc 9	2	1.50
Cdc 7	3	14		CDC8	4	156		Cdc 9	2	2		Cdc 9	2	1.00
Cdc 7	4	21		CDC8	4	144		Cdc 9	2	2		Cdc 9	2	1.00
Cdc 7	4	15		CDC9	1	148		Cdc 9	3	1		Cdc 9	3	8.00
Cdc 7	4	14		CDC9	1	148		Cdc 9	3	1		Cdc 9	3	8.00
Cdc 7	4	12		CDC9	1	148		Cdc 9	3	2		Cdc 9	3	1.00
Cdc 8	1	17		CDC9	2	143		Cdc 9	4	1		Cdc 9	4	1.00
Cdc 8	1	13		CDC9	2	148		Cdc 9	4	4		Cdc 9	4	2.25
Cdc 8	1	17		CDC9	2	148		Cdc 9	4	3		Cdc 9	4	2.00
Cdc 8	1	14		CDC9	3	142		Cdc 10	1	5		Cdc 10	1	6.80
Cdc 8	2	9		CDC9	3	156		Cdc 10	1	4		Cdc 10	1	1.00
Cdc 8	2	13		CDC9	4	148		Cdc 10	1	1		Cdc 10	1	1.00
Cdc 8	2	13		CDC9	4	142		Cdc 10	2	4		Cdc 10	2	1.25
Cdc 8	2	10		CDC9	4	142		Cdc 10	2	7		Cdc 10	2	3.00
Cdc 8	3	18		CDC10	1	142		Cdc 10	2	5		Cdc 10	2	1.00
Cdc 8	3	18		CDC10	1	142		Cdc 10	2	5		Cdc 10	2	1.60
Cdc 8	3	19		CDC10	1	142		Cdc 10	3	1		Cdc 10	3	1.00
Cdc 8	3	7		CDC10	1	148		Cdc 10	3	1		Cdc 10	3	1.00
Cdc 8	4	23		CDC10	2	148		Cdc 10	3	5		Cdc 10	3	7.00
Cdc 8	4	2		CDC10	2	148		Cdc 10	4	1		Cdc 10	4	1.00
Cdc 8	4	3		CDC10	2	148		Cdc 10	4	2		Cdc 10	4	1.50
Cdc 8	4	17		CDC10	2	142		Cdc 10	4	6		Cdc 10	4	1.17
Cdc 9	1	17		CDC10	3	142		Cdc 10	4	3		Cdc 10	4	1.33
Cdc 9	1	11		CDC10	3	148		Gra 0	1	5		Gra 0	1	1.00
Cdc 9	1	18		CDC10	3	148		Gra 0	1	10		Gra 0	1	4.83
Cdc 9	1	11		CDC10	4	144		Gra 0	1	9		Gra 0	1	3.00
Cdc 9	2	7		CDC10	4	148		Gra 0	1	8		Gra 0	1	1.00
Cdc 9	2	7		CDC10	4	142		Gra 0	2	9		Gra 0	2	1.50
Cdc 9	2	7		GRA0	1	148		Gra 0	2	5		Gra 0	2	10.60
Cdc 9	2	9		GRA0	1	143		Gra 0	2	7		Gra 0	2	4.67
Cdc 9	3	6		GRA0	1	134		Gra 0	2	19		Gra 0	2	9.33
Cdc 9	3	12		GRA0	1	142		Gra 0	3	4		Gra 0	3	1.00
Cdc 9	3	8		GRA0	2	134		Gra 0	3	8		Gra 0	3	9.50
Cdc 9	3	17		GRA0	2	148		Gra 0	3	9		Gra 0	3	2.00
Cdc 9	4	10		GRA0	2	134		Gra 0	3	9		Gra 0	3	1.50
Cdc 9	4	15		GRA0	2	138		Gra 0	4	12		Gra 0	4	1.50
Cdc 9	4	12		GRA0	3	138		Gra 0	4	9		Gra 0	4	1.50
Cdc 10	1	12		GRA0	3	134		Gra 0	4	8		Gra 0	4	9.50
Cdc 10	1	24		GRA0	3	134		Gra 0	4	9		Gra 0	4	1.00
Cdc 10	1	17		GRA0	3	142		Gra 1	1	10		Gra 1	1	1.33
Cdc 10	1	16		GRA0	4	142		Gra 1	1	5		Gra 1	1	1.20
Cdc 10	2	12		GRA0	4	148		Gra 1	1	4		Gra 1	1	1.50
Cdc 10	2	19		GRA0	4	142		Gra 1	1	7		Gra 1	1	1.67
Cdc 10	2	15		GRA0	4	148		Gra 1	2	13		Gra 1	2	4.17
Cdc 10	2	10		GRA1	1	142		Gra 1	2	3		Gra 1	2	1.00
Cdc 10	3	15		GRA1	1	143		Gra 1	2	13		Gra 1	2	3.50
Cdc 10	3	20		GRA1	1	138		Gra 1	2	5		Gra 1	2	1.00
Cdc 10	3	18		GRA1	1	142		Gra 1	3	13		Gra 1	3	7.67
Cdc 10	4	10		GRA1	2	134		Gra 1	3	3		Gra 1	3	2.00
Cdc 10	4	12		GRA1	2	148		Gra 1	3	7		Gra 1	3	1.83
Cdc 10	4	10		GRA1	2	134		Gra 1	4	25		Gra 1	4	13.33
Cdc 10	4	11		GRA1	2	142		Gra 1	4	12		Gra 1	4	6.17
Gra 0	1	38		GRA1	3	134		Gra 1	4	9		Gra 1	4	2.00
Gra 0	1	29		GRA1	3	142		Gra 1	4	10		Gra 1	4	1.00
Gra 0	1	30		GRA1	3	142		Gra 2	1	7		Gra 2	1	1.00
Gra 0	1	32		GRA1	4	134		Gra 2	1	12		Gra 2	1	1.67
Gra 0	2	25		GRA1	4	138		Gra 2	1	10		Gra 2	1	1.33
Gra 0	2	28		GRA1	4	142		Gra 2	1	9		Gra 2	1	1.00
Gra 0	2	28		GRA1	4	148		Gra 2	2	5		Gra 2	2	1.00
Gra 0	2	23		GRA2	1	148		Gra 2	2	6		Gra 2	2	1.50
Gra 0	3	30		GRA2	1	142		Gra 2	2	7		Gra 2	2	1.17
Gra 0	3	24		GRA2	1	142		Gra 2	3	5		Gra 2	3	1.00
Gra 0	3	38		GRA2	1	148		Gra 2	3	10		Gra 2	3	5.50
Gra 0	3	36		GRA2	2	148		Gra 2	3	6		Gra 2	3	1.17
Gra 0	4	30		GRA2	2	143		Gra 2	3	9		Gra 2	3	1.33
Gra 0	4	27		GRA2	2	134		Gra 2	4	13		Gra 2	4	6.00
Gra 0	4	16		GRA2	3	142		Gra 2	4	10		Gra 2	4	21.33
Gra 0	4	21		GRA2	3	142		Gra 2	4	8		Gra 2	4	1.17
Gra 1	1	20		GRA2	3	148		Gra 2	4	21		Gra 2	4	17.33
Gra 1	1	23		GRA2	3	142		Gra 3	1	4		Gra 3	1	1.00
Gra 1	1	26		GRA2	4	142		Gra 3	1	9		Gra 3	1	1.00
Gra 1	1	23		GRA2	4	134		Gra 3	1	10		Gra 3	1	1.33
Gra 1	2	23		GRA2	4	148		Gra 3	2	10		Gra 3	2	1.67
Gra 1	2	26		GRA2	4	134		Gra 3	2	11		Gra 3	2	1.33
Gra 1	2	28		GRA3	1	142		Gra 3	2	12		Gra 3	2	1.33
Gra 1	2	12		GRA3	1	148		Gra 3	2	25		Gra 3	2	22.67
Gra 1	3	28		GRA3	1	138		Gra 3	2	11		Gra 3	2	4.00
Gra 1	3	19		GRA3	2	142		Gra 3	3	7		Gra 3	3	1.50
Gra 1	3	13		GRA3	2	142		Gra 3	3	7		Gra 3	3	1.50
Gra 1	4	41		GRA3	2	142		Gra 3	3	11		Gra 3	3	7.33
Gra 1	4	25		GRA3	2	130		Gra 3	3	10		Gra 3	3	1.50
Gra 1	4	21		GRA3	2	134		Gra 3	4	13		Gra 3	4	4.33
Gra 1	4	19		GRA3	3	142		Gra 3	4	12		Gra 3	4	1.67
Gra 2	1	36		GRA3	3	142		Gra 3	4	14		Gra 3	4	1.67
Gra 2	1	47		GRA3	3	142		Gra 3	4	10		Gra 3	4	1.83
Gra 2	1	38		GRA3	3	138		Gra 4	1	11		Gra 4	1	1.83
Gra 2	1	12		GRA3	4	138		Gra 4	1	11		Gra 4	1	4.33
Gra 2	2	34		GRA3	4	142		Gra 4	1	9		Gra 4	1	1.33
Gra 2	2	37		GRA3	4	142		Gra 4	1	7		Gra 4	1	1.67
Gra 2	2	22		GRA3	4	134		Gra 4	2	9		Gra 4	2	1.17
Gra 2	3	44		GRA4	1	142		Gra 4	2	9		Gra 4	2	1.17
Gra 2	3	35		GRA4	1	142		Gra 4	2	3		Gra 4	2	1.00
Gra 2	3	27		GRA4	1	142		Gra 4	2	10		Gra 4	2	1.50
Gra 2	3	35		GRA4	1	142		Gra 4	3	19		Gra 4	3	23.33
Gra 2	4	27		GRA4	2	138		Gra 4	3	9		Gra 4	3	5.50
Gra 2	4	39		GRA4	2	142		Gra 4	3	7		Gra 4	3	1.17
Gra 2	4	36		GRA4	2	148		Gra 4	4	15		Gra 4	4	3.17
Gra 2	4	42		GRA4	2	142		Gra 4	4	14		Gra 4	4	3.33
Gra 3	1	30		GRA4	3	124		Gra 4	4	16		Gra 4	4	15.17
Gra 3	1	34		GRA4	3	138		Gra 4	4	9		Gra 4	4	2.17
Gra 3	1	34		GRA4	3	142		Gra 5	1	16		Gra 5	1	2.00
Gra 3	2	34		GRA4	4	138		Gra 5	1	10		Gra 5	1	1.00
Gra 3	2	25		GRA4	4	142		Gra 5	1	9		Gra 5	1	1.00
Gra 3	2	40		GRA4	4	134		Gra 5	2	11		Gra 5	2	1.50
Gra 3	2	44		GRA4	4	142		Gra 5	2	7		Gra 5	2	1.67
Gra 3	2	42		GRA5	1	134		Gra 5	2	23		Gra 5	2	21.33
Gra 3	3	43		GRA5	1	142		Gra 5	2	6		Gra 5	2	1.33
Gra 3	3	37		GRA5	1	148		Gra 5	3	18		Gra 5	3	23.83
Gra 3	3	37		GRA5	2	134		Gra 5	3	13		Gra 5	3	9.33
Gra 3	3	37		GRA5	2	148		Gra 5	3	9		Gra 5	3	1.50
Gra 3	4	24		GRA5	2	134		Gra 5	3	13		Gra 5	3	2.33
Gra 3	4	27		GRA5	2	134		Gra 5	4	8		Gra 5	4	1.17
Gra 3	4	31		GRA5	3	134		Gra 5	4	9		Gra 5	4	2.50
Gra 3	4	27		GRA5	3	134		Gra 5	4	13		Gra 5	4	2.33
Gra 4	1	31		GRA5	3	138		Gra 5	4	9		Gra 5	4	1.00
Gra 4	1	32		GRA5	3	142		Gra 6	1	11		Gra 6	1	2.17
Gra 4	1	24		GRA5	4	142		Gra 6	1	9		Gra 6	1	2.00
Gra 4	1	26		GRA5	4	134		Gra 6	1	14		Gra 6	1	2.17
Gra 4	2	32		GRA5	4	142		Gra 6	1	13		Gra 6	1	1.83
Gra 4	2	40		GRA5	4	142		Gra 6	2	8		Gra 6	2	1.67
Gra 4	2	34		GRA6	1	142		Gra 6	2	3		Gra 6	2	1.33
Gra 4	2	33		GRA6	1	138		Gra 6	2	12		Gra 6	2	4.83
Gra 4	3	45		GRA6	1	142		Gra 6	2	12		Gra 6	2	2.50
Gra 4	3	23		GRA6	1	142		Gra 6	3	7		Gra 6	3	1.33
Gra 4	3	15		GRA6	2	142		Gra 6	3	2		Gra 6	3	1.00
Gra 4	4	35		GRA6	2	148		Gra 6	3	8		Gra 6	3	1.00
Gra 4	4	25		GRA6	2	134		Gra 6	3	7		Gra 6	3	1.50
Gra 4	4	25		GRA6	2	134		Gra 6	4	8		Gra 6	4	1.00
Gra 4	4	25		GRA6	3	142		Gra 6	4	11		Gra 6	4	3.33
Gra 5	1	46		GRA6	3	156		Gra 6	4	17		Gra 6	4	6.33
Gra 5	1	40		GRA6	3	148		Gra 6	4	12		Gra 6	4	3.50
Gra 5	1	37		GRA6	3	142		Gra 7	1	16		Gra 7	1	3.33
Gra 5	2	40		GRA6	4	142		Gra 7	1	10		Gra 7	1	1.00
Gra 5	2	33		GRA6	4	142		Gra 7	1	11		Gra 7	1	1.50
Gra 5	2	45		GRA6	4	142		Gra 7	1	11		Gra 7	1	1.50
Gra 5	2	34		GRA6	4	134		Gra 7	2	9		Gra 7	2	3.67
Gra 5	3	46		GRA7	1	142		Gra 7	2	9		Gra 7	2	1.17
Gra 5	3	37		GRA7	1	142		Gra 7	2	4		Gra 7	2	1.00
Gra 5	3	39		GRA7	1	134		Gra 7	2	5		Gra 7	2	1.00
Gra 5	3	39		GRA7	1	138		Gra 7	3	10		Gra 7	3	1.50
Gra 5	4	26		GRA7	2	134		Gra 7	3	21		Gra 7	3	34.67
Gra 5	4	28		GRA7	2	148		Gra 7	3	12		Gra 7	3	7.17
Gra 5	4	40		GRA7	2	148		Gra 7	3	13		Gra 7	3	1.50
Gra 5	4	38		GRA7	2	142		Gra 7	4	13		Gra 7	4	1.50
Gra 6	1	41		GRA7	3	138		Gra 7	4	18		Gra 7	4	5.00
Gra 6	1	32		GRA7	3	134		Gra 7	4	11		Gra 7	4	2.17
Gra 6	1	40		GRA7	3	142		Gra 7	4	12		Gra 7	4	1.33
Gra 6	1	37		GRA7	3	142		Gra 8	1	16		Gra 8	1	3.00
Gra 6	2	34		GRA7	4	134		Gra 8	1	12		Gra 8	1	1.33
Gra 6	2	40		GRA7	4	142		Gra 8	1	11		Gra 8	1	1.50
Gra 6	2	38		GRA7	4	148		Gra 8	1	10		Gra 8	1	1.00
Gra 6	2	44		GRA7	4	134		Gra 8	2	10		Gra 8	2	7.00
Gra 6	3	28		GRA8	1	138		Gra 8	2	10		Gra 8	2	1.00
Gra 6	3	34		GRA8	1	142		Gra 8	2	18		Gra 8	2	8.17
Gra 6	3	32		GRA8	1	138		Gra 8	2	15		Gra 8	2	4.00
Gra 6	3	33		GRA8	1	142		Gra 8	3	12		Gra 8	3	4.00
Gra 6	4	46		GRA8	2	142		Gra 8	3	8		Gra 8	3	1.33
Gra 6	4	42		GRA8	2	148		Gra 8	3	6		Gra 8	3	1.67
Gra 6	4	33		GRA8	2	134		Gra 8	3	10		Gra 8	3	2.17
Gra 6	4	39		GRA8	2	134		Gra 8	4	10		Gra 8	4	1.00
Gra 7	1	41		GRA8	3	134		Gra 8	4	12		Gra 8	4	2.50
Gra 7	1	40		GRA8	3	134		Gra 8	4	7		Gra 8	4	3.33
Gra 7	1	44		GRA8	3	142		Gra 8	4	11		Gra 8	4	1.17
Gra 7	1	39		GRA8	3	134		Gra 9	1	14		Gra 9	1	1.33
Gra 7	2	30		GRA8	4	142		Gra 9	1	3		Gra 9	1	1.00
Gra 7	2	33		GRA8	4	134		Gra 9	1	13		Gra 9	1	2.00
Gra 7	2	32		GRA8	4	144		Gra 9	1	1		Gra 9	1	1.00
Gra 7	2	32		GRA8	4	142		Gra 9	2	11		Gra 9	2	2.83
Gra 7	3	37		GRA9	1	142		Gra 9	2	9		Gra 9	2	1.00
Gra 7	3	40		GRA9	1	156		Gra 9	2	10		Gra 9	2	22.33
Gra 7	3	43		GRA9	1	142		Gra 9	2	10		Gra 9	2	1.50
Gra 7	3	39		GRA9	1	142		Gra 9	3	4		Gra 9	3	1.00
Gra 7	4	40		GRA9	2	134		Gra 9	3	20		Gra 9	3	9.83
Gra 7	4	41		GRA9	2	143		Gra 9	3	9		Gra 9	3	1.83
Gra 7	4	33		GRA9	2	134		Gra 9	3	13		Gra 9	3	1.67
Gra 7	4	32		GRA9	2	138		Gra 9	4	10		Gra 9	4	2.17
Gra 8	1	31		GRA9	3	142		Gra 9	4	9		Gra 9	4	1.50
Gra 8	1	35		GRA9	3	134		Gra 9	4	9		Gra 9	4	2.00
Gra 8	1	27		GRA9	3	142		Leo 1	1	14		Leo 1	1	13.00
Gra 8	1	31		GRA9	3	142		Leo 1	1	21		Leo 1	1	5.83
Gra 8	2	24		GRA9	4	134		Leo 1	1	19		Leo 1	1	4.33
Gra 8	2	34		GRA9	4	134		Leo 1	1	4		Leo 1	1	1.00
Gra 8	2	38		GRA9	4	142		Leo 1	2	6		Leo 1	2	2.00
Gra 8	2	28		LEO1	1	156		Leo 1	2	12		Leo 1	2	2.83
Gra 8	3	33		LEO1	1	156		Leo 1	2	11		Leo 1	2	1.33
Gra 8	3	36		LEO1	1	156		Leo 1	2	18		Leo 1	2	9.17
Gra 8	3	18		LEO1	1	156		Leo 1	3	3		Leo 1	3	30.00
Gra 8	3	31		LEO1	2	156		Leo 1	3	8		Leo 1	3	2.00
Gra 8	4	23		LEO1	2	156		Leo 1	3	10		Leo 1	3	1.67
Gra 8	4	38		LEO1	2	159		Leo 1	3	3		Leo 1	3	1.00
Gra 8	4	25		LEO1	2	156		Leo 1	4	7		Leo 1	4	1.00
Gra 8	4	40		LEO1	3	163		Leo 1	4	9		Leo 1	4	1.00
Gra 9	1	27		LEO1	3	156		Leo 1	4	1		Leo 1	4	2.00
Gra 9	1	24		LEO1	3	156		Leo 1	4	10		Leo 1	4	3.17
Gra 9	1	36		LEO1	3	163		Leo 2	1	3		Leo 2	1	1.67
Gra 9	2	30		LEO1	4	156		Leo 2	1	5		Leo 2	1	1.40
Gra 9	2	37		LEO1	4	156		Leo 2	1	5		Leo 2	1	1.40
Gra 9	2	38		LEO1	4	156		Leo 2	1	6		Leo 2	1	1.33
Gra 9	2	34		LEO1	4	142		Leo 2	2	9		Leo 2	2	4.67
Gra 9	3	17		LEO2	1	171		Leo 2	2	11		Leo 2	2	22.33
Gra 9	3	29		LEO2	1	171		Leo 2	2	13		Leo 2	2	9.00
Gra 9	3	33		LEO2	1	163		Leo 2	3	9		Leo 2	3	15.67
Gra 9	4	26		LEO2	1	163		Leo 2	3	1		Leo 2	3	1.00
Gra 9	4	34		LEO2	2	159		Leo 2	3	8		Leo 2	3	3.00
Gra 9	4	29		LEO2	2	163		Leo 2	3	6		Leo 2	3	1.00
Leo 1	1	35		LEO2	2	156		Leo 2	4	6		Leo 2	4	1.00
Leo 1	1	32		LEO2	3	163		Leo 2	4	5		Leo 2	4	1.60
Leo 1	1	32		LEO2	3	159		Leo 2	4	2		Leo 2	4	1.00
Leo 1	2	20		LEO2	3	142		Leo 2	4	7		Leo 2	4	1.17
Leo 1	2	36		LEO2	3	171		Leo 3	1	10		Leo 3	1	1.83
Leo 1	2	32		LEO2	4	163		Leo 3	1	5		Leo 3	1	1.80
Leo 1	2	23		LEO2	4	163		Leo 3	1	20		Leo 3	1	6.17
Leo 1	3	22		LEO2	4	171		Leo 3	1	7		Leo 3	1	2.67
Leo 1	3	27		LEO2	4	163		Leo 3	2	14		Leo 3	2	2.00
Leo 1	3	27		LEO3	1	142		Leo 3	2	10		Leo 3	2	2.33
Leo 1	3	12		LEO3	1	142		Leo 3	2	11		Leo 3	2	3.33
Leo 1	4	26		LEO3	1	142		Leo 3	2	7		Leo 3	2	1.67
Leo 1	4	36		LEO3	1	142		Leo 3	3	10		Leo 3	3	1.67
Leo 1	4	39		LEO3	2	138		Leo 3	3	6		Leo 3	3	1.00
Leo 2	1	23		LEO3	2	142		Leo 3	3	6		Leo 3	3	1.00
Leo 2	1	31		LEO3	2	134		Leo 3	4	8		Leo 3	4	1.00
Leo 2	1	19		LEO3	2	142		Leo 3	4	10		Leo 3	4	2.17
Leo 2	1	21		LEO3	3	142		Leo 3	4	9		Leo 3	4	1.00
Leo 2	2	44		LEO3	3	142		Leo 3	4	14		Leo 3	4	2.17
Leo 2	2	30		LEO3	3	142		Leo 4	1	14		Leo 4	1	2.00
Leo 2	2	24		LEO3	3	148		Leo 4	1	7		Leo 4	1	1.50
Leo 2	2	22		LEO3	4	148		Leo 4	1	9		Leo 4	1	1.50
Leo 2	3	20		LEO3	4	142		Leo 4	1	6		Leo 4	1	1.00
Leo 2	3	13		LEO3	4	152		Leo 4	2	9		Leo 4	2	1.00
Leo 2	3	19		LEO3	4	142		Leo 4	2	10		Leo 4	2	1.00
Leo 2	3	27		LEO4	1	156		Leo 4	2	18		Leo 4	2	4.33
Leo 2	4	15		LEO4	1	156		Leo 4	2	13		Leo 4	2	2.17
Leo 2	4	18		LEO4	1	156		Leo 4	3	14		Leo 4	3	3.33
Leo 2	4	14		LEO4	1	156		Leo 4	3	13		Leo 4	3	1.67
Leo 2	4	32		LEO4	2	156		Leo 4	3	10		Leo 4	3	1.00
Leo 3	1	36		LEO4	2	156		Leo 4	3	8		Leo 4	3	1.33
Leo 3	1	19		LEO4	2	152		Leo 4	4	3		Leo 4	4	1.00
Leo 3	1	51		LEO4	2	148		Leo 4	4	2		Leo 4	4	1.00
Leo 3	1	34		LEO4	3	152		Leo 4	4	4		Leo 4	4	1.00
Leo 3	2	42		LEO4	3	156		Leo 4	4	10		Leo 4	4	1.00
Leo 3	2	34		LEO4	3	156		Leo 6	1	10		Leo 6	1	1.33
Leo 3	2	28		LEO4	3	156		Leo 6	1	14		Leo 6	1	1.83
Leo 3	2	22		LEO4	4	156		Leo 6	1	14		Leo 6	1	6.50
Leo 3	3	18		LEO4	4	163		Leo 6	1	11		Leo 6	1	2.83
Leo 3	3	30		LEO4	4	163		Leo 6	2	17		Leo 6	2	2.83
Leo 3	3	35		LEO4	4	156		Leo 6	2	8		Leo 6	2	1.33
Leo 3	3	28		LEO6	1	163		Leo 6	2	11		Leo 6	2	1.50
Leo 3	4	26		LEO6	1	148		Leo 6	2	12		Leo 6	2	1.50
Leo 3	4	33		LEO6	1	156		Leo 6	3	1		Leo 6	3	1.00
Leo 3	4	30		LEO6	1	148		Leo 6	3	12		Leo 6	3	1.50
Leo 3	4	42		LEO6	2	148		Leo 6	3	5		Leo 6	3	1.00
Leo 4	1	40		LEO6	2	148		Leo 6	4	14		Leo 6	4	1.67
Leo 4	1	35		LEO6	2	148		Leo 6	4	5		Leo 6	4	1.20
Leo 4	1	25		LEO6	2	148		Leo 6	4	16		Leo 6	4	7.67
Leo 4	1	22		LEO6	3	156		Leo 6	4	14		Leo 6	4	4.17
Leo 4	2	29		LEO6	3	156		Leo 7	1	1		Leo 7	1	8.00
Leo 4	2	29		LEO6	3	163		Leo 7	2	1		Leo 7	2	1.00
Leo 4	2	30		LEO6	4	152		Leo 7	2	1		Leo 7	2	1.00
Leo 4	2	36		LEO6	4	156		Leo 7	3	2		Leo 7	3	1.50
Leo 4	3	42		LEO6	4	152		Leo 7	3	1		Leo 7	3	2.00
Leo 4	3	30		LEO6	4	148		Leo 7	4	1		Leo 7	4	4.00
Leo 4	3	38		LEO7	1	171		Leo 8	1	6		Leo 8	1	1.17
Leo 4	3	34		LEO7	2	156		Leo 8	1	5		Leo 8	1	1.20
Leo 4	4	27		LEO7	2	171		Leo 8	1	7		Leo 8	1	1.00
Leo 4	4	31		LEO7	3	134		Leo 8	2	11		Leo 8	2	1.83
Leo 4	4	27		LEO7	3	148		Leo 8	2	10		Leo 8	2	2.50
Leo 4	4	34		LEO7	4	156		Leo 8	2	8		Leo 8	2	4.33
Leo 6	1	41		LEO8	1	142		Leo 8	2	6		Leo 8	2	2.17
Leo 6	1	39		LEO8	1	142		Leo 8	3	4		Leo 8	3	1.00
Leo 6	1	35		LEO8	1	143		Leo 8	3	16		Leo 8	3	22.17
Leo 6	1	27		LEO8	2	142		Leo 8	3	8		Leo 8	3	1.33
Leo 6	2	42		LEO8	2	138		Leo 8	4	7		Leo 8	4	1.67
Leo 6	2	32		LEO8	2	134		Leo 8	4	5		Leo 8	4	1.80
Leo 6	2	29		LEO8	2	142		Leo 8	4	8		Leo 8	4	1.17
Leo 6	2	39		LEO8	3	142		Leo 8	4	11		Leo 8	4	3.00
Leo 6	3	27		LEO8	3	142		Leo 9	1	2		Leo 9	1	1.00
Leo 6	3	30		LEO8	3	148		Leo 9	1	11		Leo 9	1	1.50
Leo 6	3	46		LEO8	4	142		Leo 9	1	1		Leo 9	1	3.00
Leo 6	4	36		LEO8	4	142		Leo 9	1	3		Leo 9	1	1.00
Leo 6	4	23		LEO8	4	142		Leo 9	2	15		Leo 9	2	4.50
Leo 6	4	43		LEO8	4	142		Leo 9	2	11		Leo 9	2	16.67
Leo 6	4	34		LEO9	1	171		Leo 9	2	12		Leo 9	2	1.67
Leo 7	1	1		LEO9	1	156		Leo 9	2	13		Leo 9	2	6.33
Leo 7	1	7		LEO9	1	163		Leo 9	3	7		Leo 9	3	1.83
Leo 7	1	3		LEO9	1	163		Leo 9	3	3		Leo 9	3	1.00
Leo 7	1	4		LEO9	2	156		Leo 9	3	7		Leo 9	3	1.67
Leo 7	2	3		LEO9	2	163		Leo 9	3	9		Leo 9	3	1.83
Leo 7	2	3		LEO9	2	156		Leo 9	4	5		Leo 9	4	1.60
Leo 7	2	5		LEO9	2	156		Leo 9	4	11		Leo 9	4	1.83
Leo 7	3	5		LEO9	3	156		Leo 9	4	12		Leo 9	4	5.00
Leo 7	3	4		LEO9	3	156		Leo 9	4	6		Leo 9	4	1.50
Leo 7	4	6		LEO9	3	156		Leo 10	1	19		Leo 10	1	5.33
Leo 7	4	4		LEO9	3	156		Leo 10	1	10		Leo 10	1	1.67
Leo 8	1	15		LEO9	4	156		Leo 10	1	7		Leo 10	1	4.33
Leo 8	1	26		LEO9	4	156		Leo 10	1	5		Leo 10	1	1.00
Leo 8	1	35		LEO9	4	156		Leo 10	2	9		Leo 10	2	3.33
Leo 8	2	26		LEO9	4	152		Leo 10	2	8		Leo 10	2	2.67
Leo 8	2	31		LEO10	1	156		Leo 10	3	8		Leo 10	3	4.00
Leo 8	2	21		LEO10	1	156		Leo 10	3	3		Leo 10	3	1.00
Leo 8	2	24		LEO10	1	156		Leo 10	3	5		Leo 10	3	2.60
Leo 8	3	22		LEO10	1	163		Leo 10	3	4		Leo 10	3	2.50
Leo 8	3	43		LEO10	2	156		Leo 10	4	10		Leo 10	4	3.50
Leo 8	3	23		LEO10	2	156		Leo 10	4	3		Leo 10	4	1.00
Leo 8	4	22		LEO10	3	156		Leo 10	4	2		Leo 10	4	3.00
Leo 8	4	33		LEO10	3	163		Leo 10	4	6		Leo 10	4	41.50
Leo 8	4	36		LEO10	3	156		Leo 11	1	7		Leo 11	1	1.67
Leo 8	4	34		LEO10	3	156		Leo 11	1	14		Leo 11	1	5.67
Leo 9	1	28		LEO10	4	156		Leo 11	1	1		Leo 11	1	3.00
Leo 9	1	36		LEO10	4	171		Leo 11	2	10		Leo 11	2	1.00
Leo 9	1	29		LEO10	4	156		Leo 11	2	6		Leo 11	2	36.17
Leo 9	2	37		LEO10	4	156		Leo 11	2	9		Leo 11	2	2.00
Leo 9	2	27		LEO11	1	156		Leo 11	2	6		Leo 11	2	1.00
Leo 9	2	40		LEO11	1	156		Leo 11	3	1		Leo 11	3	1.00
Leo 9	2	16		LEO11	1	163		Leo 11	3	5		Leo 11	3	1.00
Leo 9	3	24		LEO11	2	156		Leo 11	3	13		Leo 11	3	2.00
Leo 9	3	37		LEO11	2	156		Leo 11	3	6		Leo 11	3	1.67
Leo 9	3	22		LEO11	2	156		Leo 11	4	8		Leo 11	4	2.00
Leo 9	3	33		LEO11	2	156		Leo 11	4	6		Leo 11	4	1.17
Leo 9	4	19		LEO11	3	163		Leo 11	4	13		Leo 11	4	4.00
Leo 9	4	31		LEO11	3	163		Mar 1	1	5		Mar 1	1	1.40
Leo 9	4	25		LEO11	3	156		Mar 1	1	1		Mar 1	1	1.00
Leo 9	4	20		LEO11	3	156		Mar 1	1	1		Mar 1	1	1.00
Leo 10	1	22		LEO11	4	156		Mar 1	2	3		Mar 1	2	2.00
Leo 10	1	26		LEO11	4	163		Mar 1	3	1		Mar 1	3	1.00
Leo 10	1	8		LEO11	4	156		Mar 1	3	2		Mar 1	3	2.00
Leo 10	1	15		LEO11	4	156		Mar 1	4	5		Mar 1	4	1.00
Leo 10	2	12		MAR1	1	138		Mar 1	4	2		Mar 1	4	2.50
Leo 10	2	8		MAR1	1	148		Mar 1	4	2		Mar 1	4	1.50
Leo 10	2	10		MAR1	1	142		Mar 2	1	9		Mar 2	1	2.17
Leo 10	2	19		MAR1	1	115		Mar 2	1	7		Mar 2	1	1.00
Leo 10	3	12		MAR1	2	124		Mar 2	1	9		Mar 2	1	1.33
Leo 10	3	12		MAR1	3	130		Mar 2	1	9		Mar 2	1	1.17
Leo 10	3	10		MAR1	4	124		Mar 2	2	10		Mar 2	2	3.00
Leo 10	3	10		MAR1	4	130		Mar 2	2	13		Mar 2	2	1.83
Leo 10	4	10		MAR1	4	124		Mar 2	2	8		Mar 2	2	2.17
Leo 10	4	8		MAR2	1	119		Mar 2	2	8		Mar 2	2	2.00
Leo 10	4	15		MAR2	1	134		Mar 2	3	8		Mar 2	3	6.17
Leo 11	1	26		MAR2	1	134		Mar 2	3	14		Mar 2	3	9.83
Leo 11	1	25		MAR2	1	130		Mar 2	3	8		Mar 2	3	1.33
Leo 11	1	9		MAR2	2	124		Mar 2	3	7		Mar 2	3	1.67
Leo 11	2	29		MAR2	2	130		Mar 2	4	9		Mar 2	4	2.67
Leo 11	2	27		MAR2	2	134		Mar 2	4	7		Mar 2	4	2.67
Leo 11	2	21		MAR2	2	124		Mar 2	4	9		Mar 2	4	1.17
Leo 11	2	21		MAR2	3	124		Mar 2	4	9		Mar 2	4	2.00
Leo 11	3	10		MAR2	3	124		Mar 3	1	8		Mar 3	1	1.50
Leo 11	3	21		MAR2	3	134		Mar 3	1	1		Mar 3	1	1.00
Leo 11	3	30		MAR2	3	134		Mar 3	1	4		Mar 3	1	1.75
Leo 11	3	24		MAR2	4	134		Mar 3	1	4		Mar 3	1	1.00
Leo 11	4	20		MAR2	4	124		Mar 3	2	5		Mar 3	2	1.20
Leo 11	4	15		MAR2	4	134		Mar 3	2	3		Mar 3	2	1.00
Leo 11	4	11		MAR2	4	124		Mar 3	2	3		Mar 3	2	2.33
Leo 11	4	23		MAR3	1	134		Mar 3	2	5		Mar 3	2	2.80
Mar 1	1	9		MAR3	1	130		Mar 3	3	1		Mar 3	3	1.00
Mar 1	1	2		MAR3	1	134		Mar 3	3	1		Mar 3	3	2.00
Mar 1	1	4		MAR3	1	138		Mar 3	3	1		Mar 3	3	1.00
Mar 1	1	2		MAR3	2	142		Mar 3	3	5		Mar 3	3	1.00
Mar 1	1	2		MAR3	2	142		Mar 3	4	4		Mar 3	4	1.50
Mar 1	2	5		MAR3	2	130		Mar 3	4	6		Mar 3	4	1.33
Mar 1	2	6		MAR3	2	124		Mar 3	4	3		Mar 3	4	1.33
Mar 1	3	2		MAR3	3	142		Mar 3	4	3		Mar 3	4	8.33
Mar 1	3	3		MAR3	3	142		Mar 4	1	11		Mar 4	1	1.33
Mar 1	3	5		MAR3	3	142		Mar 4	1	3		Mar 4	1	2.67
Mar 1	4	3		MAR3	3	134		Mar 4	1	10		Mar 4	1	3.50
Mar 1	4	8		MAR3	4	134		Mar 4	1	11		Mar 4	1	23.50
Mar 1	4	3		MAR3	4	134		Mar 4	2	9		Mar 4	2	1.33
Mar 1	4	2		MAR3	4	134		Mar 4	2	5		Mar 4	2	2.20
Mar 2	1	34		MAR3	4	134		Mar 4	2	13		Mar 4	2	7.00
Mar 2	1	27		MAR4	1	142		Mar 4	3	21		Mar 4	3	101.00
Mar 2	1	25		MAR4	1	142		Mar 4	3	4		Mar 4	3	1.75
Mar 2	1	20		MAR4	1	138		Mar 4	3	16		Mar 4	3	12.00
Mar 2	2	35		MAR4	1	142		Mar 4	3	14		Mar 4	3	8.00
Mar 2	2	24		MAR4	2	148		Mar 4	4	17		Mar 4	4	14.17
Mar 2	2	27		MAR4	2	148		Mar 4	4	9		Mar 4	4	1.33
Mar 2	2	25		MAR4	2	142		Mar 4	4	11		Mar 4	4	17.17
Mar 2	3	22		MAR4	3	142		Mar 4	4	7		Mar 4	4	1.00
Mar 2	3	38		MAR4	3	148		Mar 5	1	10		Mar 5	1	1.00
Mar 2	3	15		MAR4	3	142		Mar 5	1	6		Mar 5	1	1.67
Mar 2	3	29		MAR4	3	142		Mar 5	1	8		Mar 5	1	1.67
Mar 2	4	13		MAR4	4	142		Mar 5	1	9		Mar 5	1	2.33
Mar 2	4	24		MAR4	4	148		Mar 5	2	11		Mar 5	2	3.83
Mar 2	4	21		MAR4	4	142		Mar 5	2	4		Mar 5	2	1.00
Mar 2	4	26		MAR4	4	148		Mar 5	2	9		Mar 5	2	1.00
Mar 3	1	17		MAR5	1	134		Mar 5	2	9		Mar 5	2	2.17
Mar 3	1	17		MAR5	1	134		Mar 5	3	4		Mar 5	3	1.75
Mar 3	1	11		MAR5	1	134		Mar 5	3	9		Mar 5	3	2.33
Mar 3	1	11		MAR5	1	134		Mar 5	3	8		Mar 5	3	14.17
Mar 3	2	16		MAR5	2	124		Mar 5	3	7		Mar 5	3	1.50
Mar 3	2	9		MAR5	2	142		Mar 5	4	6		Mar 5	4	1.17
Mar 3	2	17		MAR5	2	134		Mar 5	4	10		Mar 5	4	1.33
Mar 3	2	11		MAR5	2	130		Mar 5	4	6		Mar 5	4	1.00
Mar 3	3	15		MAR5	3	138		Mar 5	4	2		Mar 5	4	2.00
Mar 3	3	16		MAR5	3	124		Mar 6	1	11		Mar 6	1	2.67
Mar 3	3	10		MAR5	3	124		Mar 6	1	7		Mar 6	1	1.50
Mar 3	3	22		MAR5	3	134		Mar 6	1	9		Mar 6	1	1.00
Mar 3	4	10		MAR5	4	134		Mar 6	1	2		Mar 6	1	1.50
Mar 3	4	11		MAR5	4	134		Mar 6	2	13		Mar 6	2	5.33
Mar 3	4	14		MAR5	4	142		Mar 6	2	13		Mar 6	2	13.00
Mar 3	4	17		MAR5	4	134		Mar 6	2	25		Mar 6	2	38.33
Mar 4	1	40		MAR6	1	134		Mar 6	2	7		Mar 6	2	1.67
Mar 4	1	23		MAR6	1	142		Mar 6	3	21		Mar 6	3	42.50
Mar 4	1	33		MAR6	1	142		Mar 6	3	15		Mar 6	3	9.67
Mar 4	1	26		MAR6	1	148		Mar 6	3	12		Mar 6	3	2.33
Mar 4	2	20		MAR6	2	134		Mar 6	3	5		Mar 6	3	1.00
Mar 4	2	10		MAR6	2	134		Mar 6	4	22		Mar 6	4	6.50
Mar 4	2	37		MAR6	2	134		Mar 6	4	14		Mar 6	4	2.67
Mar 4	3	32		MAR6	2	134		Mar 6	4	9		Mar 6	4	3.83
Mar 4	3	37		MAR6	3	142		Mar 6	4	12		Mar 6	4	2.83
Mar 4	3	34		MAR6	3	142		Mar 7	1	13		Mar 7	1	3.33
Mar 4	3	42		MAR6	3	134		Mar 7	1	12		Mar 7	1	2.50
Mar 4	4	36		MAR6	3	148		Mar 7	1	6		Mar 7	1	1.33
Mar 4	4	25		MAR6	4	142		Mar 7	1	8		Mar 7	1	1.50
Mar 4	4	30		MAR6	4	142		Mar 7	2	9		Mar 7	2	2.67
Mar 4	4	34		MAR6	4	134		Mar 7	2	9		Mar 7	2	1.50
Mar 5	1	29		MAR6	4	134		Mar 7	2	10		Mar 7	2	2.67
Mar 5	1	21		MAR7	1	104		Mar 7	2	6		Mar 7	2	1.00
Mar 5	1	24		MAR7	1	112		Mar 7	3	8		Mar 7	3	1.33
Mar 5	1	24		MAR7	1	124		Mar 7	3	7		Mar 7	3	2.83
Mar 5	2	30		MAR7	1	104		Mar 7	3	10		Mar 7	3	1.50
Mar 5	2	30		MAR7	2	112		Mar 7	3	5		Mar 7	3	1.00
Mar 5	2	33		MAR7	2	124		Mar 7	4	10		Mar 7	4	2.67
Mar 5	2	22		MAR7	2	124		Mar 7	4	10		Mar 7	4	7.33
Mar 5	3	36		MAR7	2	124		Mar 7	4	8		Mar 7	4	2.17
Mar 5	3	35		MAR7	3	112		Mar 7	4	3		Mar 7	4	11.67
Mar 5	3	30		MAR7	3	108		Mar 8	1	4		Mar 8	1	1.00
Mar 5	4	25		MAR7	3	124		Mar 8	1	7		Mar 8	1	1.50
Mar 5	4	21		MAR7	3	124		Mar 8	1	4		Mar 8	1	1.00
Mar 5	4	22		MAR7	4	112		Mar 8	1	1		Mar 8	1	1.00
Mar 5	4	21		MAR7	4	112		Mar 8	2	8		Mar 8	2	3.17
Mar 6	1	42		MAR7	4	124		Mar 8	2	10		Mar 8	2	1.00
Mar 6	1	30		MAR7	4	124		Mar 8	2	1		Mar 8	2	1.00
Mar 6	1	41		MAR8	1	138		Mar 8	2	3		Mar 8	2	2.00
Mar 6	1	25		MAR8	1	134		Mar 8	3	5		Mar 8	3	1.20
Mar 6	2	35		MAR8	1	142		Mar 8	3	1		Mar 8	3	1.00
Mar 6	2	36		MAR8	1	148		Mar 8	3	4		Mar 8	3	1.00
Mar 6	2	36		MAR8	2	124		Mar 8	4	7		Mar 8	4	9.83
Mar 6	2	28		MAR8	2	124		Mar 8	4	4		Mar 8	4	1.75
Mar 6	3	43		MAR8	2	124		Mar 10	1	9		Mar 10	1	3.00
Mar 6	3	43		MAR8	3	124		Mar 10	1	11		Mar 10	1	2.67
Mar 6	3	41		MAR8	3	124		Mar 10	1	9		Mar 10	1	2.83
Mar 6	3	36		MAR8	4	124		Mar 10	1	7		Mar 10	1	1.33
Mar 6	4	39		MAR8	4	124		Mar 10	2	1		Mar 10	2	1.00
Mar 6	4	32		MAR10	1	119		Mar 10	2	9		Mar 10	2	1.83
Mar 6	4	42		MAR10	1	124		Mar 10	2	10		Mar 10	2	2.50
Mar 6	4	38		MAR10	1	124		Mar 10	3	8		Mar 10	3	6.17
Mar 7	1	40		MAR10	1	134		Mar 10	3	3		Mar 10	3	1.00
Mar 7	1	32		MAR10	2	134		Mar 10	3	10		Mar 10	3	2.50
Mar 7	1	16		MAR10	2	130		Mar 10	3	11		Mar 10	3	2.17
Mar 7	1	28		MAR10	2	124		Mar 10	4	8		Mar 10	4	1.17
Mar 7	2	19		MAR10	3	124		Mar 10	4	14		Mar 10	4	2.50
Mar 7	2	36		MAR10	3	124		Mar 10	4	10		Mar 10	4	14.17
Mar 7	2	29		MAR10	3	124		Mar 10	4	8		Mar 10	4	1.50
Mar 7	2	36		MAR10	3	124		Mar 11	1	16		Mar 11	1	1.67
Mar 7	3	34		MAR10	4	134		Mar 11	1	12		Mar 11	1	1.67
Mar 7	3	29		MAR10	4	124		Mar 11	1	11		Mar 11	1	2.83
Mar 7	3	32		MAR10	4	124		Mar 11	2	5		Mar 11	2	1.60
Mar 7	4	32		MAR10	4	124		Mar 11	2	8		Mar 11	2	1.50
Mar 7	4	21		MAR11	1	134		Mar 11	2	4		Mar 11	2	1.00
Mar 7	4	19		MAR11	1	134		Mar 11	2	7		Mar 11	2	3.33
Mar 8	1	18		MAR11	1	124		Mar 11	3	5		Mar 11	3	1.80
Mar 8	1	20		MAR11	2	124		Mar 11	3	1		Mar 11	3	1.00
Mar 8	1	20		MAR11	2	124		Mar 11	3	8		Mar 11	3	2.67
Mar 8	1	17		MAR11	2	134		Mar 11	3	13		Mar 11	3	3.33
Mar 8	2	22		MAR11	2	134		Mar 11	4	1		Mar 11	4	1.00
Mar 8	2	25		MAR11	3	124		Mar 11	4	9		Mar 11	4	2.00
Mar 8	2	23		MAR11	3	142		Mar 11	4	9		Mar 11	4	1.00
Mar 8	3	19		MAR11	3	124		Mar 11	4	11		Mar 11	4	1.83
Mar 8	3	7		MAR11	3	124		Pra 0	1	13		Pra 0	1	3.67
Mar 8	3	16		MAR11	4	134		Pra 0	1	9		Pra 0	1	11.17
Mar 8	4	13		MAR11	4	134		Pra 0	1	12		Pra 0	1	1.83
Mar 8	4	16		MAR11	4	134		Pra 0	1	4		Pra 0	1	2.50
Mar 8	4	13		MAR11	4	124		Pra 0	2	9		Pra 0	2	2.17
Mar 10	1	40		PRA0	1	148		Pra 0	2	6		Pra 0	2	1.33
Mar 10	1	35		PRA0	1	148		Pra 0	2	7		Pra 0	2	1.00
Mar 10	1	28		PRA0	1	148		Pra 0	2	8		Pra 0	2	3.17
Mar 10	1	37		PRA0	1	148		Pra 0	3	17		Pra 0	3	39.17
Mar 10	2	13		PRA0	2	148		Pra 0	3	1		Pra 0	3	1.00
Mar 10	2	25		PRA0	2	143		Pra 0	3	8		Pra 0	3	1.83
Mar 10	2	24		PRA0	2	148		Pra 0	3	10		Pra 0	3	1.67
Mar 10	3	30		PRA0	2	142		Pra 0	4	5		Pra 0	4	1.00
Mar 10	3	33		PRA0	3	148		Pra 0	4	5		Pra 0	4	1.60
Mar 10	3	46		PRA0	3	148		Pra 0	4	9		Pra 0	4	1.67
Mar 10	3	26		PRA0	3	142		Pra 0	4	22		Pra 0	4	27.00
Mar 10	4	17		PRA0	4	156		Pra 1	1	13		Pra 1	1	1.50
Mar 10	4	33		PRA0	4	148		Pra 1	1	9		Pra 1	1	1.83
Mar 10	4	25		PRA0	4	148		Pra 1	1	11		Pra 1	1	3.83
Mar 10	4	15		PRA0	4	148		Pra 1	1	8		Pra 1	1	1.17
Mar 11	1	33		PRA1	1	142		Pra 1	2	8		Pra 1	2	1.67
Mar 11	1	31		PRA1	1	134		Pra 1	2	10		Pra 1	2	1.67
Mar 11	1	32		PRA1	1	134		Pra 1	2	13		Pra 1	2	1.67
Mar 11	2	23		PRA1	1	142		Pra 1	2	20		Pra 1	2	9.00
Mar 11	2	24		PRA1	2	134		Pra 1	3	5		Pra 1	3	1.00
Mar 11	2	23		PRA1	2	142		Pra 1	3	15		Pra 1	3	7.83
Mar 11	2	16		PRA1	2	134		Pra 1	3	11		Pra 1	3	2.00
Mar 11	3	26		PRA1	2	134		Pra 1	3	9		Pra 1	3	2.33
Mar 11	3	16		PRA1	3	142		Pra 1	4	8		Pra 1	4	3.17
Mar 11	3	22		PRA1	3	142		Pra 1	4	12		Pra 1	4	3.67
Mar 11	3	32		PRA1	3	134		Pra 1	4	13		Pra 1	4	1.50
Mar 11	4	25		PRA1	3	142		Pra 2	1	2		Pra 2	1	1.00
Mar 11	4	18		PRA1	4	134		Pra 2	1	5		Pra 2	1	1.40
Mar 11	4	23		PRA1	4	134		Pra 2	1	3		Pra 2	1	1.00
Mar 11	4	28		PRA1	4	142		Pra 2	1	2		Pra 2	1	1.00
Pra 0	1	30		PRA1	4	148		Pra 2	2	7		Pra 2	2	1.67
Pra 0	1	24		PRA2	1	148		Pra 2	2	7		Pra 2	2	1.67
Pra 0	1	31		PRA2	1	148		Pra 2	2	9		Pra 2	2	3.00
Pra 0	1	18		PRA2	1	148		Pra 2	2	6		Pra 2	2	2.00
Pra 0	2	24		PRA2	1	148		Pra 2	3	4		Pra 2	3	1.25
Pra 0	2	27		PRA2	2	142		Pra 2	3	7		Pra 2	3	1.67
Pra 0	2	26		PRA2	2	142		Pra 2	3	5		Pra 2	3	1.80
Pra 0	2	20		PRA2	2	142		Pra 2	3	7		Pra 2	3	1.00
Pra 0	3	39		PRA2	2	142		Pra 2	4	4		Pra 2	4	1.25
Pra 0	3	18		PRA2	3	142		Pra 2	4	8		Pra 2	4	5.00
Pra 0	3	30		PRA2	3	142		Pra 2	4	4		Pra 2	4	1.00
Pra 0	3	28		PRA2	3	143		Pra 2	4	13		Pra 2	4	15.67
Pra 0	4	19		PRA2	3	142		Pra 3	1	7		Pra 3	1	1.67
Pra 0	4	23		PRA2	4	148		Pra 3	1	5		Pra 3	1	17.20
Pra 0	4	29		PRA2	4	142		Pra 3	1	5		Pra 3	1	1.20
Pra 0	4	29		PRA2	4	144		Pra 3	1	7		Pra 3	1	1.17
Pra 1	1	31		PRA2	4	142		Pra 3	2	5		Pra 3	2	2.00
Pra 1	1	38		PRA3	1	142		Pra 3	2	2		Pra 3	2	1.00
Pra 1	1	42		PRA3	1	148		Pra 3	2	1		Pra 3	2	1.00
Pra 1	1	23		PRA3	1	142		Pra 3	3	1		Pra 3	3	1.00
Pra 1	2	35		PRA3	1	142		Pra 3	3	3		Pra 3	3	1.33
Pra 1	2	31		PRA3	2	142		Pra 3	3	5		Pra 3	3	1.40
Pra 1	2	40		PRA3	2	142		Pra 3	3	2		Pra 3	3	1.00
Pra 1	2	31		PRA3	2	148		Pra 3	4	7		Pra 3	4	1.50
Pra 1	3	23		PRA3	3	148		Pra 3	4	5		Pra 3	4	1.20
Pra 1	3	40		PRA3	3	148		Pra 3	4	8		Pra 3	4	1.17
Pra 1	3	36		PRA3	3	142		Pra 4	1	14		Pra 4	1	2.83
Pra 1	3	42		PRA3	3	148		Pra 4	1	20		Pra 4	1	23.17
Pra 1	4	31		PRA3	4	142		Pra 4	1	11		Pra 4	1	1.83
Pra 1	4	38		PRA3	4	152		Pra 4	1	10		Pra 4	1	2.00
Pra 1	4	37		PRA3	4	142		Pra 4	2	10		Pra 4	2	2.00
Pra 2	1	15		PRA4	1	134		Pra 4	2	11		Pra 4	2	3.17
Pra 2	1	20		PRA4	1	134		Pra 4	2	9		Pra 4	2	2.83
Pra 2	1	21		PRA4	1	138		Pra 4	2	18		Pra 4	2	22.33
Pra 2	1	9		PRA4	1	142		Pra 4	3	12		Pra 4	3	4.33
Pra 2	2	12		PRA4	2	138		Pra 4	3	12		Pra 4	3	1.83
Pra 2	2	18		PRA4	2	142		Pra 4	3	6		Pra 4	3	2.00
Pra 2	2	23		PRA4	2	134		Pra 4	3	7		Pra 4	3	1.17
Pra 2	2	10		PRA4	2	142		Pra 4	4	11		Pra 4	4	1.83
Pra 2	3	15		PRA4	3	134		Pra 4	4	2		Pra 4	4	2.00
Pra 2	3	24		PRA4	3	142		Pra 4	4	9		Pra 4	4	1.67
Pra 2	3	9		PRA4	3	134		Pra 4	4	13		Pra 4	4	2.67
Pra 2	3	26		PRA4	3	142		Pra 5	1	7		Pra 5	1	1.00
Pra 2	4	12		PRA4	4	134		Pra 5	1	7		Pra 5	1	1.17
Pra 2	4	16		PRA4	4	142		Pra 5	1	9		Pra 5	1	1.83
Pra 2	4	21		PRA4	4	142		Pra 5	1	8		Pra 5	1	2.67
Pra 2	4	17		PRA4	4	142		Pra 5	2	13		Pra 5	2	2.67
Pra 3	1	29		PRA5	1	148		Pra 5	2	11		Pra 5	2	1.67
Pra 3	1	24		PRA5	1	142		Pra 5	2	4		Pra 5	2	1.00
Pra 3	1	14		PRA5	1	142		Pra 5	2	6		Pra 5	2	1.83
Pra 3	1	20		PRA5	1	142		Pra 5	2	9		Pra 5	2	2.00
Pra 3	2	17		PRA5	2	134		Pra 5	3	6		Pra 5	3	1.00
Pra 3	2	19		PRA5	2	142		Pra 5	3	3		Pra 5	3	1.00
Pra 3	2	12		PRA5	2	148		Pra 5	3	10		Pra 5	3	6.67
Pra 3	2	8		PRA5	2	134		Pra 5	3	1		Pra 5	3	1.00
Pra 3	3	9		PRA5	2	134		Pra 5	4	7		Pra 5	4	1.50
Pra 3	3	14		PRA5	3	142		Pra 5	4	10		Pra 5	4	3.00
Pra 3	3	16		PRA5	3	148		Pra 5	4	10		Pra 5	4	1.50
Pra 3	3	22		PRA5	3	134		Pra 6	1	8		Pra 6	1	2.50
Pra 3	4	20		PRA5	3	143		Pra 6	1	4		Pra 6	1	1.25
Pra 3	4	21		PRA5	4	142		Pra 6	1	3		Pra 6	1	1.00
Pra 3	4	20		PRA5	4	148		Pra 6	1	4		Pra 6	1	1.00
Pra 4	1	24		PRA5	4	134		Pra 6	2	7		Pra 6	2	1.33
Pra 4	1	49		PRA6	1	142		Pra 6	2	1		Pra 6	2	1.00
Pra 4	1	36		PRA6	1	148		Pra 6	2	10		Pra 6	2	2.33
Pra 4	1	23		PRA6	1	142		Pra 6	2	6		Pra 6	2	2.00
Pra 4	2	31		PRA6	1	148		Pra 6	3	1		Pra 6	3	1.00
Pra 4	2	45		PRA6	2	148		Pra 6	3	13		Pra 6	3	14.67
Pra 4	2	15		PRA6	2	148		Pra 6	3	6		Pra 6	3	1.67
Pra 4	2	38		PRA6	2	142		Pra 6	4	2		Pra 6	4	1.50
Pra 4	3	37		PRA6	2	142		Pra 6	4	9		Pra 6	4	2.50
Pra 4	3	42		PRA6	3	148		Pra 6	4	5		Pra 6	4	1.20
Pra 4	3	24		PRA6	3	134		Pra 6	4	10		Pra 6	4	3.83
Pra 4	3	30		PRA6	3	148		Pra 7	1	8		Pra 7	1	2.50
Pra 4	4	25		PRA6	3	134		Pra 7	1	2		Pra 7	1	1.50
Pra 4	4	23		PRA6	4	148		Pra 7	2	5		Pra 7	2	1.00
Pra 4	4	43		PRA6	4	142		Pra 7	2	5		Pra 7	2	1.20
Pra 4	4	43		PRA6	4	148		Pra 7	2	3		Pra 7	2	1.33
Pra 5	1	16		PRA6	4	134		Pra 7	3	4		Pra 7	3	1.25
Pra 5	1	20		PRA7	1	134		Pra 7	3	1		Pra 7	3	1.00
Pra 5	1	18		PRA7	1	148		Pra 7	3	8		Pra 7	3	1.33
Pra 5	1	34		PRA7	1	142		Pra 7	3	4		Pra 7	3	1.50
Pra 5	2	34		PRA7	2	148		Pra 7	4	1		Pra 7	4	1.00
Pra 5	2	27		PRA7	2	142		Pra 7	4	8		Pra 7	4	6.67
Pra 5	2	35		PRA7	2	148		Pra 7	4	4		Pra 7	4	1.25
Pra 5	2	13		PRA7	3	142		Pra 7	4	6		Pra 7	4	1.00
Pra 5	2	15		PRA7	3	148		Pra 8	1	6		Pra 8	1	11.00
Pra 5	3	15		PRA7	3	142		Pra 8	1	2		Pra 8	1	1.00
Pra 5	3	12		PRA7	3	142		Pra 8	1	14		Pra 8	1	7.83
Pra 5	3	17		PRA7	4	156		Pra 8	1	9		Pra 8	1	1.00
Pra 5	3	23		PRA7	4	134		Pra 8	2	9		Pra 8	2	1.67
Pra 5	4	17		PRA7	4	148		Pra 8	2	2		Pra 8	2	1.00
Pra 5	4	18		PRA7	4	148		Pra 8	2	10		Pra 8	2	4.17
Pra 5	4	25		PRA8	1	148		Pra 8	2	5		Pra 8	2	3.80
Pra 6	1	25		PRA8	1	148		Pra 8	3	6		Pra 8	3	1.33
Pra 6	1	17		PRA8	1	142		Pra 8	3	3		Pra 8	3	1.00
Pra 6	1	16		PRA8	1	148		Pra 8	4	9		Pra 8	4	2.00
Pra 6	1	10		PRA8	2	148		Pra 8	4	14		Pra 8	4	3.83
Pra 6	2	21		PRA8	2	148		Pra 8	4	10		Pra 8	4	3.17
Pra 6	2	22		PRA8	2	148		Pra 8	4	9		Pra 8	4	2.33
Pra 6	2	23		PRA8	2	148		Pra 10	1	8		Pra 10	1	2.50
Pra 6	2	25		PRA8	3	148		Pra 10	1	6		Pra 10	1	1.00
Pra 6	3	25		PRA8	3	148		Pra 10	1	8		Pra 10	1	4.00
Pra 6	3	28		PRA8	4	142		Pra 10	1	4		Pra 10	1	1.25
Pra 6	3	25		PRA8	4	142		Pra 10	2	5		Pra 10	2	2.40
Pra 6	3	9		PRA8	4	142		Pra 10	2	13		Pra 10	2	2.67
Pra 6	4	11		PRA8	4	142		Pra 10	3	4		Pra 10	3	2.50
Pra 6	4	30		PRA10	1	142		Pra 10	3	2		Pra 10	3	1.00
Pra 6	4	8		PRA10	1	148		Pra 10	3	1		Pra 10	3	2.00
Pra 6	4	26		PRA10	1	134		Pra 10	4	3		Pra 10	4	2.00
Pra 7	1	5		PRA10	1	148		Pra 10	4	3		Pra 10	4	1.00
Pra 7	1	24		PRA10	2	142		Pra 10	4	8		Pra 10	4	3.33
Pra 7	1	12		PRA10	2	143		Pra 10	4	6		Pra 10	4	1.33
Pra 7	1	8		PRA10	3	142		Qui 0	1	13		Qui 0	1	4.50
Pra 7	2	16		PRA10	3	142		Qui 0	1	7		Qui 0	1	17.83
Pra 7	2	15		PRA10	3	138		Qui 0	1	11		Qui 0	1	4.83
Pra 7	2	8		PRA10	4	142		Qui 0	1	5		Qui 0	1	1.00
Pra 7	3	10		PRA10	4	156		Qui 0	2	7		Qui 0	2	3.17
Pra 7	3	8		PRA10	4	148		Qui 0	2	3		Qui 0	2	1.00
Pra 7	3	19		PRA10	4	148		Qui 0	2	3		Qui 0	2	1.00
Pra 7	3	19		QUI0	1	134		Qui 0	2	9		Qui 0	2	3.17
Pra 7	4	10		QUI0	1	134		Qui 0	3	11		Qui 0	3	5.33
Pra 7	4	17		QUI0	1	134		Qui 0	3	7		Qui 0	3	2.33
Pra 7	4	18		QUI0	1	142		Qui 0	3	9		Qui 0	3	2.50
Pra 7	4	19		QUI0	2	134		Qui 0	4	9		Qui 0	4	3.17
Pra 8	1	25		QUI0	2	143		Qui 0	4	9		Qui 0	4	1.67
Pra 8	1	24		QUI0	2	148		Qui 0	4	11		Qui 0	4	12.83
Pra 8	1	21		QUI0	2	134		Qui 0	4	6		Qui 0	4	1.83
Pra 8	1	24		QUI0	3	130		Qui 1	1	7		Qui 1	1	1.17
Pra 8	2	20		QUI0	3	134		Qui 1	1	9		Qui 1	1	6.67
Pra 8	2	26		QUI0	3	134		Qui 1	1	7		Qui 1	1	1.67
Pra 8	2	26		QUI0	4	142		Qui 1	1	8		Qui 1	1	1.83
Pra 8	2	17		QUI0	4	142		Qui 1	2	7		Qui 1	2	2.50
Pra 8	3	29		QUI0	4	134		Qui 1	2	8		Qui 1	2	1.67
Pra 8	3	17		QUI0	4	134		Qui 1	2	7		Qui 1	2	4.83
Pra 8	3	25		QUI1	1	148		Qui 1	3	1		Qui 1	3	1.00
Pra 8	3	16		QUI1	1	148		Qui 1	3	1		Qui 1	3	1.00
Pra 8	4	18		QUI1	1	148		Qui 1	4	8		Qui 1	4	1.50
Pra 8	4	34		QUI1	1	148		Qui 1	4	12		Qui 1	4	20.33
Pra 8	4	34		QUI1	2	148		Qui 1	4	7		Qui 1	4	6.50
Pra 8	4	20		QUI1	2	148		Qui 2	1	8		Qui 2	1	1.83
Pra 10	1	24		QUI1	2	134		Qui 2	1	8		Qui 2	1	1.33
Pra 10	1	29		QUI1	3	148		Qui 2	1	6		Qui 2	1	1.50
Pra 10	1	18		QUI1	4	142		Qui 2	2	8		Qui 2	2	10.00
Pra 10	1	6		QUI1	4	152		Qui 2	2	10		Qui 2	2	1.67
Pra 10	2	26		QUI2	1	134		Qui 2	2	5		Qui 2	2	1.20
Pra 10	2	10		QUI2	1	142		Qui 2	3	2		Qui 2	3	3.00
Pra 10	2	9		QUI2	1	134		Qui 2	3	1		Qui 2	3	1.00
Pra 10	2	23		QUI2	2	142		Qui 2	3	8		Qui 2	3	2.50
Pra 10	3	15		QUI2	2	142		Qui 2	3	10		Qui 2	3	1.50
Pra 10	3	8		QUI2	2	142		Qui 2	4	7		Qui 2	4	1.00
Pra 10	3	13		QUI2	3	124		Qui 2	4	4		Qui 2	4	1.00
Pra 10	3	7		QUI2	3	142		Qui 2	4	3		Qui 2	4	1.33
Pra 10	4	14		QUI2	3	134		Qui 2	4	9		Qui 2	4	3.00
Pra 10	4	16		QUI2	3	134		Qui 3	1	1		Qui 3	1	1.00
Pra 10	4	20		QUI2	4	134		Qui 3	1	10		Qui 3	1	10.17
Pra 10	4	10		QUI2	4	142		Qui 3	1	10		Qui 3	1	1.00
Qui 0	1	30		QUI2	4	142		Qui 3	1	4		Qui 3	1	1.00
Qui 0	1	15		QUI2	4	134		Qui 3	2	6		Qui 3	2	1.00
Qui 0	1	27		QUI3	1	142		Qui 3	2	5		Qui 3	2	3.00
Qui 0	1	31		QUI3	1	142		Qui 3	2	3		Qui 3	2	1.33
Qui 0	2	11		QUI3	1	142		Qui 3	3	8		Qui 3	3	2.00
Qui 0	2	31		QUI3	1	142		Qui 3	3	2		Qui 3	3	6.50
Qui 0	2	14		QUI3	2	142		Qui 3	3	1		Qui 3	3	1.00
Qui 0	2	22		QUI3	2	134		Qui 3	3	1		Qui 3	3	1.00
Qui 0	3	33		QUI3	2	142		Qui 3	4	6		Qui 3	4	1.17
Qui 0	3	23		QUI3	3	134		Qui 3	4	1		Qui 3	4	2.00
Qui 0	3	19		QUI3	3	142		Qui 3	4	4		Qui 3	4	1.00
Qui 0	4	18		QUI3	3	148		Qui 4	1	7		Qui 4	1	1.50
Qui 0	4	19		QUI3	3	148		Qui 4	1	3		Qui 4	1	1.00
Qui 0	4	30		QUI3	4	142		Qui 4	1	2		Qui 4	1	1.00
Qui 0	4	16		QUI3	4	144		Qui 4	1	7		Qui 4	1	1.00
Qui 1	1	21		QUI3	4	142		Qui 4	2	5		Qui 4	2	1.20
Qui 1	1	17		QUI4	1	148		Qui 4	2	7		Qui 4	2	1.17
Qui 1	1	30		QUI4	1	163		Qui 4	2	3		Qui 4	2	2.00
Qui 1	1	20		QUI4	1	156		Qui 4	2	1		Qui 4	2	1.00
Qui 1	2	20		QUI4	1	163		Qui 4	3	3		Qui 4	3	2.33
Qui 1	2	18		QUI4	2	148		Qui 4	3	2		Qui 4	3	4.50
Qui 1	2	10		QUI4	2	148		Qui 4	3	1		Qui 4	3	1.00
Qui 1	2	13		QUI4	2	156		Qui 4	3	7		Qui 4	3	1.00
Qui 1	3	11		QUI4	2	156		Qui 4	4	10		Qui 4	4	8.50
Qui 1	3	8		QUI4	3	148		Qui 4	4	3		Qui 4	4	1.00
Qui 1	3	15		QUI4	3	148		Qui 4	4	6		Qui 4	4	7.00
Qui 1	4	21		QUI4	3	148		Qui 5	1	3		Qui 5	1	11.00
Qui 1	4	21		QUI4	4	142		Qui 5	1	8		Qui 5	1	2.17
Qui 1	4	17		QUI4	4	156		Qui 5	1	5		Qui 5	1	1.80
Qui 2	1	17		QUI4	4	142		Qui 5	1	4		Qui 5	1	1.00
Qui 2	1	18		QUI5	1	156		Qui 5	2	7		Qui 5	2	2.83
Qui 2	1	20		QUI5	1	142		Qui 5	2	3		Qui 5	2	1.00
Qui 2	2	22		QUI5	1	148		Qui 5	2	7		Qui 5	2	2.50
Qui 2	2	16		QUI5	1	156		Qui 5	2	1		Qui 5	2	1.00
Qui 2	2	17		QUI5	2	148		Qui 5	3	4		Qui 5	3	1.25
Qui 2	3	9		QUI5	2	156		Qui 5	3	7		Qui 5	3	1.83
Qui 2	3	5		QUI5	2	142		Qui 5	3	3		Qui 5	3	1.00
Qui 2	3	14		QUI5	3	148		Qui 5	4	6		Qui 5	4	1.33
Qui 2	3	18		QUI5	3	148		Qui 5	4	2		Qui 5	4	1.00
Qui 2	4	17		QUI5	3	156		Qui 5	4	10		Qui 5	4	80.17
Qui 2	4	21		QUI5	4	148		Qui 5	4	8		Qui 5	4	2.33
Qui 2	4	16		QUI5	4	156		Qui 6	1	10		Qui 6	1	1.17
Qui 2	4	20		QUI5	4	142		Qui 6	1	4		Qui 6	1	1.50
Qui 3	1	7		QUI5	4	148		Qui 6	1	8		Qui 6	1	1.33
Qui 3	1	22		QUI6	1	142		Qui 6	2	7		Qui 6	2	6.67
Qui 3	1	28		QUI6	1	142		Qui 6	2	7		Qui 6	2	9.17
Qui 3	1	12		QUI6	1	138		Qui 6	2	6		Qui 6	2	4.00
Qui 3	2	16		QUI6	2	134		Qui 6	2	7		Qui 6	2	2.50
Qui 3	2	13		QUI6	2	142		Qui 6	3	2		Qui 6	3	1.50
Qui 3	2	8		QUI6	2	134		Qui 6	3	3		Qui 6	3	1.67
Qui 3	2	16		QUI6	2	138		Qui 6	3	9		Qui 6	3	2.33
Qui 3	3	20		QUI6	3	134		Qui 6	4	5		Qui 6	4	1.80
Qui 3	3	18		QUI6	3	142		Qui 6	4	7		Qui 6	4	1.00
Qui 3	3	23		QUI6	3	134		Qui 6	4	11		Qui 6	4	54.17
Qui 3	3	10		QUI6	4	134		Qui 6	4	8		Qui 6	4	1.83
Qui 3	4	14		QUI6	4	142		Qui 7	1	10		Qui 7	1	2.00
Qui 3	4	6		QUI6	4	124		Qui 7	1	13		Qui 7	1	8.50
Qui 3	4	10		QUI6	4	134		Qui 7	1	6		Qui 7	1	1.17
Qui 4	1	32		QUI7	1	134		Qui 7	1	2		Qui 7	1	1.50
Qui 4	1	19		QUI7	1	134		Qui 7	2	9		Qui 7	2	4.50
Qui 4	1	25		QUI7	1	148		Qui 7	2	13		Qui 7	2	2.00
Qui 4	1	17		QUI7	1	142		Qui 7	2	6		Qui 7	2	7.50
Qui 4	2	20		QUI7	2	138		Qui 7	2	12		Qui 7	2	4.00
Qui 4	2	15		QUI7	2	142		Qui 7	3	14		Qui 7	3	48.00
Qui 4	2	4		QUI7	2	134		Qui 7	3	13		Qui 7	3	9.33
Qui 4	2	5		QUI7	2	138		Qui 7	3	4		Qui 7	3	1.25
Qui 4	3	5		QUI7	3	134		Qui 7	3	11		Qui 7	3	3.67
Qui 4	3	10		QUI7	3	134		Qui 7	4	12		Qui 7	4	1.17
Qui 4	3	8		QUI7	3	142		Qui 7	4	7		Qui 7	4	2.83
Qui 4	3	13		QUI7	3	134		Qui 7	4	8		Qui 7	4	5.17
Qui 4	4	12		QUI7	4	142		Qui 7	4	13		Qui 7	4	4.50
Qui 4	4	19		QUI7	4	134		Qui 8	1	11		Qui 8	1	2.67
Qui 4	4	7		QUI7	4	130		Qui 8	1	5		Qui 8	1	1.00
Qui 4	4	15		QUI7	4	134		Qui 8	1	4		Qui 8	1	2.00
Qui 5	1	9		QUI8	1	134		Qui 8	1	11		Qui 8	1	1.67
Qui 5	1	21		QUI8	1	138		Qui 8	2	12		Qui 8	2	3.50
Qui 5	1	13		QUI8	1	134		Qui 8	2	6		Qui 8	2	1.50
Qui 5	1	13		QUI8	1	134		Qui 8	2	2		Qui 8	2	3.00
Qui 5	2	15		QUI8	2	134		Qui 8	2	5		Qui 8	2	1.00
Qui 5	2	17		QUI8	2	142		Qui 8	3	3		Qui 8	3	1.00
Qui 5	2	20		QUI8	2	134		Qui 8	3	5		Qui 8	3	1.00
Qui 5	3	14		QUI8	2	142		Qui 8	3	7		Qui 8	3	5.67
Qui 5	3	17		QUI8	3	142		Qui 8	3	5		Qui 8	3	1.00
Qui 5	3	10		QUI8	3	134		Qui 8	4	6		Qui 8	4	6.00
Qui 5	4	17		QUI8	3	142		Qui 8	4	12		Qui 8	4	2.50
Qui 5	4	15		QUI8	3	142		Qui 8	4	9		Qui 8	4	3.67
Qui 5	4	19		QUI8	4	134		Qui 8	4	9		Qui 8	4	5.00
Qui 5	4	19		QUI8	4	134		Qui 9	1	4		Qui 9	1	1.00
Qui 6	1	20		QUI8	4	130		Qui 9	1	9		Qui 9	1	2.00
Qui 6	1	11		QUI8	4	134		Qui 9	1	1		Qui 9	1	1.00
Qui 6	1	25		QUI9	1	142		Qui 9	1	4		Qui 9	1	1.25
Qui 6	1	17		QUI9	1	142		Qui 9	2	4		Qui 9	2	1.25
Qui 6	2	13		QUI9	1	148		Qui 9	2	1		Qui 9	2	1.00
Qui 6	2	15		QUI9	1	142		Qui 9	2	10		Qui 9	2	7.00
Qui 6	2	27		QUI9	2	142		Qui 9	3	6		Qui 9	3	1.83
Qui 6	2	14		QUI9	2	142		Qui 9	3	3		Qui 9	3	3.00
Qui 6	3	15		QUI9	2	134		Qui 9	4	5		Qui 9	4	1.60
Qui 6	3	15		QUI9	3	134		Qui 9	4	5		Qui 9	4	2.40
Qui 6	3	16		QUI9	3	134		Qui 9	4	10		Qui 9	4	1.33
Qui 6	3	16		QUI9	3	148		San 0	1	7		San 0	1	1.50
Qui 6	4	14		QUI9	4	142		San 0	1	7		San 0	1	3.67
Qui 6	4	17		QUI9	4	134		San 0	1	8		San 0	1	3.33
Qui 6	4	18		QUI9	4	142		San 0	1	2		San 0	1	1.00
Qui 6	4	27		SAN0	1	112		San 0	2	7		San 0	2	2.33
Qui 7	1	20		SAN0	1	119		San 0	2	3		San 0	2	1.00
Qui 7	1	38		SAN0	1	112		San 0	2	8		San 0	2	2.33
Qui 7	1	11		SAN0	1	124		San 0	2	7		San 0	2	3.17
Qui 7	2	40		SAN0	2	124		San 0	3	9		San 0	3	4.00
Qui 7	2	28		SAN0	2	124		San 0	3	6		San 0	3	3.17
Qui 7	2	19		SAN0	2	124		San 0	3	7		San 0	3	1.00
Qui 7	2	29		SAN0	2	112		San 0	3	7		San 0	3	2.17
Qui 7	3	14		SAN0	3	124		San 0	4	8		San 0	4	4.00
Qui 7	3	30		SAN0	3	124		San 0	4	9		San 0	4	4.17
Qui 7	3	23		SAN0	3	134		San 0	4	4		San 0	4	2.00
Qui 7	3	32		SAN0	3	124		San 0	4	3		San 0	4	1.67
Qui 7	4	31		SAN0	4	112		San 2	1	8		San 2	1	1.83
Qui 7	4	13		SAN0	4	112		San 2	1	11		San 2	1	4.33
Qui 7	4	29		SAN0	4	124		San 2	1	9		San 2	1	1.83
Qui 7	4	32		SAN0	4	124		San 2	1	1		San 2	1	1.00
Qui 8	1	29		SAN2	1	134		San 2	2	7		San 2	2	9.83
Qui 8	1	20		SAN2	1	130		San 2	2	5		San 2	2	6.20
Qui 8	1	10		SAN2	1	134		San 2	2	8		San 2	2	1.17
Qui 8	1	27		SAN2	1	142		San 2	2	7		San 2	2	1.33
Qui 8	2	24		SAN2	2	124		San 2	3	7		San 2	3	4.00
Qui 8	2	18		SAN2	2	134		San 2	3	9		San 2	3	2.33
Qui 8	2	24		SAN2	2	129		San 2	3	1		San 2	3	1.00
Qui 8	2	19		SAN2	2	134		San 2	3	6		San 2	3	1.17
Qui 8	3	18		SAN2	3	124		San 2	4	7		San 2	4	1.00
Qui 8	3	27		SAN2	3	124		San 2	4	5		San 2	4	1.60
Qui 8	3	19		SAN2	3	142		San 2	4	9		San 2	4	2.33
Qui 8	3	15		SAN2	3	130		San 2	4	4		San 2	4	3.00
Qui 8	4	18		SAN2	4	134		San 4	1	7		San 4	1	1.50
Qui 8	4	27		SAN2	4	134		San 4	1	10		San 4	1	1.67
Qui 8	4	30		SAN2	4	124		San 4	1	9		San 4	1	1.67
Qui 8	4	23		SAN2	4	124		San 4	1	1		San 4	1	3.00
Qui 9	1	17		SAN4	1	130		San 4	2	10		San 4	2	1.67
Qui 9	1	19		SAN4	1	134		San 4	2	6		San 4	2	1.67
Qui 9	1	4		SAN4	1	134		San 4	2	8		San 4	2	2.83
Qui 9	1	15		SAN4	1	124		San 4	2	10		San 4	2	2.67
Qui 9	2	19		SAN4	2	134		San 4	3	4		San 4	3	2.25
Qui 9	2	19		SAN4	2	142		San 4	3	3		San 4	3	1.00
Qui 9	2	17		SAN4	2	124		San 4	3	1		San 4	3	3.00
Qui 9	3	16		SAN4	2	124		San 4	3	9		San 4	3	1.67
Qui 9	3	13		SAN4	3	124		San 4	4	10		San 4	4	6.33
Qui 9	3	16		SAN4	3	142		San 4	4	8		San 4	4	15.17
Qui 9	3	20		SAN4	3	143		San 4	4	7		San 4	4	4.83
Qui 9	4	23		SAN4	3	124		San 4	4	7		San 4	4	1.33
Qui 9	4	17		SAN4	4	124		San 5	1	5		San 5	1	1.20
Qui 9	4	18		SAN4	4	124		San 5	1	6		San 5	1	1.33
San 0	1	17		SAN4	4	124		San 5	1	5		San 5	1	1.40
San 0	1	17		SAN4	4	134		San 5	1	8		San 5	1	2.67
San 0	1	17		SAN5	1	130		San 5	2	1		San 5	2	2.00
San 0	1	14		SAN5	1	130		San 5	2	2		San 5	2	1.50
San 0	2	21		SAN5	1	134		San 5	2	9		San 5	2	2.33
San 0	2	19		SAN5	1	134		San 5	2	3		San 5	2	2.00
San 0	2	18		SAN5	2	124		San 5	3	1		San 5	3	1.00
San 0	2	22		SAN5	2	142		San 5	3	1		San 5	3	1.00
San 0	3	25		SAN5	2	124		San 5	3	3		San 5	3	1.33
San 0	3	25		SAN5	2	134		San 5	3	6		San 5	3	1.00
San 0	3	15		SAN5	3	148		San 5	4	6		San 5	4	1.83
San 0	3	16		SAN5	3	148		San 5	4	8		San 5	4	5.50
San 0	4	22		SAN5	3	134		San 5	4	7		San 5	4	1.17
San 0	4	27		SAN5	3	124		San 5	4	9		San 5	4	5.17
San 0	4	16		SAN5	4	124		San 6	1	12		San 6	1	11.67
San 0	4	11		SAN5	4	124		San 6	1	11		San 6	1	2.00
San 2	1	19		SAN5	4	134		San 6	1	9		San 6	1	2.83
San 2	1	21		SAN5	4	124		San 6	1	7		San 6	1	1.17
San 2	1	26		SAN6	1	119		San 6	2	14		San 6	2	13.83
San 2	1	12		SAN6	1	119		San 6	2	12		San 6	2	3.67
San 2	2	20		SAN6	1	119		San 6	2	11		San 6	2	6.33
San 2	2	13		SAN6	1	124		San 6	2	4		San 6	2	2.75
San 2	2	22		SAN6	2	124		San 6	3	8		San 6	3	2.00
San 2	2	18		SAN6	2	124		San 6	3	6		San 6	3	1.33
San 2	3	22		SAN6	2	124		San 6	3	1		San 6	3	1.00
San 2	3	30		SAN6	2	124		San 6	3	8		San 6	3	2.83
San 2	3	8		SAN6	3	124		San 6	4	2		San 6	4	2.50
San 2	3	14		SAN6	3	124		San 6	4	7		San 6	4	1.50
San 2	4	18		SAN6	3	134		San 6	4	6		San 6	4	5.17
San 2	4	13		SAN6	3	124		San 6	4	9		San 6	4	18.50
San 2	4	23		SAN6	4	112		San 8	1	9		San 8	1	4.00
San 2	4	20		SAN6	4	134		San 8	1	12		San 8	1	6.17
San 4	1	25		SAN6	4	124		San 8	1	12		San 8	1	4.00
San 4	1	27		SAN6	4	124		San 8	1	1		San 8	1	1.00
San 4	1	25		SAN8	1	119		San 8	2	11		San 8	2	5.83
San 4	1	7		SAN8	1	112		San 8	2	7		San 8	2	5.33
San 4	2	27		SAN8	1	112		San 8	2	12		San 8	2	3.83
San 4	2	18		SAN8	1	124		San 8	2	8		San 8	2	3.50
San 4	2	29		SAN8	2	124		San 8	3	5		San 8	3	1.00
San 4	2	23		SAN8	2	124		San 8	3	7		San 8	3	5.00
San 4	3	25		SAN8	2	112		San 8	3	5		San 8	3	1.80
San 4	3	16		SAN8	2	124		San 8	3	5		San 8	3	2.20
San 4	3	20		SAN8	3	124		San 8	4	11		San 8	4	2.00
San 4	3	21		SAN8	3	124		San 8	4	11		San 8	4	2.33
San 4	4	29		SAN8	3	130		San 8	4	7		San 8	4	2.83
San 4	4	24		SAN8	3	124		San 8	4	8		San 8	4	4.00
San 4	4	14		SAN8	4	124		San 9	1	11		San 9	1	2.33
San 4	4	20		SAN8	4	124		San 9	1	7		San 9	1	1.67
San 5	1	9		SAN8	4	124		San 9	1	7		San 9	1	1.67
San 5	1	13		SAN8	4	124		San 9	1	6		San 9	1	1.00
San 5	1	7		SAN9	1	124		San 9	2	13		San 9	2	2.00
San 5	1	11		SAN9	1	124		San 9	2	8		San 9	2	1.33
San 5	2	5		SAN9	1	124		San 9	2	9		San 9	2	4.33
San 5	2	11		SAN9	1	134		San 9	2	10		San 9	2	2.33
San 5	2	12		SAN9	2	124		San 9	3	4		San 9	3	1.25
San 5	2	7		SAN9	2	130		San 9	3	8		San 9	3	2.00
San 5	3	11		SAN9	2	124		San 9	3	3		San 9	3	1.00
San 5	3	7		SAN9	2	124		San 9	3	8		San 9	3	1.83
San 5	3	8		SAN9	3	134		San 9	4	12		San 9	4	1.83
San 5	3	11		SAN9	3	134		San 9	4	6		San 9	4	1.50
San 5	4	11		SAN9	3	142		San 9	4	1		San 9	4	1.00
San 5	4	15		SAN9	3	124		San 9	4	9		San 9	4	1.83
San 5	4	11		SAN9	4	124		San 10	1	2		San 10	1	2.00
San 5	4	15		SAN9	4	134		San 10	1	10		San 10	1	1.33
San 6	1	30		SAN9	4	142		San 10	1	2		San 10	1	1.50
San 6	1	34		SAN9	4	124		San 10	2	5		San 10	2	1.20
San 6	1	22		SAN10	1	134		San 10	2	3		San 10	2	2.33
San 6	1	22		SAN10	1	134		San 10	2	8		San 10	2	2.83
San 6	2	37		SAN10	1	130		San 10	2	8		San 10	2	2.50
San 6	2	31		SAN10	2	134		San 10	3	3		San 10	3	3.00
San 6	2	30		SAN10	2	124		San 10	3	11		San 10	3	14.50
San 6	3	30		SAN10	2	124		San 10	3	3		San 10	3	1.00
San 6	3	23		SAN10	2	124		San 10	3	4		San 10	3	2.00
San 6	3	19		SAN10	3	124		San 10	4	8		San 10	4	1.17
San 6	3	28		SAN10	3	124		San 10	4	6		San 10	4	3.00
San 6	4	22		SAN10	3	130		San 10	4	8		San 10	4	1.50
San 6	4	28		SAN10	3	142		San 10	4	1		San 10	4	1.00
San 6	4	23		SAN10	4	124		San 12	1	10		San 12	1	1.67
San 6	4	35		SAN10	4	124		San 12	1	8		San 12	1	1.67
San 8	1	25		SAN10	4	124		San 12	1	9		San 12	1	3.17
San 8	1	32		SAN10	4	134		San 12	1	6		San 12	1	1.50
San 8	1	36		SAN12	1	124		San 12	2	14		San 12	2	4.50
San 8	2	34		SAN12	1	130		San 12	2	8		San 12	2	1.50
San 8	2	22		SAN12	1	124		San 12	2	8		San 12	2	4.83
San 8	2	33		SAN12	1	134		San 12	2	8		San 12	2	3.67
San 8	2	12		SAN12	2	124		San 12	3	18		San 12	3	17.33
San 8	3	11		SAN12	2	134		San 12	3	10		San 12	3	2.83
San 8	3	27		SAN12	2	124		San 12	3	1		San 12	3	1.00
San 8	3	23		SAN12	2	124		San 12	3	9		San 12	3	3.67
San 8	3	23		SAN12	3	124		San 12	4	2		San 12	4	1.50
San 8	4	29		SAN12	3	124		San 12	4	10		San 12	4	1.50
San 8	4	30		SAN12	3	134		San 12	4	7		San 12	4	2.00
San 8	4	27		SAN12	3	124		San 12	4	8		San 12	4	8.67
San 8	4	24		SAN12	4	134		San 13	1	6		San 13	1	1.00
San 9	1	35		SAN12	4	134		San 13	1	3		San 13	1	1.67
San 9	1	24		SAN12	4	124		San 13	1	8		San 13	1	1.00
San 9	1	13		SAN12	4	124		San 13	1	4		San 13	1	1.50
San 9	1	23		SAN13	1	124		San 13	2	5		San 13	2	1.20
San 9	2	25		SAN13	1	124		San 13	2	7		San 13	2	1.00
San 9	2	25		SAN13	1	134		San 13	2	10		San 13	2	4.00
San 9	2	33		SAN13	1	124		San 13	2	9		San 13	2	1.83
San 9	2	32		SAN13	2	124		San 13	3	8		San 13	3	5.17
San 9	3	22		SAN13	2	134		San 13	3	3		San 13	3	1.33
San 9	3	24		SAN13	2	124		San 13	3	6		San 13	3	1.83
San 9	3	27		SAN13	2	124		San 13	3	3		San 13	3	1.00
San 9	3	18		SAN13	3	124		San 13	4	8		San 13	4	2.83
San 9	4	26		SAN13	3	124		San 13	4	2		San 13	4	3.00
San 9	4	19		SAN13	3	124		San 13	4	2		San 13	4	2.00
San 9	4	47		SAN13	3	138								
San 10	1	11		SAN13	4	134								
San 10	1	23		SAN13	4	124								
San 10	1	4		SAN13	4	134								
San 10	2	20		SAN13	4	124								
San 10	2	14												
San 10	2	14												
San 10	2	12												
San 10	3	9												
San 10	3	19												
San 10	3	10												
San 10	3	10												
San 10	4	14												
San 10	4	18												
San 10	4	16												
San 10	4	8												
San 12	1	32												
San 12	1	15												
San 12	1	28												
San 12	1	21												
San 12	2	29												
San 12	2	24												
San 12	2	27												
San 12	2	15												
San 12	3	28												
San 12	3	22												
San 12	3	11												
San 12	3	22												
San 12	4	7												
San 12	4	24												
San 12	4	15												
San 12	4	32												
San 13	1	15												
San 13	1	21												
San 13	1	15												
San 13	1	17												
San 13	2	16												
San 13	2	17												
San 13	2	22												
San 13	2	12												
San 13	3	18												
San 13	3	21												
San 13	3	20												
San 13	3	14												
San 13	4	14												
San 13	4	18												
San 13	4	10												
San 13	4	8												
